cleanup/results/CPUFileTest2.vcd
$date
	Fri Dec 14 14:30:31 2018
$end
$version
	Icarus Verilog
$end
$timescale
	1s
$end
$scope module CPUTester3 $end
$var reg 1 ! clk $end
$upscope $end
$scope module CPUTester3 $end
$var reg 1 " reset $end
$upscope $end
$scope module CPUTester3 $end
$scope module CPU_Test1 $end
$scope module Program_Counter $end
$var wire 1 ! Clk $end
$var wire 1 # Load $end
$var wire 32 $ PCNext [31:0] $end
$var wire 1 " Reset $end
$var reg 32 % PCResult [31:0] $end
$upscope $end
$upscope $end
$upscope $end
$scope module CPUTester3 $end
$scope module CPU_Test1 $end
$scope module Memory $end
$var wire 32 & address [31:0] $end
$var wire 1 ' byte $end
$var wire 32 ( dataIn [31:0] $end
$var wire 1 ) memEnable $end
$var wire 1 * rw $end
$var reg 1 + MOC $end
$var reg 32 , output_destination [31:0] $end
$upscope $end
$upscope $end
$upscope $end
$scope module CPUTester3 $end
$scope module CPU_Test1 $end
$scope module Control_Unit $end
$var wire 1 ! clk $end
$var wire 6 - opCode [5:0] $end
$var wire 1 " reset $end
$var wire 1 + MOC $end
$var reg 1 * RW $end
$var reg 6 . aluCode [5:0] $end
$var reg 2 / aluSrc [1:0] $end
$var reg 1 0 branch $end
$var reg 1 ' byte $end
$var reg 1 1 immediate $end
$var reg 1 2 irLoad $end
$var reg 1 3 jump $end
$var reg 1 4 marLoad $end
$var reg 1 5 mdrLoad $end
$var reg 1 6 mdrSource $end
$var reg 1 ) memEnable $end
$var reg 1 7 npcLoad $end
$var reg 1 # pcLoad $end
$var reg 1 8 pcSelect $end
$var reg 1 9 regWrite $end
$var reg 1 : rfSource $end
$var reg 5 ; state [4:0] $end
$var reg 1 < unSign $end
$upscope $end
$upscope $end
$upscope $end
$scope module CPUTester3 $end
$scope module CPU_Test1 $end
$scope module alu $end
$var wire 32 = b [31:0] $end
$var wire 6 > operation [5:0] $end
$var wire 32 ? a [31:0] $end
$var reg 32 @ Result [31:0] $end
$var reg 1 A carryFlag $end
$var reg 1 B negativeFlag $end
$var reg 1 C overFlowFlag $end
$var reg 32 D tempVar [31:0] $end
$var reg 1 E zeroFlag $end
$var integer 32 F counter [31:0] $end
$var integer 32 G index [31:0] $end
$var integer 32 H var [31:0] $end
$upscope $end
$upscope $end
$upscope $end
$scope module CPUTester3 $end
$scope module CPU_Test1 $end
$scope module Register_File $end
$var wire 5 I A_Address [4:0] $end
$var wire 5 J B_Address [4:0] $end
$var wire 1 ! Clk $end
$var wire 1 9 Write $end
$var wire 32 K C_Data [31:0] $end
$var wire 5 L C_Address [4:0] $end
$var reg 32 M A_Data [31:0] $end
$var reg 32 N B_Data [31:0] $end
$upscope $end
$upscope $end
$upscope $end
$scope module CPUTester3 $end
$scope module CPU_Test1 $end
$scope module addFour $end
$var wire 32 O pc [31:0] $end
$var wire 32 P result [31:0] $end
$upscope $end
$upscope $end
$upscope $end
$scope module CPUTester3 $end
$scope module CPU_Test1 $end
$scope module adder $end
$var wire 32 Q entry1 [31:0] $end
$var wire 32 R entry0 [31:0] $end
$var reg 32 S result [31:0] $end
$upscope $end
$upscope $end
$upscope $end
$scope module CPUTester3 $end
$scope module CPU_Test1 $end
$scope module signExt $end
$var wire 16 T ins [15:0] $end
$var wire 1 < unSign $end
$var reg 32 U result [31:0] $end
$var reg 16 V tempOnes [15:0] $end
$var reg 16 W tempZero [15:0] $end
$upscope $end
$upscope $end
$upscope $end
$scope module CPUTester3 $end
$scope module CPU_Test1 $end
$scope module shftJump $end
$var wire 26 X in [25:0] $end
$var reg 28 Y result [27:0] $end
$upscope $end
$upscope $end
$upscope $end
$scope module CPUTester3 $end
$scope module CPU_Test1 $end
$scope module shftLeft $end
$var wire 32 Z in [31:0] $end
$var reg 32 [ result [31:0] $end
$upscope $end
$upscope $end
$upscope $end
$scope module CPUTester3 $end
$scope module CPU_Test1 $end
$scope module simpleAND $end
$var wire 1 E Z_flag $end
$var wire 1 0 branch $end
$var reg 1 \ result $end
$upscope $end
$upscope $end
$upscope $end
$scope module CPUTester3 $end
$scope module CPU_Test1 $end
$scope module MAR $end
$var wire 1 4 load $end
$var wire 32 ] in [31:0] $end
$var reg 32 ^ result [31:0] $end
$upscope $end
$upscope $end
$upscope $end
$scope module CPUTester3 $end
$scope module CPU_Test1 $end
$scope module MDR $end
$var wire 1 5 load $end
$var wire 32 _ in [31:0] $end
$var reg 32 ` result [31:0] $end
$upscope $end
$upscope $end
$upscope $end
$scope module CPUTester3 $end
$scope module CPU_Test1 $end
$scope module NPC $end
$var wire 32 a in [31:0] $end
$var wire 1 7 load $end
$var reg 32 b result [31:0] $end
$upscope $end
$upscope $end
$upscope $end
$scope module CPUTester3 $end
$scope module CPU_Test1 $end
$scope module IR $end
$var wire 1 2 load $end
$var wire 32 c in [31:0] $end
$var reg 32 d result [31:0] $end
$upscope $end
$upscope $end
$upscope $end
$scope module CPUTester3 $end
$scope module CPU_Test1 $end
$scope module funcMux $end
$var wire 6 e one [5:0] $end
$var wire 1 1 s $end
$var wire 6 f zero [5:0] $end
$var reg 6 g result [5:0] $end
$upscope $end
$upscope $end
$upscope $end
$scope module CPUTester3 $end
$scope module CPU_Test1 $end
$scope module pcMux $end
$var wire 32 h one [31:0] $end
$var wire 1 8 s $end
$var wire 32 i zero [31:0] $end
$var reg 32 j result [31:0] $end
$upscope $end
$upscope $end
$upscope $end
$scope module CPUTester3 $end
$scope module CPU_Test1 $end
$scope module Jump_Mux $end
$var wire 32 k one [31:0] $end
$var wire 1 3 s $end
$var wire 32 l zero [31:0] $end
$var reg 32 m result [31:0] $end
$upscope $end
$upscope $end
$upscope $end
$scope module CPUTester3 $end
$scope module CPU_Test1 $end
$scope module ALU_Mux $end
$var wire 32 n three [31:0] $end
$var wire 32 o zero [31:0] $end
$var wire 32 p two [31:0] $end
$var wire 2 q s [1:0] $end
$var wire 32 r one [31:0] $end
$var reg 32 s result [31:0] $end
$upscope $end
$upscope $end
$upscope $end
$scope module CPUTester3 $end
$scope module CPU_Test1 $end
$scope module Register_Mux $end
$var wire 5 t one [4:0] $end
$var wire 1 : s $end
$var wire 5 u zero [4:0] $end
$var reg 5 v result [4:0] $end
$upscope $end
$upscope $end
$upscope $end
$scope module CPUTester3 $end
$scope module CPU_Test1 $end
$scope module mdrMux $end
$var wire 32 w one [31:0] $end
$var wire 1 6 s $end
$var wire 32 x zero [31:0] $end
$var reg 32 y result [31:0] $end
$upscope $end
$upscope $end
$upscope $end
$scope module CPUTester3 $end
$scope module CPU_Test1 $end
$scope module Branch_Mux $end
$var wire 32 z zero [31:0] $end
$var wire 1 \ s $end
$var wire 32 { one [31:0] $end
$var reg 32 | result [31:0] $end
$upscope $end
$upscope $end
$upscope $end
$enddefinitions $end
#0
$dumpvars
b100 |
bx {
b100 z
bx y
bx x
bx w
bx v
bx u
bx t
bx s
bx r
bx q
bx p
bx o
b0 n
b0xxxxxxxxxxxxxxxxxxxxxxxxxxxx m
b100 l
b0xxxxxxxxxxxxxxxxxxxxxxxxxxxx k
b0 j
bx i
b0 h
bx g
bx f
bx e
bx d
bx c
bx b
b0xxxxxxxxxxxxxxxxxxxxxxxxxxxx a
bx `
bx _
bx ^
bx ]
0\
bx [
bx Z
bx Y
bx X
b0 W
b1111111111111111 V
bx U
bx T
bx S
bx R
b100 Q
b100 P
b0 O
bx N
bx M
bx L
bx K
bx J
bx I
b0 H
bx G
b0 F
0E
bx D
xC
xB
xA
bx @
b0 ?
bx >
bx =
x<
b0 ;
x:
x9
x8
x7
x6
x5
x4
x3
x2
x1
x0
bx /
bx .
bx -
bx ,
1+
x*
x)
bx (
x'
bx &
b0 %
bx $
x#
0"
0!
$end
#5
b0 /
b0 q
b100 a
b100 m
bx ?
bx j
06
05
04
0*
00
03
09
0:
02
01
08
0)
0<
07
0#
0'
1!
#6
b1 ;
#10
0!
#15
0C
0A
b0 @
b0 ]
b0 w
b100001 >
b100001 g
b0 =
b0 s
b100001 .
b100001 e
b11 /
b11 q
b100 $
b100 b
b0 ?
b0 j
11
07
18
1!
#16
b0 &
b0 ^
14
#17
b10 ;
#20
0!
#25
b100100000001010000000100000000 K
b100100000001010000000100000000 _
b100100000001010000000100000000 y
b100100000001010000000100000000 ,
b100100000001010000000100000000 c
b100100000001010000000100000000 x
0+
1)
04
1!
#26
b11 ;
#30
0!
#35
1!
#38
1+
#40
0!
#45
0)
1!
#46
b0 N
b0 o
b0 M
b0 i
b10000000100 S
b10000000100 {
b10000000000 R
b10000000000 [
b101000000010000000000 k
b101000000010000000000 Y
b100000000 U
b100000000 Z
b100000000 r
b101 L
b101 v
b1010000000100000000 X
b100000000 T
b101 J
b0 I
b0 t
b101 u
b0 f
b1001 -
b100100000001010000000100000000 d
12
#47
b100 ;
#50
0!
#55
b0 >
b0 g
1<
b100001 .
b100001 e
b0 /
b0 q
08
01
02
1!
#56
b110 ;
#60
0!
#65
b100000000 @
b100000000 ]
b100000000 w
b100000000 =
b100000000 s
b100000000 K
b100000000 _
b100000000 y
b100001 >
b100001 g
b1 /
b1 q
16
11
1!
#66
b100000000 N
b100000000 o
b1000 a
b1000 m
b1000 l
b1000 |
b10000001000 S
b10000001000 {
b1000 P
b1000 Q
b1000 z
b100 %
b100 O
b100 h
b100000000 (
b100000000 `
b100000000 p
1#
17
19
15
#67
b1 ;
#70
0!
#75
b0 =
b0 s
b11 /
b11 q
b100 K
b100 _
b100 y
b100 @
b100 ]
b100 w
b100 ?
b100 j
07
0<
0#
05
18
1!
#76
b100 &
b100 ^
14
#77
b10 ;
#80
0!
#85
b101000000000000000110000 ,
b101000000000000000110000 c
b101000000000000000110000 x
0+
1)
04
1!
#86
b11 ;
#90
0!
#95
1!
#98
1+
#100
0!
#105
0)
1!
#106
b0 N
b0 o
b100000000 M
b100000000 i
b11001000 S
b11001000 {
b11000000 R
b11000000 [
b10100000000000000011000000 k
b10100000000000000011000000 Y
b110000 U
b110000 Z
b110000 r
b0 L
b0 v
b101000000000000000110000 X
b110000 T
b0 J
b101 I
b0 u
b110000 f
b0 -
b101000000000000000110000 d
12
#107
b100 ;
#110
0!
#115
b100000000 ?
b100000000 j
b110000 >
b110000 g
b101000000000000000110000 K
b101000000000000000110000 _
b101000000000000000110000 y
b0 .
b0 e
b0 /
b0 q
08
01
02
06
09
1!
#116
b101 ;
#120
0!
#125
b100 K
b100 _
b100 y
b101000000000000000110000 (
b101000000000000000110000 `
b101000000000000000110000 p
16
15
1:
1!
#126
b1100 a
b1100 m
b1100 l
b1100 |
b11001100 S
b11001100 {
b1100 P
b1100 Q
b1100 z
b1000 %
b1000 O
b1000 h
b1000 $
b1000 b
1#
17
19
#127
b1 ;
#130
0!
#135
b100001 .
b100001 e
b11 /
b11 q
b1000 K
b1000 _
b1000 y
b1000 @
b1000 ]
b1000 w
b100001 >
b100001 g
b1000 ?
b1000 j
07
11
0#
05
18
1!
#136
b1000 &
b1000 ^
14
#137
b10 ;
#140
0!
#145
b100100000010100000000001011000 ,
b100100000010100000000001011000 c
b100100000010100000000001011000 x
0+
1)
04
1!
#146
b11 ;
#150
0!
#155
1!
#158
1+
#160
0!
#165
0)
1!
#166
b0 M
b0 i
b101101100 S
b101101100 {
b101100000 R
b101100000 [
b1010000000000101100000 k
b1010000000000101100000 Y
b1011000 U
b1011000 Z
b1011000 r
b10100000000001011000 X
b1011000 T
b1010 J
b0 I
b1010 u
b11000 f
b1001 -
b100100000010100000000001011000 d
12
#167
b100 ;
#170
0!
#175
b0 ?
b0 j
b11000 >
b11000 g
b100100000010100000000001011000 K
b100100000010100000000001011000 _
b100100000010100000000001011000 y
1<
b100001 .
b100001 e
b0 /
b0 q
08
01
02
06
09
1!
#176
b110 ;
#180
0!
#185
b1011000 @
b1011000 ]
b1011000 w
b1011000 =
b1011000 s
b1011000 K
b1011000 _
b1011000 y
b100001 >
b100001 g
b1010 L
b1010 v
b1 /
b1 q
16
11
0:
1!
#186
b1011000 N
b1011000 o
b10000 a
b10000 m
b10000 l
b10000 |
b101110000 S
b101110000 {
b10000 P
b10000 Q
b10000 z
b1100 %
b1100 O
b1100 h
b1100 $
b1100 b
b1011000 (
b1011000 `
b1011000 p
1#
17
19
15
#187
b1 ;
#190
0!
#195
b0 =
b0 s
b11 /
b11 q
b1100 K
b1100 _
b1100 y
b1100 @
b1100 ]
b1100 w
b1100 ?
b1100 j
07
0<
0#
05
18
1!
#196
b1100 &
b1100 ^
14
#197
b10 ;
#200
0!
#205
b100100000001000000000001011000 ,
b100100000001000000000001011000 c
b100100000001000000000001011000 x
0+
1)
04
1!
#206
b11 ;
#210
0!
#215
1!
#218
1+
#220
0!
#225
0)
1!
#226
b0 N
b0 o
b100000000000101100000 k
b100000000000101100000 Y
b100 L
b100 v
b1000000000001011000 X
b100 J
b100 u
b100100000001000000000001011000 d
12
#227
b100 ;
#230
0!
#235
b0 ?
b0 j
b11000 >
b11000 g
b100100000001000000000001011000 K
b100100000001000000000001011000 _
b100100000001000000000001011000 y
1<
b100001 .
b100001 e
b0 /
b0 q
08
01
02
06
09
1!
#236
b110 ;
#240
0!
#245
b1011000 @
b1011000 ]
b1011000 w
b1011000 =
b1011000 s
b1011000 K
b1011000 _
b1011000 y
b100001 >
b100001 g
b1 /
b1 q
16
11
1!
#246
b1011000 N
b1011000 o
b10100 a
b10100 m
b10100 l
b10100 |
b101110100 S
b101110100 {
b10100 P
b10100 Q
b10100 z
b10000 %
b10000 O
b10000 h
b10000 $
b10000 b
1#
17
19
15
#247
b1 ;
#250
0!
#255
b0 =
b0 s
b11 /
b11 q
b10000 K
b10000 _
b10000 y
b10000 @
b10000 ]
b10000 w
b10000 ?
b10000 j
07
0<
0#
05
18
1!
#256
b10000 &
b10000 ^
14
#257
b10 ;
#260
0!
#265
b10101101010001010000000000000000 ,
b10101101010001010000000000000000 c
b10101101010001010000000000000000 x
0+
1)
04
1!
#266
b11 ;
#270
0!
#275
1!
#278
1+
#280
0!
#285
0)
1!
#286
b100000000 N
b100000000 o
b1011000 M
b1011000 i
b10100 S
b10100 {
b0 R
b0 [
b101000101000000000000000000 k
b101000101000000000000000000 Y
b0 U
b0 Z
b0 r
b101 L
b101 v
b1010001010000000000000000 X
b0 T
b101 J
b1010 I
b101 u
b0 f
b101011 -
b10101101010001010000000000000000 d
12
#287
b100 ;
#290
0!
#295
b1000000000 @
b1000000000 ]
b1000000000 w
b100000000 =
b100000000 s
b1011000 ?
b1011000 j
b0 >
b0 g
b10101101010001010000000000000000 K
b10101101010001010000000000000000 _
b10101101010001010000000000000000 y
b100000 .
b100000 e
b0 /
b0 q
08
01
02
06
09
1!
#296
b1010 ;
#300
0!
#305
b0 =
b0 s
b1 /
b1 q
0B
b1011000 @
b1011000 ]
b1011000 w
b100000 >
b100000 g
11
1!
#306
b1011000 &
b1011000 ^
14
#307
b1011 ;
#310
0!
#315
b0 @
b0 ]
b0 w
b111 >
b111 g
b100000000 =
b100000000 s
b111 .
b111 e
b0 /
b0 q
b0 K
b0 _
b0 y
16
04
1!
#316
b0 (
b0 `
b0 p
15
#317
b1100 ;
#320
0!
#325
b1000000000 K
b1000000000 _
b1000000000 y
b1000000000 @
b1000000000 ]
b1000000000 w
b0 >
b0 g
b0 .
b0 e
b11000 a
b11000 m
b11000 l
b11000 |
b11000 S
b11000 {
b11000 P
b11000 Q
b11000 z
b10100 %
b10100 O
b10100 h
b10100 $
b10100 b
0+
1#
17
1*
0)
05
1!
#326
b1 ;
#330
0!
#335
b10100 K
b10100 _
b10100 y
b10100 @
b10100 ]
b10100 w
b100001 >
b100001 g
b0 =
b0 s
b100001 .
b100001 e
b11 /
b11 q
b10100 ?
b10100 j
07
0#
18
1!
#336
b10100 &
b10100 ^
14
#337
b10 ;
#338
1+
#340
0!
#345
b100101010010100000000000000100 ,
b100101010010100000000000000100 c
b100101010010100000000000000100 x
0+
0*
1)
04
1!
#346
b11 ;
#350
0!
#355
1!
#358
1+
#360
0!
#365
0)
1!
#366
b1011000 N
b1011000 o
b101000 S
b101000 {
b10000 R
b10000 [
b101001010000000000000010000 k
b101001010000000000000010000 Y
b100 U
b100 Z
b100 r
b1010 L
b1010 v
b1010010100000000000000100 X
b100 T
b1010 J
b1010 u
b100 f
b1001 -
b100101010010100000000000000100 d
12
#367
b100 ;
#370
0!
#375
b0 @
b0 ]
b0 w
b1011000 =
b1011000 s
b1011000 ?
b1011000 j
b100 >
b100 g
b100101010010100000000000000100 K
b100101010010100000000000000100 _
b100101010010100000000000000100 y
1<
b100001 .
b100001 e
b0 /
b0 q
08
01
02
06
1!
#376
b110 ;
#380
0!
#385
b1011100 @
b1011100 ]
b1011100 w
b100 =
b100 s
b1011100 K
b1011100 _
b1011100 y
b100001 >
b100001 g
b1 /
b1 q
16
11
1!
#386
b1100000 K
b1100000 _
b1100000 y
b1100000 @
b1100000 ]
b1100000 w
b1011100 ?
b1011100 j
b1011100 N
b1011100 o
b1011100 M
b1011100 i
b11100 a
b11100 m
b11100 l
b11100 |
b101100 S
b101100 {
b11100 P
b11100 Q
b11100 z
b11000 %
b11000 O
b11000 h
b11000 $
b11000 b
b1011100 (
b1011100 `
b1011100 p
1#
17
19
15
#387
b1 ;
#390
0!
#395
b0 =
b0 s
b11 /
b11 q
b11000 K
b11000 _
b11000 y
b11000 @
b11000 ]
b11000 w
b11000 ?
b11000 j
07
0<
0#
05
18
1!
#396
b11000 &
b11000 ^
14
#397
b10 ;
#400
0!
#405
b10001100100011001111111111111100 ,
b10001100100011001111111111111100 c
b10001100100011001111111111111100 x
0+
1)
04
1!
#406
b11 ;
#410
0!
#415
1!
#418
1+
#420
0!
#425
0)
1!
#426
b0 N
b0 o
b1011000 M
b1011000 i
b1100 S
b1100 {
b11111111111111111111111111110000 R
b11111111111111111111111111110000 [
b10001100111111111111110000 k
b10001100111111111111110000 Y
b11111111111111111111111111111100 U
b11111111111111111111111111111100 Z
b11111111111111111111111111111100 r
b1100 L
b1100 v
b100011001111111111111100 X
b1111111111111100 T
b1100 J
b100 I
b11111 t
b1100 u
b111100 f
b100011 -
b10001100100011001111111111111100 d
12
#427
b100 ;
#430
0!
#435
b1011000 ?
b1011000 j
b111100 >
b111100 g
b10001100100011001111111111111100 K
b10001100100011001111111111111100 _
b10001100100011001111111111111100 y
b100000 .
b100000 e
b0 /
b0 q
08
01
02
06
09
1!
#436
b111 ;
#440
0!
#445
b11111111111111111111111111111100 =
b11111111111111111111111111111100 s
b1 /
b1 q
b1010100 @
b1010100 ]
b1010100 w
b100000 >
b100000 g
11
1!
#446
b1010100 &
b1010100 ^
14
#447
b1000 ;
#450
0!
#455
b11000000000000000000000000000000 K
b11000000000000000000000000000000 _
b11000000000000000000000000000000 y
b11000000000000000000000000000000 ,
b11000000000000000000000000000000 c
b11000000000000000000000000000000 x
0+
1)
04
1!
#456
b1001 ;
#460
0!
#465
1!
#466
b11000000000000000000000000000000 N
b11000000000000000000000000000000 o
b100000 a
b100000 m
b100000 l
b100000 |
b10000 S
b10000 {
b100000 P
b100000 Q
b100000 z
b11100 %
b11100 O
b11100 h
b11100 $
b11100 b
b11000000000000000000000000000000 (
b11000000000000000000000000000000 `
b11000000000000000000000000000000 p
1#
17
19
0)
15
#467
b1 ;
#468
1+
#470
0!
#475
b100001 >
b100001 g
b0 =
b0 s
b100001 .
b100001 e
b11 /
b11 q
b11100 @
b11100 ]
b11100 w
b11100 ?
b11100 j
07
0#
05
18
1!
#476
b11100 &
b11100 ^
14
#477
b10 ;
#480
0!
#485
b10001100100010111111111111111000 K
b10001100100010111111111111111000 _
b10001100100010111111111111111000 y
b10001100100010111111111111111000 ,
b10001100100010111111111111111000 c
b10001100100010111111111111111000 x
0+
1)
04
1!
#486
b11 ;
#490
0!
#495
1!
#498
1+
#500
0!
#505
0)
1!
#506
b0 N
b0 o
b0 S
b0 {
b11111111111111111111111111100000 R
b11111111111111111111111111100000 [
b10001011111111111111100000 k
b10001011111111111111100000 Y
b11111111111111111111111111111000 U
b11111111111111111111111111111000 Z
b11111111111111111111111111111000 r
b1011 L
b1011 v
b100010111111111111111000 X
b1111111111111000 T
b1011 J
b1011 u
b111000 f
b10001100100010111111111111111000 d
12
#507
b100 ;
#510
0!
#515
b1011000 ?
b1011000 j
b111000 >
b111000 g
b100000 .
b100000 e
b0 /
b0 q
08
01
02
09
1!
#516
b111 ;
#520
0!
#525
b11111111111111111111111111111000 =
b11111111111111111111111111111000 s
b1 /
b1 q
b1010000 @
b1010000 ]
b1010000 w
b100000 >
b100000 g
11
1!
#526
b1010000 &
b1010000 ^
14
#527
b1000 ;
#530
0!
#535
b10100000000000000000000000000000 K
b10100000000000000000000000000000 _
b10100000000000000000000000000000 y
b10100000000000000000000000000000 ,
b10100000000000000000000000000000 c
b10100000000000000000000000000000 x
0+
1)
04
1!
#536
b1001 ;
#540
0!
#545
1!
#546
b10100000000000000000000000000000 N
b10100000000000000000000000000000 o
b100100 a
b100100 m
b100100 l
b100100 |
b100 S
b100 {
b100100 P
b100100 Q
b100100 z
b100000 %
b100000 O
b100000 h
b100000 $
b100000 b
b10100000000000000000000000000000 (
b10100000000000000000000000000000 `
b10100000000000000000000000000000 p
1#
17
19
0)
15
#547
b1 ;
#548
1+
#550
0!
#555
b100001 >
b100001 g
b0 =
b0 s
b100001 .
b100001 e
b11 /
b11 q
b100000 @
b100000 ]
b100000 w
b100000 ?
b100000 j
07
0#
05
18
1!
#556
b100000 &
b100000 ^
14
#557
b10 ;
#560
0!
#565
b1100010110001000000100000 K
b1100010110001000000100000 _
b1100010110001000000100000 y
b1100010110001000000100000 ,
b1100010110001000000100000 c
b1100010110001000000100000 x
0+
1)
04
1!
#566
b11 ;
#570
0!
#575
1!
#578
1+
#580
0!
#585
0)
1!
#586
b11000000000000000000000000000000 M
b11000000000000000000000000000000 i
b100000010100100 S
b100000010100100 {
b100000010000000 R
b100000010000000 [
b110001011000100000010000000 k
b110001011000100000010000000 Y
b1000000100000 U
b1000000100000 Z
b1000000100000 r
b1100010110001000000100000 X
b1000000100000 T
b1100 I
b10 t
b100000 f
b0 -
b1100010110001000000100000 d
12
#587
b100 ;
#590
0!
#595
1C
b1100000000000000000000000000000 @
b1100000000000000000000000000000 ]
b1100000000000000000000000000000 w
b10100000000000000000000000000000 =
b10100000000000000000000000000000 s
b11000000000000000000000000000000 ?
b11000000000000000000000000000000 j
b100000 >
b100000 g
b0 .
b0 e
b0 /
b0 q
08
01
02
09
1!
#596
b101 ;
#600
0!
#605
b1100000000000000000000000000000 K
b1100000000000000000000000000000 _
b1100000000000000000000000000000 y
b1100010110001000000100000 (
b1100010110001000000100000 `
b1100010110001000000100000 p
b10 L
b10 v
16
15
1:
1!
#606
b101000 a
b101000 m
b101000 l
b101000 |
b100000010101000 S
b100000010101000 {
b101000 P
b101000 Q
b101000 z
b100100 %
b100100 O
b100100 h
b100100 $
b100100 b
1#
17
19
#607
b1 ;
#610
0!
#615
0C
b0 =
b0 s
b100001 .
b100001 e
b11 /
b11 q
b100100 K
b100100 _
b100100 y
b100100 @
b100100 ]
b100100 w
b100001 >
b100001 g
b100100 ?
b100100 j
07
11
0#
05
18
1!
#616
b100100 &
b100100 ^
14
#617
b10 ;
#620
0!
#625
b10101101010001010000000000000000 ,
b10101101010001010000000000000000 c
b10101101010001010000000000000000 x
0+
1)
04
1!
#626
b11 ;
#630
0!
#635
1!
#638
1+
#640
0!
#645
0)
1!
#646
b100000000 N
b100000000 o
b1011100 M
b1011100 i
b101000 S
b101000 {
b0 R
b0 [
b101000101000000000000000000 k
b101000101000000000000000000 Y
b0 U
b0 Z
b0 r
b0 L
b0 v
b1010001010000000000000000 X
b0 T
b101 J
b1010 I
b0 t
b101 u
b0 f
b101011 -
b10101101010001010000000000000000 d
12
#647
b100 ;
#650
0!
#655
b1000000000 @
b1000000000 ]
b1000000000 w
b100000000 =
b100000000 s
b1011100 ?
b1011100 j
b0 >
b0 g
b10101101010001010000000000000000 K
b10101101010001010000000000000000 _
b10101101010001010000000000000000 y
b100000 .
b100000 e
b0 /
b0 q
08
01
02
06
09
1!
#656
b1010 ;
#660
0!
#665
b0 =
b0 s
b1 /
b1 q
b1011100 @
b1011100 ]
b1011100 w
b100000 >
b100000 g
11
1!
#666
b1011100 &
b1011100 ^
14
#667
b1011 ;
#670
0!
#675
b0 @
b0 ]
b0 w
b111 >
b111 g
b100000000 =
b100000000 s
b111 .
b111 e
b0 /
b0 q
b0 K
b0 _
b0 y
16
04
1!
#676
b0 (
b0 `
b0 p
15
#677
b1100 ;
#680
0!
#685
b1000000000 K
b1000000000 _
b1000000000 y
b1000000000 @
b1000000000 ]
b1000000000 w
b0 >
b0 g
b0 .
b0 e
b101100 a
b101100 m
b101100 l
b101100 |
b101100 S
b101100 {
b101100 P
b101100 Q
b101100 z
b101000 %
b101000 O
b101000 h
b101000 $
b101000 b
0+
1#
17
1*
0)
05
1!
#686
b1 ;
#690
0!
#695
b101000 K
b101000 _
b101000 y
b101000 @
b101000 ]
b101000 w
b100001 >
b100001 g
b0 =
b0 s
b100001 .
b100001 e
b11 /
b11 q
b101000 ?
b101000 j
07
0#
18
1!
#696
b101000 &
b101000 ^
14
#697
b10 ;
#698
1+
#700
0!
#705
b100101010010100000000000000100 ,
b100101010010100000000000000100 c
b100101010010100000000000000100 x
0+
0*
1)
04
1!
#706
b11 ;
#710
0!
#715
1!
#718
1+
#720
0!
#725
0)
1!
#726
b1011100 N
b1011100 o
b111100 S
b111100 {
b10000 R
b10000 [
b101001010000000000000010000 k
b101001010000000000000010000 Y
b100 U
b100 Z
b100 r
b1010010100000000000000100 X
b100 T
b1010 J
b1010 u
b100 f
b1001 -
b100101010010100000000000000100 d
12
#727
b100 ;
#730
0!
#735
b0 @
b0 ]
b0 w
b1011100 =
b1011100 s
b1011100 ?
b1011100 j
b100 >
b100 g
b100101010010100000000000000100 K
b100101010010100000000000000100 _
b100101010010100000000000000100 y
1<
b100001 .
b100001 e
b0 /
b0 q
08
01
02
06
1!
#736
b110 ;
#740
0!
#745
b1100000 @
b1100000 ]
b1100000 w
b100 =
b100 s
b1100000 K
b1100000 _
b1100000 y
b100001 >
b100001 g
b1010 L
b1010 v
b1 /
b1 q
16
11
0:
1!
#746
b1100100 K
b1100100 _
b1100100 y
b1100100 @
b1100100 ]
b1100100 w
b1100000 ?
b1100000 j
b1100000 N
b1100000 o
b1100000 M
b1100000 i
b110000 a
b110000 m
b110000 l
b110000 |
b1000000 S
b1000000 {
b110000 P
b110000 Q
b110000 z
b101100 %
b101100 O
b101100 h
b101100 $
b101100 b
b1100000 (
b1100000 `
b1100000 p
1#
17
19
15
#747
b1 ;
#750
0!
#755
b0 =
b0 s
b11 /
b11 q
b101100 K
b101100 _
b101100 y
b101100 @
b101100 ]
b101100 w
b101100 ?
b101100 j
07
0<
0#
05
18
1!
#756
b101100 &
b101100 ^
14
#757
b10 ;
#760
0!
#765
b1000000000000000000000000011000 ,
b1000000000000000000000000011000 c
b1000000000000000000000000011000 x
0+
1)
04
1!
#766
b11 ;
#770
0!
#775
1!
#778
1+
#780
0!
#785
0)
1!
#786
b0 N
b0 o
b0 M
b0 i
b10010000 S
b10010000 {
b1100000 R
b1100000 [
b1100000 k
b1100000 Y
b11000 U
b11000 Z
b11000 r
b0 L
b0 v
b11000 X
b11000 T
b0 J
b0 I
b0 u
b11000 f
b10000 -
b1000000000000000000000000011000 d
12
#787
b100 ;
#790
0!
#795
b0 ?
b0 j
b11000 >
b11000 g
b1000000000000000000000000011000 K
b1000000000000000000000000011000 _
b1000000000000000000000000011000 y
b0 .
b0 e
b0 /
b0 q
08
01
02
06
09
1!
