cleanup/results/CPUFileTest1.vcd
$date
	Thu Dec 13 20:36:24 2018
$end
$version
	Icarus Verilog
$end
$timescale
	1s
$end
$scope module CPUTester1 $end
$var reg 1 ! clk $end
$upscope $end
$scope module CPUTester1 $end
$var reg 1 " reset $end
$upscope $end
$scope module CPUTester1 $end
$scope module CPU_Test1 $end
$scope module Program_Counter $end
$var wire 1 ! Clk $end
$var wire 1 # Load $end
$var wire 32 $ PCNext [31:0] $end
$var wire 1 " Reset $end
$var reg 32 % PCResult [31:0] $end
$upscope $end
$upscope $end
$upscope $end
$scope module CPUTester1 $end
$scope module CPU_Test1 $end
$scope module Memory $end
$var wire 32 & dataIn [31:0] $end
$var wire 1 ' rw $end
$var wire 32 ( address [31:0] $end
$var reg 1 ) MOC $end
$var reg 32 * output_destination [31:0] $end
$upscope $end
$upscope $end
$upscope $end
$scope module CPUTester1 $end
$scope module CPU_Test1 $end
$scope module Control_Unit $end
$var wire 1 ! clk $end
$var wire 6 + opCode [5:0] $end
$var wire 1 " reset $end
$var wire 1 ) MOC $end
$var reg 1 , RW $end
$var reg 6 - aluCode [5:0] $end
$var reg 2 . aluSrc [1:0] $end
$var reg 1 / branch $end
$var reg 1 0 immediate $end
$var reg 1 1 irLoad $end
$var reg 1 2 jump $end
$var reg 1 3 marLoad $end
$var reg 1 4 mdrLoad $end
$var reg 1 5 mdrSource $end
$var reg 1 6 npcLoad $end
$var reg 1 # pcLoad $end
$var reg 1 7 pcSelect $end
$var reg 1 8 regWrite $end
$var reg 1 9 rfSource $end
$var reg 5 : state [4:0] $end
$upscope $end
$upscope $end
$upscope $end
$scope module CPUTester1 $end
$scope module CPU_Test1 $end
$scope module alu $end
$var wire 32 ; a [31:0] $end
$var wire 32 < b [31:0] $end
$var wire 6 = operation [5:0] $end
$var reg 32 > Result [31:0] $end
$var reg 1 ? carryFlag $end
$var reg 1 @ negativeFlag $end
$var reg 1 A overFlowFlag $end
$var reg 32 B tempVar [31:0] $end
$var reg 1 C zeroFlag $end
$var integer 32 D counter [31:0] $end
$var integer 32 E var [31:0] $end
$upscope $end
$upscope $end
$upscope $end
$scope module CPUTester1 $end
$scope module CPU_Test1 $end
$scope module Register_File $end
$var wire 5 F A_Address [4:0] $end
$var wire 5 G B_Address [4:0] $end
$var wire 1 ! Clk $end
$var wire 1 5 Write $end
$var wire 32 H C_Data [31:0] $end
$var wire 5 I C_Address [4:0] $end
$var reg 32 J A_Data [31:0] $end
$var reg 32 K B_Data [31:0] $end
$upscope $end
$upscope $end
$upscope $end
$scope module CPUTester1 $end
$scope module CPU_Test1 $end
$scope module addFour $end
$var wire 32 L pc [31:0] $end
$var wire 32 M result [31:0] $end
$upscope $end
$upscope $end
$upscope $end
$scope module CPUTester1 $end
$scope module CPU_Test1 $end
$scope module adder $end
$var wire 32 N entry1 [31:0] $end
$var wire 32 O entry0 [31:0] $end
$var reg 32 P result [31:0] $end
$upscope $end
$upscope $end
$upscope $end
$scope module CPUTester1 $end
$scope module CPU_Test1 $end
$scope module signExt $end
$var wire 16 Q ins [15:0] $end
$var wire 1 R unSign $end
$var reg 32 S result [31:0] $end
$var reg 16 T tempOnes [15:0] $end
$var reg 16 U tempZero [15:0] $end
$upscope $end
$upscope $end
$upscope $end
$scope module CPUTester1 $end
$scope module CPU_Test1 $end
$scope module shftJump $end
$var wire 26 V in [25:0] $end
$var reg 28 W result [27:0] $end
$upscope $end
$upscope $end
$upscope $end
$scope module CPUTester1 $end
$scope module CPU_Test1 $end
$scope module shftLeft $end
$var wire 32 X in [31:0] $end
$var reg 32 Y result [31:0] $end
$upscope $end
$upscope $end
$upscope $end
$scope module CPUTester1 $end
$scope module CPU_Test1 $end
$scope module simpleAND $end
$var wire 1 C Z_flag $end
$var wire 1 / branch $end
$var reg 1 Z result $end
$upscope $end
$upscope $end
$upscope $end
$scope module CPUTester1 $end
$scope module CPU_Test1 $end
$scope module funcMux $end
$var wire 6 [ one [5:0] $end
$var wire 1 0 s $end
$var wire 6 \ zero [5:0] $end
$var reg 6 ] result [5:0] $end
$upscope $end
$upscope $end
$upscope $end
$scope module CPUTester1 $end
$scope module CPU_Test1 $end
$scope module pcMux $end
$var wire 32 ^ one [31:0] $end
$var wire 1 7 s $end
$var wire 32 _ zero [31:0] $end
$var reg 32 ` result [31:0] $end
$upscope $end
$upscope $end
$upscope $end
$scope module CPUTester1 $end
$scope module CPU_Test1 $end
$scope module Jump_Mux $end
$var wire 32 a one [31:0] $end
$var wire 1 2 s $end
$var wire 32 b zero [31:0] $end
$var reg 32 c result [31:0] $end
$upscope $end
$upscope $end
$upscope $end
$scope module CPUTester1 $end
$scope module CPU_Test1 $end
$scope module ALU_Mux $end
$var wire 32 d three [31:0] $end
$var wire 32 e two [31:0] $end
$var wire 32 f zero [31:0] $end
$var wire 2 g s [1:0] $end
$var wire 32 h one [31:0] $end
$var reg 32 i result [31:0] $end
$upscope $end
$upscope $end
$upscope $end
$scope module CPUTester1 $end
$scope module CPU_Test1 $end
$scope module Register_Mux $end
$var wire 5 j one [4:0] $end
$var wire 1 9 s $end
$var wire 5 k zero [4:0] $end
$var reg 5 l result [4:0] $end
$upscope $end
$upscope $end
$upscope $end
$scope module CPUTester1 $end
$scope module CPU_Test1 $end
$scope module mdrMux $end
$var wire 32 m one [31:0] $end
$var wire 1 n s $end
$var wire 32 o zero [31:0] $end
$var reg 32 p result [31:0] $end
$upscope $end
$upscope $end
$upscope $end
$scope module CPUTester1 $end
$scope module CPU_Test1 $end
$scope module Branch_Mux $end
$var wire 32 q zero [31:0] $end
$var wire 1 Z s $end
$var wire 32 r one [31:0] $end
$var reg 32 s result [31:0] $end
$upscope $end
$upscope $end
$upscope $end
$enddefinitions $end
#0
$dumpvars
b100 s
bx r
b100 q
bx p
bx o
zn
bx m
bz l
bz k
bz j
bx i
b1111111111111111zzzzzzzzzzzzzzzz h
bx g
bx f
bz e
b0 d
b0zzzzzzzzzzzzzzzzzzzzzzzzzz00 c
b100 b
b0zzzzzzzzzzzzzzzzzzzzzzzzzz00 a
bz `
b0 _
bz ^
bx ]
bz \
bx [
0Z
b11111111111111zzzzzzzzzzzzzzzz00 Y
b1111111111111111zzzzzzzzzzzzzzzz X
bz00 W
bz V
b0 U
b1111111111111111 T
b1111111111111111zzzzzzzzzzzzzzzz S
zR
bz Q
bx P
b11111111111111zzzzzzzzzzzzzzzz00 O
b100 N
b100 M
b0 L
bx K
bx J
bz I
bx H
bz G
bz F
b0 E
b0 D
0C
bx B
xA
x@
x?
bx >
bz =
bx <
bx ;
b0 :
x9
x8
x7
x6
x5
x4
x3
x2
x1
x0
x/
bx .
bx -
x,
bz +
bx *
1)
bx (
z'
bz &
b0 %
b0zzzzzzzzzzzzzzzzzzzzzzzzzz00 $
x#
0"
0!
$end
#5
b1 :
b0 -
b0 [
b0 .
b0 g
b100 $
b100 c
bz ]
b0 `
05
04
03
0,
02
08
09
06
0#
01
00
07
0!
#10
b0 <
b0 i
b10 :
b110010 -
b110010 [
b11 .
b11 g
b110010 ]
bz `
13
10
17
0!
#15
b11 :
1,
03
0!
#20
11
b100 :
0!
#25
b1000 $
b1000 c
b1000 b
b1000 s
b1000 M
b1000 N
b1000 q
b100 %
b100 L
b100 _
b1 :
bx <
bx i
b100 `
bz ]
1#
16
b0 -
b0 [
b0 .
b0 g
07
00
01
0,
0!
#30
b1100 $
b1100 c
b0 <
b0 i
b1100 b
b1100 s
b10 :
b110010 -
b110010 [
b11 .
b11 g
b1100 M
b1100 N
b1100 q
b1000 %
b1000 L
b1000 _
b110010 ]
bz `
13
10
17
0!
#35
b10000 $
b10000 c
b10000 b
b10000 s
b10000 M
b10000 N
b10000 q
b1100 %
b1100 L
b1100 _
b11 :
1,
03
0!
#40
b10100 $
b10100 c
b10100 b
b10100 s
b10100 M
b10100 N
b10100 q
b10000 %
b10000 L
b10000 _
11
b100 :
0!
#45
b11000 $
b11000 c
b11000 b
b11000 s
b11000 M
b11000 N
b11000 q
b10100 %
b10100 L
b10100 _
b1 :
bx <
bx i
b10100 `
bz ]
b0 -
b0 [
b0 .
b0 g
07
00
01
0,
0!
#50
b11100 $
b11100 c
b0 <
b0 i
b11100 b
b11100 s
b10 :
b110010 -
b110010 [
b11 .
b11 g
b11100 M
b11100 N
b11100 q
b11000 %
b11000 L
b11000 _
b110010 ]
bz `
13
10
17
0!
#55
b100000 $
b100000 c
b100000 b
b100000 s
b100000 M
b100000 N
b100000 q
b11100 %
b11100 L
b11100 _
b11 :
1,
03
0!
#60
b100100 $
b100100 c
b100100 b
b100100 s
b100100 M
b100100 N
b100100 q
b100000 %
b100000 L
b100000 _
11
b100 :
0!
#65
b101000 $
b101000 c
b101000 b
b101000 s
b101000 M
b101000 N
b101000 q
b100100 %
b100100 L
b100100 _
b1 :
bx <
bx i
b100100 `
bz ]
b0 -
b0 [
b0 .
b0 g
07
00
01
0,
0!
#70
b101100 $
b101100 c
b0 <
b0 i
b101100 b
b101100 s
b10 :
b110010 -
b110010 [
b11 .
b11 g
b101100 M
b101100 N
b101100 q
b101000 %
b101000 L
b101000 _
b110010 ]
bz `
13
10
17
0!
#75
b110000 $
b110000 c
b110000 b
b110000 s
b110000 M
b110000 N
b110000 q
b101100 %
b101100 L
b101100 _
b11 :
1,
03
0!
#80
b110100 $
b110100 c
b110100 b
b110100 s
b110100 M
b110100 N
b110100 q
b110000 %
b110000 L
b110000 _
11
b100 :
0!
#85
b111000 $
b111000 c
b111000 b
b111000 s
b111000 M
b111000 N
b111000 q
b110100 %
b110100 L
b110100 _
b1 :
bx <
bx i
b110100 `
bz ]
b0 -
b0 [
b0 .
b0 g
07
00
01
0,
0!
#90
b111100 $
b111100 c
b0 <
b0 i
b111100 b
b111100 s
b10 :
b110010 -
b110010 [
b11 .
b11 g
b111100 M
b111100 N
b111100 q
b111000 %
b111000 L
b111000 _
b110010 ]
bz `
13
10
17
0!
#95
b1000000 $
b1000000 c
b1000000 b
b1000000 s
b1000000 M
b1000000 N
b1000000 q
b111100 %
b111100 L
b111100 _
b11 :
1,
03
0!
#100
b1000100 $
b1000100 c
b1000100 b
b1000100 s
b1000100 M
b1000100 N
b1000100 q
b1000000 %
b1000000 L
b1000000 _
11
b100 :
0!
#105
b1001000 $
b1001000 c
b1001000 b
b1001000 s
b1001000 M
b1001000 N
b1001000 q
b1000100 %
b1000100 L
b1000100 _
b1 :
bx <
bx i
b1000100 `
bz ]
b0 -
b0 [
b0 .
b0 g
07
00
01
0,
0!
#110
b1001100 $
b1001100 c
b0 <
b0 i
b1001100 b
b1001100 s
b10 :
b110010 -
b110010 [
b11 .
b11 g
b1001100 M
b1001100 N
b1001100 q
b1001000 %
b1001000 L
b1001000 _
b110010 ]
bz `
13
10
17
0!
#115
b1010000 $
b1010000 c
b1010000 b
b1010000 s
b1010000 M
b1010000 N
b1010000 q
b1001100 %
b1001100 L
b1001100 _
b11 :
1,
03
0!
#120
b1010100 $
b1010100 c
b1010100 b
b1010100 s
b1010100 M
b1010100 N
b1010100 q
b1010000 %
b1010000 L
b1010000 _
11
b100 :
0!
#125
b1011000 $
b1011000 c
b1011000 b
b1011000 s
b1011000 M
b1011000 N
b1011000 q
b1010100 %
b1010100 L
b1010100 _
b1 :
bx <
bx i
b1010100 `
bz ]
b0 -
b0 [
b0 .
b0 g
07
00
01
0,
0!
#130
b1011100 $
b1011100 c
b0 <
b0 i
b1011100 b
b1011100 s
b10 :
b110010 -
b110010 [
b11 .
b11 g
b1011100 M
b1011100 N
b1011100 q
b1011000 %
b1011000 L
b1011000 _
b110010 ]
bz `
13
10
17
0!
#135
b1100000 $
b1100000 c
b1100000 b
b1100000 s
b1100000 M
b1100000 N
b1100000 q
b1011100 %
b1011100 L
b1011100 _
b11 :
1,
03
0!
#140
b1100100 $
b1100100 c
b1100100 b
b1100100 s
b1100100 M
b1100100 N
b1100100 q
b1100000 %
b1100000 L
b1100000 _
11
b100 :
0!
#145
b1101000 $
b1101000 c
b1101000 b
b1101000 s
b1101000 M
b1101000 N
b1101000 q
b1100100 %
b1100100 L
b1100100 _
b1 :
bx <
bx i
b1100100 `
bz ]
b0 -
b0 [
b0 .
b0 g
07
00
01
0,
0!
#150
b1101100 $
b1101100 c
b0 <
b0 i
b1101100 b
b1101100 s
b10 :
b110010 -
b110010 [
b11 .
b11 g
b1101100 M
b1101100 N
b1101100 q
b1101000 %
b1101000 L
b1101000 _
b110010 ]
bz `
13
10
17
0!
#155
b1110000 $
b1110000 c
b1110000 b
b1110000 s
b1110000 M
b1110000 N
b1110000 q
b1101100 %
b1101100 L
b1101100 _
b11 :
1,
03
0!
#160
b1110100 $
b1110100 c
b1110100 b
b1110100 s
b1110100 M
b1110100 N
b1110100 q
b1110000 %
b1110000 L
b1110000 _
11
b100 :
0!
#165
b1111000 $
b1111000 c
b1111000 b
b1111000 s
b1111000 M
b1111000 N
b1111000 q
b1110100 %
b1110100 L
b1110100 _
b1 :
bx <
bx i
b1110100 `
bz ]
b0 -
b0 [
b0 .
b0 g
07
00
01
0,
0!
#170
b1111100 $
b1111100 c
b0 <
b0 i
b1111100 b
b1111100 s
b10 :
b110010 -
b110010 [
b11 .
b11 g
b1111100 M
b1111100 N
b1111100 q
b1111000 %
b1111000 L
b1111000 _
b110010 ]
bz `
13
10
17
0!
#175
b10000000 $
b10000000 c
b10000000 b
b10000000 s
b10000000 M
b10000000 N
b10000000 q
b1111100 %
b1111100 L
b1111100 _
b11 :
1,
03
0!
#180
b10000100 $
b10000100 c
b10000100 b
b10000100 s
b10000100 M
b10000100 N
b10000100 q
b10000000 %
b10000000 L
b10000000 _
11
b100 :
0!
#185
b10001000 $
b10001000 c
b10001000 b
b10001000 s
b10001000 M
b10001000 N
b10001000 q
b10000100 %
b10000100 L
b10000100 _
b1 :
bx <
bx i
b10000100 `
bz ]
b0 -
b0 [
b0 .
b0 g
07
00
01
0,
0!
#190
b10001100 $
b10001100 c
b0 <
b0 i
b10001100 b
b10001100 s
b10 :
b110010 -
b110010 [
b11 .
b11 g
b10001100 M
b10001100 N
b10001100 q
b10001000 %
b10001000 L
b10001000 _
b110010 ]
bz `
13
10
17
0!
#195
b10010000 $
b10010000 c
b10010000 b
b10010000 s
b10010000 M
b10010000 N
b10010000 q
b10001100 %
b10001100 L
b10001100 _
b11 :
1,
03
0!
#200
b10010100 $
b10010100 c
b10010100 b
b10010100 s
b10010100 M
b10010100 N
b10010100 q
b10010000 %
b10010000 L
b10010000 _
11
b100 :
0!
#205
b10011000 $
b10011000 c
b10011000 b
b10011000 s
b10011000 M
b10011000 N
b10011000 q
b10010100 %
b10010100 L
b10010100 _
b1 :
bx <
bx i
b10010100 `
bz ]
b0 -
b0 [
b0 .
b0 g
07
00
01
0,
0!
#210
b10011100 $
b10011100 c
b0 <
b0 i
b10011100 b
b10011100 s
b10 :
b110010 -
b110010 [
b11 .
b11 g
b10011100 M
b10011100 N
b10011100 q
b10011000 %
b10011000 L
b10011000 _
b110010 ]
bz `
13
10
17
0!
#215
b10100000 $
b10100000 c
b10100000 b
b10100000 s
b10100000 M
b10100000 N
b10100000 q
b10011100 %
b10011100 L
b10011100 _
b11 :
1,
03
0!
#220
b10100100 $
b10100100 c
b10100100 b
b10100100 s
b10100100 M
b10100100 N
b10100100 q
b10100000 %
b10100000 L
b10100000 _
11
b100 :
0!
#225
b10101000 $
b10101000 c
b10101000 b
b10101000 s
b10101000 M
b10101000 N
b10101000 q
b10100100 %
b10100100 L
b10100100 _
b1 :
bx <
bx i
b10100100 `
bz ]
b0 -
b0 [
b0 .
b0 g
07
00
01
0,
0!
#230
b10101100 $
b10101100 c
b0 <
b0 i
b10101100 b
b10101100 s
b10 :
b110010 -
b110010 [
b11 .
b11 g
b10101100 M
b10101100 N
b10101100 q
b10101000 %
b10101000 L
b10101000 _
b110010 ]
bz `
13
10
17
0!
#235
b10110000 $
b10110000 c
b10110000 b
b10110000 s
b10110000 M
b10110000 N
b10110000 q
b10101100 %
b10101100 L
b10101100 _
b11 :
1,
03
0!
#240
b10110100 $
b10110100 c
b10110100 b
b10110100 s
b10110100 M
b10110100 N
b10110100 q
b10110000 %
b10110000 L
b10110000 _
11
b100 :
0!
#245
b10111000 $
b10111000 c
b10111000 b
b10111000 s
b10111000 M
b10111000 N
b10111000 q
b10110100 %
b10110100 L
b10110100 _
b1 :
bx <
bx i
b10110100 `
bz ]
b0 -
b0 [
b0 .
b0 g
07
00
01
0,
0!
#250
b10111100 $
b10111100 c
b0 <
b0 i
b10111100 b
b10111100 s
b10 :
b110010 -
b110010 [
b11 .
b11 g
b10111100 M
b10111100 N
b10111100 q
b10111000 %
b10111000 L
b10111000 _
b110010 ]
bz `
13
10
17
0!
#255
b11000000 $
b11000000 c
b11000000 b
b11000000 s
b11000000 M
b11000000 N
b11000000 q
b10111100 %
b10111100 L
b10111100 _
b11 :
1,
03
0!
#260
b11000100 $
b11000100 c
b11000100 b
b11000100 s
b11000100 M
b11000100 N
b11000100 q
b11000000 %
b11000000 L
b11000000 _
11
b100 :
0!
#265
b11001000 $
b11001000 c
b11001000 b
b11001000 s
b11001000 M
b11001000 N
b11001000 q
b11000100 %
b11000100 L
b11000100 _
b1 :
bx <
bx i
b11000100 `
bz ]
b0 -
b0 [
b0 .
b0 g
07
00
01
0,
0!
#270
b11001100 $
b11001100 c
b0 <
b0 i
b11001100 b
b11001100 s
b10 :
b110010 -
b110010 [
b11 .
b11 g
b11001100 M
b11001100 N
b11001100 q
b11001000 %
b11001000 L
b11001000 _
b110010 ]
bz `
13
10
17
0!
#275
b11010000 $
b11010000 c
b11010000 b
b11010000 s
b11010000 M
b11010000 N
b11010000 q
b11001100 %
b11001100 L
b11001100 _
b11 :
1,
03
0!
#280
b11010100 $
b11010100 c
b11010100 b
b11010100 s
b11010100 M
b11010100 N
b11010100 q
b11010000 %
b11010000 L
b11010000 _
11
b100 :
0!
#285
b11011000 $
b11011000 c
b11011000 b
b11011000 s
b11011000 M
b11011000 N
b11011000 q
b11010100 %
b11010100 L
b11010100 _
b1 :
bx <
bx i
b11010100 `
bz ]
b0 -
b0 [
b0 .
b0 g
07
00
01
0,
0!
#290
b11011100 $
b11011100 c
b0 <
b0 i
b11011100 b
b11011100 s
b10 :
b110010 -
b110010 [
b11 .
b11 g
b11011100 M
b11011100 N
b11011100 q
b11011000 %
b11011000 L
b11011000 _
b110010 ]
bz `
13
10
17
0!
#295
b11100000 $
b11100000 c
b11100000 b
b11100000 s
b11100000 M
b11100000 N
b11100000 q
b11011100 %
b11011100 L
b11011100 _
b11 :
1,
03
0!
#300
b11100100 $
b11100100 c
b11100100 b
b11100100 s
b11100100 M
b11100100 N
b11100100 q
b11100000 %
b11100000 L
b11100000 _
11
b100 :
0!
#305
b11101000 $
b11101000 c
b11101000 b
b11101000 s
b11101000 M
b11101000 N
b11101000 q
b11100100 %
b11100100 L
b11100100 _
b1 :
bx <
bx i
b11100100 `
bz ]
b0 -
b0 [
b0 .
b0 g
07
00
01
0,
0!
#310
b11101100 $
b11101100 c
b0 <
b0 i
b11101100 b
b11101100 s
b10 :
b110010 -
b110010 [
b11 .
b11 g
b11101100 M
b11101100 N
b11101100 q
b11101000 %
b11101000 L
b11101000 _
b110010 ]
bz `
13
10
17
0!
#315
b11110000 $
b11110000 c
b11110000 b
b11110000 s
b11110000 M
b11110000 N
b11110000 q
b11101100 %
b11101100 L
b11101100 _
b11 :
1,
03
0!
#320
b11110100 $
b11110100 c
b11110100 b
b11110100 s
b11110100 M
b11110100 N
b11110100 q
b11110000 %
b11110000 L
b11110000 _
11
b100 :
0!
#325
b11111000 $
b11111000 c
b11111000 b
b11111000 s
b11111000 M
b11111000 N
b11111000 q
b11110100 %
b11110100 L
b11110100 _
b1 :
bx <
bx i
b11110100 `
bz ]
b0 -
b0 [
b0 .
b0 g
07
00
01
0,
0!
#330
b11111100 $
b11111100 c
b0 <
b0 i
b11111100 b
b11111100 s
b10 :
b110010 -
b110010 [
b11 .
b11 g
b11111100 M
b11111100 N
b11111100 q
b11111000 %
b11111000 L
b11111000 _
b110010 ]
bz `
13
10
17
0!
#335
b100000000 $
b100000000 c
b100000000 b
b100000000 s
b100000000 M
b100000000 N
b100000000 q
b11111100 %
b11111100 L
b11111100 _
b11 :
1,
03
0!
#340
b100000100 $
b100000100 c
b100000100 b
b100000100 s
b100000100 M
b100000100 N
b100000100 q
b100000000 %
b100000000 L
b100000000 _
11
b100 :
0!
#345
b100001000 $
b100001000 c
b100001000 b
b100001000 s
b100001000 M
b100001000 N
b100001000 q
b100000100 %
b100000100 L
b100000100 _
b1 :
bx <
bx i
b100000100 `
bz ]
b0 -
b0 [
b0 .
b0 g
07
00
01
0,
0!
#350
b100001100 $
b100001100 c
b0 <
b0 i
b100001100 b
b100001100 s
b10 :
b110010 -
b110010 [
b11 .
b11 g
b100001100 M
b100001100 N
b100001100 q
b100001000 %
b100001000 L
b100001000 _
b110010 ]
bz `
13
10
17
0!
#355
b100010000 $
b100010000 c
b100010000 b
b100010000 s
b100010000 M
b100010000 N
b100010000 q
b100001100 %
b100001100 L
b100001100 _
b11 :
1,
03
0!
#360
b100010100 $
b100010100 c
b100010100 b
b100010100 s
b100010100 M
b100010100 N
b100010100 q
b100010000 %
b100010000 L
b100010000 _
11
b100 :
0!
#365
b100011000 $
b100011000 c
b100011000 b
b100011000 s
b100011000 M
b100011000 N
b100011000 q
b100010100 %
b100010100 L
b100010100 _
b1 :
bx <
bx i
b100010100 `
bz ]
b0 -
b0 [
b0 .
b0 g
07
00
01
0,
0!
#370
b100011100 $
b100011100 c
b0 <
b0 i
b100011100 b
b100011100 s
b10 :
b110010 -
b110010 [
b11 .
b11 g
b100011100 M
b100011100 N
b100011100 q
b100011000 %
b100011000 L
b100011000 _
b110010 ]
bz `
13
10
17
0!
#375
b100100000 $
b100100000 c
b100100000 b
b100100000 s
b100100000 M
b100100000 N
b100100000 q
b100011100 %
b100011100 L
b100011100 _
b11 :
1,
03
0!
#380
b100100100 $
b100100100 c
b100100100 b
b100100100 s
b100100100 M
b100100100 N
b100100100 q
b100100000 %
b100100000 L
b100100000 _
11
b100 :
0!
#385
b100101000 $
b100101000 c
b100101000 b
b100101000 s
b100101000 M
b100101000 N
b100101000 q
b100100100 %
b100100100 L
b100100100 _
b1 :
bx <
bx i
b100100100 `
bz ]
b0 -
b0 [
b0 .
b0 g
07
00
01
0,
0!
#390
b100101100 $
b100101100 c
b0 <
b0 i
b100101100 b
b100101100 s
b10 :
b110010 -
b110010 [
b11 .
b11 g
b100101100 M
b100101100 N
b100101100 q
b100101000 %
b100101000 L
b100101000 _
b110010 ]
bz `
13
10
17
0!
#395
b100110000 $
b100110000 c
b100110000 b
b100110000 s
b100110000 M
b100110000 N
b100110000 q
b100101100 %
b100101100 L
b100101100 _
b11 :
1,
03
0!
#400
b100110100 $
b100110100 c
b100110100 b
b100110100 s
b100110100 M
b100110100 N
b100110100 q
b100110000 %
b100110000 L
b100110000 _
11
b100 :
0!
#405
b100111000 $
b100111000 c
b100111000 b
b100111000 s
b100111000 M
b100111000 N
b100111000 q
b100110100 %
b100110100 L
b100110100 _
b1 :
bx <
bx i
b100110100 `
bz ]
b0 -
b0 [
b0 .
b0 g
07
00
01
0,
0!
#410
b100111100 $
b100111100 c
b0 <
b0 i
b100111100 b
b100111100 s
b10 :
b110010 -
b110010 [
b11 .
b11 g
b100111100 M
b100111100 N
b100111100 q
b100111000 %
b100111000 L
b100111000 _
b110010 ]
bz `
13
10
17
0!
#415
b101000000 $
b101000000 c
b101000000 b
b101000000 s
b101000000 M
b101000000 N
b101000000 q
b100111100 %
b100111100 L
b100111100 _
b11 :
1,
03
0!
#420
b101000100 $
b101000100 c
b101000100 b
b101000100 s
b101000100 M
b101000100 N
b101000100 q
b101000000 %
b101000000 L
b101000000 _
11
b100 :
0!
#425
b101001000 $
b101001000 c
b101001000 b
b101001000 s
b101001000 M
b101001000 N
b101001000 q
b101000100 %
b101000100 L
b101000100 _
b1 :
bx <
bx i
b101000100 `
bz ]
b0 -
b0 [
b0 .
b0 g
07
00
01
0,
0!
#430
b101001100 $
b101001100 c
b0 <
b0 i
b101001100 b
b101001100 s
b10 :
b110010 -
b110010 [
b11 .
b11 g
b101001100 M
b101001100 N
b101001100 q
b101001000 %
b101001000 L
b101001000 _
b110010 ]
bz `
13
10
17
0!
#435
b101010000 $
b101010000 c
b101010000 b
b101010000 s
b101010000 M
b101010000 N
b101010000 q
b101001100 %
b101001100 L
b101001100 _
b11 :
1,
03
0!
#440
b101010100 $
b101010100 c
b101010100 b
b101010100 s
b101010100 M
b101010100 N
b101010100 q
b101010000 %
b101010000 L
b101010000 _
11
b100 :
0!
#445
b101011000 $
b101011000 c
b101011000 b
b101011000 s
b101011000 M
b101011000 N
b101011000 q
b101010100 %
b101010100 L
b101010100 _
b1 :
bx <
bx i
b101010100 `
bz ]
b0 -
b0 [
b0 .
b0 g
07
00
01
0,
0!
#450
b101011100 $
b101011100 c
b0 <
b0 i
b101011100 b
b101011100 s
b10 :
b110010 -
b110010 [
b11 .
b11 g
b101011100 M
b101011100 N
b101011100 q
b101011000 %
b101011000 L
b101011000 _
b110010 ]
bz `
13
10
17
0!
#455
b101100000 $
b101100000 c
b101100000 b
b101100000 s
b101100000 M
b101100000 N
b101100000 q
b101011100 %
b101011100 L
b101011100 _
b11 :
1,
03
0!
#460
b101100100 $
b101100100 c
b101100100 b
b101100100 s
b101100100 M
b101100100 N
b101100100 q
b101100000 %
b101100000 L
b101100000 _
11
b100 :
0!
#465
b101101000 $
b101101000 c
b101101000 b
b101101000 s
b101101000 M
b101101000 N
b101101000 q
b101100100 %
b101100100 L
b101100100 _
b1 :
bx <
bx i
b101100100 `
bz ]
b0 -
b0 [
b0 .
b0 g
07
00
01
0,
0!
#470
b101101100 $
b101101100 c
b0 <
b0 i
b101101100 b
b101101100 s
b10 :
b110010 -
b110010 [
b11 .
b11 g
b101101100 M
b101101100 N
b101101100 q
b101101000 %
b101101000 L
b101101000 _
b110010 ]
bz `
13
10
17
0!
#475
b101110000 $
b101110000 c
b101110000 b
b101110000 s
b101110000 M
b101110000 N
b101110000 q
b101101100 %
b101101100 L
b101101100 _
b11 :
1,
03
0!
#480
b101110100 $
b101110100 c
b101110100 b
b101110100 s
b101110100 M
b101110100 N
b101110100 q
b101110000 %
b101110000 L
b101110000 _
11
b100 :
0!
#485
b101111000 $
b101111000 c
b101111000 b
b101111000 s
b101111000 M
b101111000 N
b101111000 q
b101110100 %
b101110100 L
b101110100 _
b1 :
bx <
bx i
b101110100 `
bz ]
b0 -
b0 [
b0 .
b0 g
07
00
01
0,
0!
#490
b101111100 $
b101111100 c
b0 <
b0 i
b101111100 b
b101111100 s
b10 :
b110010 -
b110010 [
b11 .
b11 g
b101111100 M
b101111100 N
b101111100 q
b101111000 %
b101111000 L
b101111000 _
b110010 ]
bz `
13
10
17
0!
#495
b110000000 $
b110000000 c
b110000000 b
b110000000 s
b110000000 M
b110000000 N
b110000000 q
b101111100 %
b101111100 L
b101111100 _
b11 :
1,
03
0!
#500
b110000100 $
b110000100 c
b110000100 b
b110000100 s
b110000100 M
b110000100 N
b110000100 q
b110000000 %
b110000000 L
b110000000 _
11
b100 :
0!
#505
b110001000 $
b110001000 c
b110001000 b
b110001000 s
b110001000 M
b110001000 N
b110001000 q
b110000100 %
b110000100 L
b110000100 _
b1 :
bx <
bx i
b110000100 `
bz ]
b0 -
b0 [
b0 .
b0 g
07
00
01
0,
0!
#510
b110001100 $
b110001100 c
b0 <
b0 i
b110001100 b
b110001100 s
b10 :
b110010 -
b110010 [
b11 .
b11 g
b110001100 M
b110001100 N
b110001100 q
b110001000 %
b110001000 L
b110001000 _
b110010 ]
bz `
13
10
17
0!
#515
b110010000 $
b110010000 c
b110010000 b
b110010000 s
b110010000 M
b110010000 N
b110010000 q
b110001100 %
b110001100 L
b110001100 _
b11 :
1,
03
0!
#520
b110010100 $
b110010100 c
b110010100 b
b110010100 s
b110010100 M
b110010100 N
b110010100 q
b110010000 %
b110010000 L
b110010000 _
11
b100 :
0!
#525
b110011000 $
b110011000 c
b110011000 b
b110011000 s
b110011000 M
b110011000 N
b110011000 q
b110010100 %
b110010100 L
b110010100 _
b1 :
bx <
bx i
b110010100 `
bz ]
b0 -
b0 [
b0 .
b0 g
07
00
01
0,
0!
#530
b110011100 $
b110011100 c
b0 <
b0 i
b110011100 b
b110011100 s
b10 :
b110010 -
b110010 [
b11 .
b11 g
b110011100 M
b110011100 N
b110011100 q
b110011000 %
b110011000 L
b110011000 _
b110010 ]
bz `
13
10
17
0!
#535
b110100000 $
b110100000 c
b110100000 b
b110100000 s
b110100000 M
b110100000 N
b110100000 q
b110011100 %
b110011100 L
b110011100 _
b11 :
1,
03
0!
#540
b110100100 $
b110100100 c
b110100100 b
b110100100 s
b110100100 M
b110100100 N
b110100100 q
b110100000 %
b110100000 L
b110100000 _
11
b100 :
0!
#545
b110101000 $
b110101000 c
b110101000 b
b110101000 s
b110101000 M
b110101000 N
b110101000 q
b110100100 %
b110100100 L
b110100100 _
b1 :
bx <
bx i
b110100100 `
bz ]
b0 -
b0 [
b0 .
b0 g
07
00
01
0,
0!
#550
b110101100 $
b110101100 c
b0 <
b0 i
b110101100 b
b110101100 s
b10 :
b110010 -
b110010 [
b11 .
b11 g
b110101100 M
b110101100 N
b110101100 q
b110101000 %
b110101000 L
b110101000 _
b110010 ]
bz `
13
10
17
0!
#555
b110110000 $
b110110000 c
b110110000 b
b110110000 s
b110110000 M
b110110000 N
b110110000 q
b110101100 %
b110101100 L
b110101100 _
b11 :
1,
03
0!
