cleanup/results/CPUFileTest1.vcd
$date
	Sat Dec 15 20:34:34 2018
$end
$version
	Icarus Verilog
$end
$timescale
	1s
$end
$scope module CPUTester1 $end
$var reg 1 ! clk $end
$upscope $end
$scope module CPUTester1 $end
$var reg 1 " reset $end
$upscope $end
$scope module CPUTester1 $end
$scope module CPU_Test1 $end
$scope module Program_Counter $end
$var wire 1 ! Clk $end
$var wire 1 # Load $end
$var wire 32 $ PCNext [31:0] $end
$var wire 1 " Reset $end
$var reg 32 % PCResult [31:0] $end
$upscope $end
$upscope $end
$upscope $end
$scope module CPUTester1 $end
$scope module CPU_Test1 $end
$scope module Memory $end
$var wire 32 & address [31:0] $end
$var wire 1 ' byte $end
$var wire 32 ( dataIn [31:0] $end
$var wire 1 ) memEnable $end
$var wire 1 * rw $end
$var reg 1 + MOC $end
$var reg 32 , output_destination [31:0] $end
$upscope $end
$upscope $end
$upscope $end
$scope module CPUTester1 $end
$scope module CPU_Test1 $end
$scope module Control_Unit $end
$var wire 1 ! clk $end
$var wire 6 - opCode [5:0] $end
$var wire 1 " reset $end
$var wire 1 + MOC $end
$var reg 1 * RW $end
$var reg 6 . aluCode [5:0] $end
$var reg 2 / aluSrc [1:0] $end
$var reg 1 0 branch $end
$var reg 1 ' byte $end
$var reg 1 1 immediate $end
$var reg 1 2 irLoad $end
$var reg 1 3 jump $end
$var reg 1 4 marLoad $end
$var reg 1 5 mdrLoad $end
$var reg 1 6 mdrSource $end
$var reg 1 ) memEnable $end
$var reg 1 7 npcLoad $end
$var reg 1 # pcLoad $end
$var reg 1 8 pcSelect $end
$var reg 1 9 regWrite $end
$var reg 1 : rfSource $end
$var reg 5 ; state [4:0] $end
$var reg 1 < unSign $end
$upscope $end
$upscope $end
$upscope $end
$scope module CPUTester1 $end
$scope module CPU_Test1 $end
$scope module alu $end
$var wire 32 = a [31:0] $end
$var wire 32 > b [31:0] $end
$var wire 6 ? operation [5:0] $end
$var reg 32 @ Result [31:0] $end
$var reg 1 A carryFlag $end
$var reg 1 B condition $end
$var reg 1 C negativeFlag $end
$var reg 1 D overFlowFlag $end
$var reg 32 E tempVar [31:0] $end
$var reg 1 F zeroFlag $end
$var integer 32 G counter [31:0] $end
$var integer 32 H index [31:0] $end
$var integer 32 I var [31:0] $end
$upscope $end
$upscope $end
$upscope $end
$scope module CPUTester1 $end
$scope module CPU_Test1 $end
$scope module Register_File $end
$var wire 5 J A_Address [4:0] $end
$var wire 5 K B_Address [4:0] $end
$var wire 1 ! Clk $end
$var wire 1 9 Write $end
$var wire 32 L C_Data [31:0] $end
$var wire 5 M C_Address [4:0] $end
$var reg 32 N A_Data [31:0] $end
$var reg 32 O B_Data [31:0] $end
$upscope $end
$upscope $end
$upscope $end
$scope module CPUTester1 $end
$scope module CPU_Test1 $end
$scope module addFour $end
$var wire 32 P pc [31:0] $end
$var wire 32 Q result [31:0] $end
$upscope $end
$upscope $end
$upscope $end
$scope module CPUTester1 $end
$scope module CPU_Test1 $end
$scope module adder $end
$var wire 32 R entry1 [31:0] $end
$var wire 32 S entry0 [31:0] $end
$var reg 32 T result [31:0] $end
$upscope $end
$upscope $end
$upscope $end
$scope module CPUTester1 $end
$scope module CPU_Test1 $end
$scope module signExt $end
$var wire 16 U ins [15:0] $end
$var wire 1 < unSign $end
$var reg 32 V result [31:0] $end
$var reg 16 W tempOnes [15:0] $end
$var reg 16 X tempZero [15:0] $end
$upscope $end
$upscope $end
$upscope $end
$scope module CPUTester1 $end
$scope module CPU_Test1 $end
$scope module shftJump $end
$var wire 26 Y in [25:0] $end
$var reg 28 Z result [27:0] $end
$upscope $end
$upscope $end
$upscope $end
$scope module CPUTester1 $end
$scope module CPU_Test1 $end
$scope module shftLeft $end
$var wire 32 [ in [31:0] $end
$var reg 32 \ result [31:0] $end
$upscope $end
$upscope $end
$upscope $end
$scope module CPUTester1 $end
$scope module CPU_Test1 $end
$scope module simpleAND $end
$var wire 1 0 branch $end
$var wire 1 B condition $end
$var reg 1 ] result $end
$upscope $end
$upscope $end
$upscope $end
$scope module CPUTester1 $end
$scope module CPU_Test1 $end
$scope module MAR $end
$var wire 1 ! clk $end
$var wire 1 4 load $end
$var wire 32 ^ in [31:0] $end
$var reg 32 _ result [31:0] $end
$upscope $end
$upscope $end
$upscope $end
$scope module CPUTester1 $end
$scope module CPU_Test1 $end
$scope module MDR $end
$var wire 1 ! clk $end
$var wire 1 5 load $end
$var wire 32 ` in [31:0] $end
$var reg 32 a result [31:0] $end
$upscope $end
$upscope $end
$upscope $end
$scope module CPUTester1 $end
$scope module CPU_Test1 $end
$scope module NPC $end
$var wire 1 ! clk $end
$var wire 32 b in [31:0] $end
$var wire 1 7 load $end
$var reg 32 c result [31:0] $end
$upscope $end
$upscope $end
$upscope $end
$scope module CPUTester1 $end
$scope module CPU_Test1 $end
$scope module IR $end
$var wire 1 ! clk $end
$var wire 1 2 load $end
$var wire 32 d in [31:0] $end
$var reg 32 e result [31:0] $end
$upscope $end
$upscope $end
$upscope $end
$scope module CPUTester1 $end
$scope module CPU_Test1 $end
$scope module funcMux $end
$var wire 6 f one [5:0] $end
$var wire 1 1 s $end
$var wire 6 g zero [5:0] $end
$var reg 6 h result [5:0] $end
$upscope $end
$upscope $end
$upscope $end
$scope module CPUTester1 $end
$scope module CPU_Test1 $end
$scope module pcMux $end
$var wire 32 i one [31:0] $end
$var wire 1 8 s $end
$var wire 32 j zero [31:0] $end
$var reg 32 k result [31:0] $end
$upscope $end
$upscope $end
$upscope $end
$scope module CPUTester1 $end
$scope module CPU_Test1 $end
$scope module Jump_Mux $end
$var wire 32 l one [31:0] $end
$var wire 1 3 s $end
$var wire 32 m zero [31:0] $end
$var reg 32 n result [31:0] $end
$upscope $end
$upscope $end
$upscope $end
$scope module CPUTester1 $end
$scope module CPU_Test1 $end
$scope module ALU_Mux $end
$var wire 32 o three [31:0] $end
$var wire 32 p zero [31:0] $end
$var wire 32 q two [31:0] $end
$var wire 2 r s [1:0] $end
$var wire 32 s one [31:0] $end
$var reg 32 t result [31:0] $end
$upscope $end
$upscope $end
$upscope $end
$scope module CPUTester1 $end
$scope module CPU_Test1 $end
$scope module Register_Mux $end
$var wire 5 u one [4:0] $end
$var wire 1 : s $end
$var wire 5 v zero [4:0] $end
$var reg 5 w result [4:0] $end
$upscope $end
$upscope $end
$upscope $end
$scope module CPUTester1 $end
$scope module CPU_Test1 $end
$scope module mdrMux $end
$var wire 32 x one [31:0] $end
$var wire 1 6 s $end
$var wire 32 y zero [31:0] $end
$var reg 32 z result [31:0] $end
$upscope $end
$upscope $end
$upscope $end
$scope module CPUTester1 $end
$scope module CPU_Test1 $end
$scope module Branch_Mux $end
$var wire 32 { zero [31:0] $end
$var wire 1 ] s $end
$var wire 32 | one [31:0] $end
$var reg 32 } result [31:0] $end
$upscope $end
$upscope $end
$upscope $end
$enddefinitions $end
#0
$dumpvars
b100 }
bx |
b100 {
bx z
bx y
bx x
bx w
bx v
bx u
bx t
bx s
bx r
bx q
bx p
b0 o
b0xxxxxxxxxxxxxxxxxxxxxxxxxxxx n
b100 m
b0xxxxxxxxxxxxxxxxxxxxxxxxxxxx l
b0 k
bx j
b0 i
bx h
bx g
bx f
bx e
bx d
b100 c
b0xxxxxxxxxxxxxxxxxxxxxxxxxxxx b
bx a
bx `
bx _
b0 ^
0]
bx \
bx [
bx Z
bx Y
b0 X
b1111111111111111 W
bx V
bx U
bx T
bx S
b0 R
b100 Q
b0 P
bx O
bx N
bx M
bx L
bx K
bx J
b0 I
bx H
b0 G
0F
bx E
xD
xC
0B
xA
bx @
bx ?
bx >
bx =
x<
b0 ;
x:
x9
x8
x7
x6
x5
x4
x3
x2
x1
x0
bx /
bx .
bx -
bx ,
1+
x*
x)
bx (
x'
bx &
b0 %
b100 $
x#
0"
0!
$end
#5
b0 /
b0 r
b100 b
b100 n
06
05
04
0*
00
03
09
0:
02
01
18
0)
0<
07
0#
0'
1!
#6
b1 ;
#10
0!
#15
b100001 ?
b100001 h
b0 >
b0 t
b100001 .
b100001 f
b11 /
b11 r
11
07
1!
#16
b0 &
b0 _
14
#17
b10 ;
#20
0!
#25
b100100000000010000000000101100 L
b100100000000010000000000101100 `
b100100000000010000000000101100 z
b100100000000010000000000101100 ,
b100100000000010000000000101100 d
b100100000000010000000000101100 y
0+
1)
04
1!
#26
b11 ;
#30
0!
#35
1!
#38
1+
#40
0!
#45
0)
1!
#46
0D
0A
b0 @
b0 j
b0 x
b0 O
b0 p
b0 =
b0 N
b10110000 T
b10110000 |
b10110000 S
b10110000 \
b1000000000010110000 l
b1000000000010110000 Z
b101100 V
b101100 [
b101100 s
b1 M
b1 w
b10000000000101100 Y
b101100 U
b1 K
b0 J
b0 u
b1 v
b101100 g
b1001 -
b100100000000010000000000101100 e
12
#47
b100 ;
#50
0!
#55
b101100 ?
b101100 h
1<
b100001 .
b100001 f
b0 /
b0 r
08
01
02
1!
#56
b110 ;
#60
0!
#65
b101100 ^
b101100 k
b101100 @
b101100 j
b101100 x
b101100 >
b101100 t
b101100 L
b101100 `
b101100 z
b100001 ?
b100001 h
b1 /
b1 r
16
11
1!
#66
b101100 O
b101100 p
b1000 b
b1000 n
b1000 m
b1000 }
b10110100 T
b10110100 |
b1000 Q
b1000 {
b100 %
b100 P
b100 R
b100 i
b101100 (
b101100 a
b101100 q
1#
17
19
15
#67
b1 ;
#70
0!
#75
b0 L
b0 `
b0 z
b0 @
b0 j
b0 x
b0 >
b0 t
b11 /
b11 r
b1100 b
b1100 n
b1100 m
b1100 }
b10111000 T
b10111000 |
b1000 ^
b1000 k
07
0<
0#
05
18
b1100 Q
b1100 {
b1000 %
b1000 P
b1000 R
b1000 i
b1000 $
b1000 c
1!
#76
b1000 &
b1000 _
14
#77
b10 ;
#80
0!
#85
b10010000001000110000000000000010 ,
b10010000001000110000000000000010 d
b10010000001000110000000000000010 y
0+
1)
04
1!
#86
b11 ;
#90
0!
#95
1!
#98
1+
#100
0!
#105
0)
1!
#106
b101100 L
b101100 `
b101100 z
b101100 @
b101100 j
b101100 x
b0 O
b0 p
b101100 =
b101100 N
b10000 T
b10000 |
b1000 S
b1000 \
b100011000000000000001000 l
b100011000000000000001000 Z
b10 V
b10 [
b10 s
b11 M
b11 w
b1000110000000000000010 Y
b10 U
b11 K
b1 J
b11 v
b10 g
b100100 -
b10010000001000110000000000000010 e
12
#107
b100 ;
#110
0!
#115
b0 @
b0 j
b0 x
b0 ^
b0 k
b10 ?
b10 h
b10010000001000110000000000000010 L
b10010000001000110000000000000010 `
b10010000001000110000000000000010 z
1'
1<
b100001 .
b100001 f
b0 /
b0 r
08
01
02
06
09
1!
#116
b111 ;
#120
0!
#125
0C
b10 >
b10 t
b100000 .
b100000 f
b1 /
b1 r
b101110 ^
b101110 k
b101110 @
b101110 j
b101110 x
b100000 ?
b100000 h
11
1!
#126
b101110 &
b101110 _
14
#127
b1000 ;
#130
0!
#135
b111000000000000000000000000 L
b111000000000000000000000000 `
b111000000000000000000000000 z
b111000000000000000000000000 ,
b111000000000000000000000000 d
b111000000000000000000000000 y
0+
1)
04
1!
#136
b1001 ;
#140
0!
#142
1+
#145
1!
#146
b111000000000000000000000000 O
b111000000000000000000000000 p
b10000 b
b10000 n
b10000 m
b10000 }
b10100 T
b10100 |
b10000 Q
b10000 {
b1100 %
b1100 P
b1100 R
b1100 i
b1100 $
b1100 c
b111000000000000000000000000 (
b111000000000000000000000000 a
b111000000000000000000000000 q
1#
17
19
0)
15
#147
b1 ;
#150
0!
#155
b101100 @
b101100 j
b101100 x
b100001 ?
b100001 h
b0 >
b0 t
b100001 .
b100001 f
b11 /
b11 r
b10100 b
b10100 n
b10100 m
b10100 }
b11000 T
b11000 |
b10000 ^
b10000 k
07
0<
0#
05
18
b10100 Q
b10100 {
b10000 %
b10000 P
b10000 R
b10000 i
b10000 $
b10000 c
1!
#156
b10000 &
b10000 _
14
#157
b10 ;
#160
0!
#165
b101000100010100000100001 L
b101000100010100000100001 `
b101000100010100000100001 z
b101000100010100000100001 ,
b101000100010100000100001 d
b101000100010100000100001 y
0+
1)
0'
04
1!
#166
b11 ;
#170
0!
#175
1!
#178
1+
#180
0!
#185
0)
1!
#186
b0 @
b0 j
b0 x
b0 O
b0 p
b0 =
b0 N
b1010000010010100 T
b1010000010010100 |
b1010000010000100 S
b1010000010000100 \
b10100010001010000010000100 l
b10100010001010000010000100 Z
b10100000100001 V
b10100000100001 [
b10100000100001 s
b10 M
b10 w
b101000100010100000100001 Y
b10100000100001 U
b10 K
b101 J
b101 u
b10 v
b100001 g
b0 -
b101000100010100000100001 e
12
#187
b100 ;
#190
0!
#195
b0 ^
b0 k
b0 .
b0 f
b0 /
b0 r
08
01
02
09
1!
#196
b101 ;
#200
0!
#205
b0 L
b0 `
b0 z
b101000100010100000100001 (
b101000100010100000100001 a
b101000100010100000100001 q
b101 M
b101 w
16
15
1:
1!
#206
b11000 b
b11000 n
b11000 m
b11000 }
b1010000010011000 T
b1010000010011000 |
b11000 Q
b11000 {
b10100 %
b10100 P
b10100 R
b10100 i
b10100 $
b10100 c
1#
17
19
#207
b1 ;
#210
0!
#215
b100001 .
b100001 f
b11 /
b11 r
b11100 b
b11100 n
b100001 ?
b100001 h
b11100 m
b11100 }
b1010000010011100 T
b1010000010011100 |
b11000 ^
b11000 k
07
11
0#
05
18
b0 (
b0 a
b0 q
b11100 Q
b11100 {
b11000 %
b11000 P
b11000 R
b11000 i
b11000 $
b11000 c
1!
#216
b11000 &
b11000 _
14
#217
b10 ;
#220
0!
#225
b11100011000001111111111111101 ,
b11100011000001111111111111101 d
b11100011000001111111111111101 y
0+
1)
04
1!
#226
b11 ;
#230
0!
#235
1!
#238
1+
#240
0!
#245
0)
1!
#246
b111000000000000000000000000 L
b111000000000000000000000000 `
b111000000000000000000000000 z
b111000000000000000000000000 @
b111000000000000000000000000 j
b111000000000000000000000000 x
b111000000000000000000000000 =
b111000000000000000000000000 N
b1100 T
b1100 |
b11111111111111111111111111110100 S
b11111111111111111111111111110100 \
b1100000111111111111110100 l
b1100000111111111111110100 Z
b11111111111111111111111111111101 V
b11111111111111111111111111111101 [
b11111111111111111111111111111101 s
b11111 M
b11111 w
b11000001111111111111101 Y
b1111111111111101 U
b0 K
b11 J
b11111 u
b0 v
b111101 g
b111 -
b11100011000001111111111111101 e
12
#247
b100 ;
#250
0!
#255
b111000000000000000000000000 ^
b111000000000000000000000000 k
b111101 ?
b111101 h
b11100011000001111111111111101 L
b11100011000001111111111111101 `
b11100011000001111111111111101 z
b10111 .
b10111 f
b0 /
b0 r
08
01
02
06
09
1!
#256
b10000 ;
#260
0!
#265
b11111111111111111111111111111101 >
b11111111111111111111111111111101 t
b10111 ?
b10111 h
b1 /
b1 r
11
10
1!
#266
b1 ;
#270
0!
#275
b100001 ?
b100001 h
b0 >
b0 t
b100001 .
b100001 f
b11 /
b11 r
b11000 ^
b11000 k
07
18
1!
#276
14
#277
b10 ;
#280
0!
#285
0+
1)
04
1!
#286
b11 ;
#290
0!
#295
1!
#298
1+
#300
0!
#305
0)
1!
#306
12
#307
b100 ;
#310
0!
#315
b111000000000000000000000000 ^
b111000000000000000000000000 k
b111101 ?
b111101 h
b10111 .
b10111 f
b0 /
b0 r
08
01
02
1!
#316
b10000 ;
#320
0!
#325
b11111111111111111111111111111101 >
b11111111111111111111111111111101 t
b10111 ?
b10111 h
b1 /
b1 r
11
1!
#326
b1 ;
#330
0!
#335
b100001 ?
b100001 h
b0 >
b0 t
b100001 .
b100001 f
b11 /
b11 r
b11000 ^
b11000 k
07
18
1!
#336
14
#337
b10 ;
#340
0!
#345
0+
1)
04
1!
#346
b11 ;
#350
0!
#355
1!
#358
1+
#360
0!
#365
0)
1!
#366
12
#367
b100 ;
#370
0!
#375
b111000000000000000000000000 ^
b111000000000000000000000000 k
b111101 ?
b111101 h
b10111 .
b10111 f
b0 /
b0 r
08
01
02
1!
#376
b10000 ;
#380
0!
#385
b11111111111111111111111111111101 >
b11111111111111111111111111111101 t
b10111 ?
b10111 h
b1 /
b1 r
11
1!
#386
b1 ;
#390
0!
#395
b100001 ?
b100001 h
b0 >
b0 t
b100001 .
b100001 f
b11 /
b11 r
b11000 ^
b11000 k
07
18
1!
#396
14
#397
b10 ;
#400
0!
#405
0+
1)
04
1!
#406
b11 ;
#410
0!
#415
1!
#418
1+
#420
0!
#425
0)
1!
#426
12
#427
b100 ;
#430
0!
#435
b111000000000000000000000000 ^
b111000000000000000000000000 k
b111101 ?
b111101 h
b10111 .
b10111 f
b0 /
b0 r
08
01
02
1!
#436
b10000 ;
#440
0!
#445
b11111111111111111111111111111101 >
b11111111111111111111111111111101 t
b10111 ?
b10111 h
b1 /
b1 r
11
1!
#446
b1 ;
#450
0!
#455
b100001 ?
b100001 h
b0 >
b0 t
b100001 .
b100001 f
b11 /
b11 r
b11000 ^
b11000 k
07
18
1!
#456
14
#457
b10 ;
#460
0!
#465
0+
1)
04
1!
#466
b11 ;
#470
0!
#475
1!
#478
1+
#480
0!
#485
0)
1!
#486
12
#487
b100 ;
#490
0!
#495
b111000000000000000000000000 ^
b111000000000000000000000000 k
b111101 ?
b111101 h
b10111 .
b10111 f
b0 /
b0 r
08
01
02
1!
#496
b10000 ;
#500
0!
#505
b11111111111111111111111111111101 >
b11111111111111111111111111111101 t
b10111 ?
b10111 h
b1 /
b1 r
11
1!
#506
b1 ;
#510
0!
#515
b100001 ?
b100001 h
b0 >
b0 t
b100001 .
b100001 f
b11 /
b11 r
b11000 ^
b11000 k
07
18
1!
#516
14
#517
b10 ;
#520
0!
#525
0+
1)
04
1!
#526
b11 ;
#530
0!
#535
1!
#538
1+
#540
0!
#545
0)
1!
#546
12
#547
b100 ;
#550
0!
#555
b111000000000000000000000000 ^
b111000000000000000000000000 k
b111101 ?
b111101 h
b10111 .
b10111 f
b0 /
b0 r
08
01
02
1!
#556
b10000 ;
#560
0!
#565
b11111111111111111111111111111101 >
b11111111111111111111111111111101 t
b10111 ?
b10111 h
b1 /
b1 r
11
1!
#566
b1 ;
#570
0!
#575
b100001 ?
b100001 h
b0 >
b0 t
b100001 .
b100001 f
b11 /
b11 r
b11000 ^
b11000 k
07
18
1!
#576
14
#577
b10 ;
#580
0!
#585
0+
1)
04
1!
#586
b11 ;
#590
0!
#595
1!
#598
1+
#600
0!
#605
0)
1!
#606
12
#607
b100 ;
#610
0!
#615
b111000000000000000000000000 ^
b111000000000000000000000000 k
b111101 ?
b111101 h
b10111 .
b10111 f
b0 /
b0 r
08
01
02
1!
#616
b10000 ;
#620
0!
#625
b11111111111111111111111111111101 >
b11111111111111111111111111111101 t
b10111 ?
b10111 h
b1 /
b1 r
11
1!
#626
b1 ;
#630
0!
#635
b100001 ?
b100001 h
b0 >
b0 t
b100001 .
b100001 f
b11 /
b11 r
b11000 ^
b11000 k
07
18
1!
#636
14
#637
b10 ;
#640
0!
#645
0+
1)
04
1!
#646
b11 ;
#650
0!
#655
1!
#658
1+
#660
0!
#665
0)
1!
#666
12
#667
b100 ;
#670
0!
#675
b111000000000000000000000000 ^
b111000000000000000000000000 k
b111101 ?
b111101 h
b10111 .
b10111 f
b0 /
b0 r
08
01
02
1!
#676
b10000 ;
#680
0!
#685
b11111111111111111111111111111101 >
b11111111111111111111111111111101 t
b10111 ?
b10111 h
b1 /
b1 r
11
1!
#686
b1 ;
#690
0!
#695
b100001 ?
b100001 h
b0 >
b0 t
b100001 .
b100001 f
b11 /
b11 r
b11000 ^
b11000 k
07
18
1!
#696
14
#697
b10 ;
#700
0!
#705
0+
1)
04
1!
#706
b11 ;
#710
0!
#715
1!
#718
1+
#720
0!
#725
0)
1!
#726
12
#727
b100 ;
#730
0!
#735
b111000000000000000000000000 ^
b111000000000000000000000000 k
b111101 ?
b111101 h
b10111 .
b10111 f
b0 /
b0 r
08
01
02
1!
#736
b10000 ;
#740
0!
#745
b11111111111111111111111111111101 >
b11111111111111111111111111111101 t
b10111 ?
b10111 h
b1 /
b1 r
11
1!
#746
b1 ;
#750
0!
#755
b100001 ?
b100001 h
b0 >
b0 t
b100001 .
b100001 f
b11 /
b11 r
b11000 ^
b11000 k
07
18
1!
#756
14
#757
b10 ;
#760
0!
#765
0+
1)
04
1!
#766
b11 ;
#770
0!
#775
1!
#778
1+
#780
0!
#785
0)
1!
#786
12
#787
b100 ;
#790
0!
#795
b111000000000000000000000000 ^
b111000000000000000000000000 k
b111101 ?
b111101 h
b10111 .
b10111 f
b0 /
b0 r
08
01
02
1!
#796
b10000 ;
#800
0!
#805
b11111111111111111111111111111101 >
b11111111111111111111111111111101 t
b10111 ?
b10111 h
b1 /
b1 r
11
1!
#806
b1 ;
#810
0!
#815
b100001 ?
b100001 h
b0 >
b0 t
b100001 .
b100001 f
b11 /
b11 r
b11000 ^
b11000 k
07
18
1!
#816
14
#817
b10 ;
#820
0!
#825
0+
1)
04
1!
#826
b11 ;
#830
0!
#835
1!
#838
1+
#840
0!
#845
0)
1!
#846
12
#847
b100 ;
#850
0!
#855
b111000000000000000000000000 ^
b111000000000000000000000000 k
b111101 ?
b111101 h
b10111 .
b10111 f
b0 /
b0 r
08
01
02
1!
#856
b10000 ;
#860
0!
#865
b11111111111111111111111111111101 >
b11111111111111111111111111111101 t
b10111 ?
b10111 h
b1 /
b1 r
11
1!
#866
b1 ;
#870
0!
#875
b100001 ?
b100001 h
b0 >
b0 t
b100001 .
b100001 f
b11 /
b11 r
b11000 ^
b11000 k
07
18
1!
#876
14
#877
b10 ;
#880
0!
#885
0+
1)
04
1!
#886
b11 ;
#890
0!
#895
1!
#898
1+
#900
0!
#905
0)
1!
#906
12
#907
b100 ;
#910
0!
#915
b111000000000000000000000000 ^
b111000000000000000000000000 k
b111101 ?
b111101 h
b10111 .
b10111 f
b0 /
b0 r
08
01
02
1!
#916
b10000 ;
#920
0!
#925
b11111111111111111111111111111101 >
b11111111111111111111111111111101 t
b10111 ?
b10111 h
b1 /
b1 r
11
1!
#926
b1 ;
#930
0!
#935
b100001 ?
b100001 h
b0 >
b0 t
b100001 .
b100001 f
b11 /
b11 r
b11000 ^
b11000 k
07
18
1!
#936
14
#937
b10 ;
#940
0!
#945
0+
1)
04
1!
#946
b11 ;
#950
0!
#955
1!
#958
1+
#960
0!
#965
0)
1!
#966
12
#967
b100 ;
#970
0!
#975
b111000000000000000000000000 ^
b111000000000000000000000000 k
b111101 ?
b111101 h
b10111 .
b10111 f
b0 /
b0 r
08
01
02
1!
#976
b10000 ;
#980
0!
#985
b11111111111111111111111111111101 >
b11111111111111111111111111111101 t
b10111 ?
b10111 h
b1 /
b1 r
11
1!
#986
b1 ;
#990
0!
#995
b100001 ?
b100001 h
b0 >
b0 t
b100001 .
b100001 f
b11 /
b11 r
b11000 ^
b11000 k
07
18
1!
#996
14
#997
b10 ;
#1000
0!
#1005
0+
1)
04
1!
#1006
b11 ;
#1010
0!
#1015
1!
#1018
1+
#1020
0!
#1025
0)
1!
#1026
12
#1027
b100 ;
#1030
0!
#1035
b111000000000000000000000000 ^
b111000000000000000000000000 k
b111101 ?
b111101 h
b10111 .
b10111 f
b0 /
b0 r
08
01
02
1!
#1036
b10000 ;
#1040
0!
#1045
b11111111111111111111111111111101 >
b11111111111111111111111111111101 t
b10111 ?
b10111 h
b1 /
b1 r
11
1!
#1046
b1 ;
#1050
0!
#1055
b100001 ?
b100001 h
b0 >
b0 t
b100001 .
b100001 f
b11 /
b11 r
b11000 ^
b11000 k
07
18
1!
#1056
14
#1057
b10 ;
#1060
0!
#1065
0+
1)
04
1!
#1066
b11 ;
#1070
0!
#1075
1!
#1078
1+
#1080
0!
#1085
0)
1!
#1086
12
#1087
b100 ;
#1090
0!
#1095
b111000000000000000000000000 ^
b111000000000000000000000000 k
b111101 ?
b111101 h
b10111 .
b10111 f
b0 /
b0 r
08
01
02
1!
#1096
b10000 ;
#1100
0!
#1105
b11111111111111111111111111111101 >
b11111111111111111111111111111101 t
b10111 ?
b10111 h
b1 /
b1 r
11
1!
#1106
b1 ;
#1110
0!
#1115
b100001 ?
b100001 h
b0 >
b0 t
b100001 .
b100001 f
b11 /
b11 r
b11000 ^
b11000 k
07
18
1!
#1116
14
#1117
b10 ;
#1120
0!
#1125
0+
1)
04
1!
#1126
b11 ;
#1130
0!
#1135
1!
#1138
1+
#1140
0!
#1145
0)
1!
#1146
12
#1147
b100 ;
#1150
0!
#1155
b111000000000000000000000000 ^
b111000000000000000000000000 k
b111101 ?
b111101 h
b10111 .
b10111 f
b0 /
b0 r
08
01
02
1!
#1156
b10000 ;
#1160
0!
#1165
b11111111111111111111111111111101 >
b11111111111111111111111111111101 t
b10111 ?
b10111 h
b1 /
b1 r
11
1!
#1166
b1 ;
#1170
0!
#1175
b100001 ?
b100001 h
b0 >
b0 t
b100001 .
b100001 f
b11 /
b11 r
b11000 ^
b11000 k
07
18
1!
#1176
14
#1177
b10 ;
#1180
0!
#1185
0+
1)
04
1!
#1186
b11 ;
#1190
0!
#1195
1!
#1198
1+
#1200
0!
#1205
0)
1!
#1206
12
#1207
b100 ;
#1210
0!
#1215
b111000000000000000000000000 ^
b111000000000000000000000000 k
b111101 ?
b111101 h
b10111 .
b10111 f
b0 /
b0 r
08
01
02
1!
#1216
b10000 ;
#1220
0!
#1225
b11111111111111111111111111111101 >
b11111111111111111111111111111101 t
b10111 ?
b10111 h
b1 /
b1 r
11
1!
#1226
b1 ;
#1230
0!
#1235
b100001 ?
b100001 h
b0 >
b0 t
b100001 .
b100001 f
b11 /
b11 r
b11000 ^
b11000 k
07
18
1!
#1236
14
#1237
b10 ;
#1240
0!
#1245
0+
1)
04
1!
#1246
b11 ;
#1250
0!
#1255
1!
#1258
1+
#1260
0!
#1265
0)
1!
#1266
12
#1267
b100 ;
#1270
0!
#1275
b111000000000000000000000000 ^
b111000000000000000000000000 k
b111101 ?
b111101 h
b10111 .
b10111 f
b0 /
b0 r
08
01
02
1!
#1276
b10000 ;
#1280
0!
#1285
b11111111111111111111111111111101 >
b11111111111111111111111111111101 t
b10111 ?
b10111 h
b1 /
b1 r
11
1!
#1286
b1 ;
#1290
0!
#1295
b100001 ?
b100001 h
b0 >
b0 t
b100001 .
b100001 f
b11 /
b11 r
b11000 ^
b11000 k
07
18
1!
#1296
14
#1297
b10 ;
#1300
0!
#1305
0+
1)
04
1!
#1306
b11 ;
#1310
0!
#1315
1!
#1318
1+
#1320
0!
#1325
0)
1!
#1326
12
#1327
b100 ;
#1330
0!
#1335
b111000000000000000000000000 ^
b111000000000000000000000000 k
b111101 ?
b111101 h
b10111 .
b10111 f
b0 /
b0 r
08
01
02
1!
#1336
b10000 ;
#1340
0!
#1345
b11111111111111111111111111111101 >
b11111111111111111111111111111101 t
b10111 ?
b10111 h
b1 /
b1 r
11
1!
#1346
b1 ;
#1350
0!
#1355
b100001 ?
b100001 h
b0 >
b0 t
b100001 .
b100001 f
b11 /
b11 r
b11000 ^
b11000 k
07
18
1!
#1356
14
#1357
b10 ;
#1360
0!
#1365
0+
1)
04
1!
#1366
b11 ;
#1370
0!
#1375
1!
#1378
1+
#1380
0!
#1385
0)
1!
#1386
12
#1387
b100 ;
#1390
0!
#1395
b111000000000000000000000000 ^
b111000000000000000000000000 k
b111101 ?
b111101 h
b10111 .
b10111 f
b0 /
b0 r
08
01
02
1!
#1396
b10000 ;
#1400
0!
#1405
b11111111111111111111111111111101 >
b11111111111111111111111111111101 t
b10111 ?
b10111 h
b1 /
b1 r
11
1!
#1406
b1 ;
#1410
0!
#1415
b100001 ?
b100001 h
b0 >
b0 t
b100001 .
b100001 f
b11 /
b11 r
b11000 ^
b11000 k
07
18
1!
#1416
14
#1417
b10 ;
#1420
0!
#1425
0+
1)
04
1!
#1426
b11 ;
#1430
0!
#1435
1!
#1438
1+
#1440
0!
#1445
0)
1!
#1446
12
#1447
b100 ;
#1450
0!
#1455
b111000000000000000000000000 ^
b111000000000000000000000000 k
b111101 ?
b111101 h
b10111 .
b10111 f
b0 /
b0 r
08
01
02
1!
#1456
b10000 ;
#1460
0!
#1465
b11111111111111111111111111111101 >
b11111111111111111111111111111101 t
b10111 ?
b10111 h
b1 /
b1 r
11
1!
#1466
b1 ;
#1470
0!
#1475
b100001 ?
b100001 h
b0 >
b0 t
b100001 .
b100001 f
b11 /
b11 r
b11000 ^
b11000 k
07
18
1!
#1476
14
#1477
b10 ;
#1480
0!
#1485
0+
1)
04
1!
#1486
b11 ;
#1490
0!
#1495
1!
#1498
1+
#1500
0!
#1505
0)
1!
#1506
12
#1507
b100 ;
#1510
0!
#1515
b111000000000000000000000000 ^
b111000000000000000000000000 k
b111101 ?
b111101 h
b10111 .
b10111 f
b0 /
b0 r
08
01
02
1!
#1516
b10000 ;
#1520
0!
#1525
b11111111111111111111111111111101 >
b11111111111111111111111111111101 t
b10111 ?
b10111 h
b1 /
b1 r
11
1!
#1526
b1 ;
#1530
0!
#1535
b100001 ?
b100001 h
b0 >
b0 t
b100001 .
b100001 f
b11 /
b11 r
b11000 ^
b11000 k
07
18
1!
#1536
14
#1537
b10 ;
#1540
0!
#1545
0+
1)
04
1!
#1546
b11 ;
#1550
0!
#1555
1!
#1558
1+
#1560
0!
#1565
0)
1!
#1566
12
#1567
b100 ;
#1570
0!
#1575
b111000000000000000000000000 ^
b111000000000000000000000000 k
b111101 ?
b111101 h
b10111 .
b10111 f
b0 /
b0 r
08
01
02
1!
#1576
b10000 ;
#1580
0!
#1585
b11111111111111111111111111111101 >
b11111111111111111111111111111101 t
b10111 ?
b10111 h
b1 /
b1 r
11
1!
#1586
b1 ;
#1590
0!
#1595
b100001 ?
b100001 h
b0 >
b0 t
b100001 .
b100001 f
b11 /
b11 r
b11000 ^
b11000 k
07
18
1!
