cleanup/results/CPUFileTest1.vcd
$date
	Fri Dec 14 11:10:46 2018
$end
$version
	Icarus Verilog
$end
$timescale
	1s
$end
$scope module CPUTester1 $end
$var reg 1 ! clk $end
$upscope $end
$scope module CPUTester1 $end
$var reg 1 " reset $end
$upscope $end
$scope module CPUTester1 $end
$scope module CPU_Test1 $end
$scope module Program_Counter $end
$var wire 1 ! Clk $end
$var wire 1 # Load $end
$var wire 32 $ PCNext [31:0] $end
$var wire 1 " Reset $end
$var reg 32 % PCResult [31:0] $end
$upscope $end
$upscope $end
$upscope $end
$scope module CPUTester1 $end
$scope module CPU_Test1 $end
$scope module Memory $end
$var wire 32 & address [31:0] $end
$var wire 32 ' dataIn [31:0] $end
$var wire 1 ( memEnable $end
$var wire 1 ) rw $end
$var reg 1 * MOC $end
$var reg 32 + output_destination [31:0] $end
$upscope $end
$upscope $end
$upscope $end
$scope module CPUTester1 $end
$scope module CPU_Test1 $end
$scope module Control_Unit $end
$var wire 1 ! clk $end
$var wire 6 , opCode [5:0] $end
$var wire 1 " reset $end
$var wire 1 * MOC $end
$var reg 1 ) RW $end
$var reg 6 - aluCode [5:0] $end
$var reg 2 . aluSrc [1:0] $end
$var reg 1 / branch $end
$var reg 1 0 immediate $end
$var reg 1 1 irLoad $end
$var reg 1 2 jump $end
$var reg 1 3 marLoad $end
$var reg 1 4 mdrLoad $end
$var reg 1 5 mdrSource $end
$var reg 1 ( memEnable $end
$var reg 1 6 npcLoad $end
$var reg 1 # pcLoad $end
$var reg 1 7 pcSelect $end
$var reg 1 8 regWrite $end
$var reg 1 9 rfSource $end
$var reg 5 : state [4:0] $end
$var reg 1 ; unSign $end
$upscope $end
$upscope $end
$upscope $end
$scope module CPUTester1 $end
$scope module CPU_Test1 $end
$scope module alu $end
$var wire 32 < b [31:0] $end
$var wire 6 = operation [5:0] $end
$var wire 32 > a [31:0] $end
$var reg 32 ? Result [31:0] $end
$var reg 1 @ carryFlag $end
$var reg 1 A negativeFlag $end
$var reg 1 B overFlowFlag $end
$var reg 32 C tempVar [31:0] $end
$var reg 1 D zeroFlag $end
$var integer 32 E counter [31:0] $end
$var integer 32 F index [31:0] $end
$var integer 32 G var [31:0] $end
$upscope $end
$upscope $end
$upscope $end
$scope module CPUTester1 $end
$scope module CPU_Test1 $end
$scope module Register_File $end
$var wire 5 H A_Address [4:0] $end
$var wire 5 I B_Address [4:0] $end
$var wire 1 ! Clk $end
$var wire 1 8 Write $end
$var wire 32 J C_Data [31:0] $end
$var wire 5 K C_Address [4:0] $end
$var reg 32 L A_Data [31:0] $end
$var reg 32 M B_Data [31:0] $end
$upscope $end
$upscope $end
$upscope $end
$scope module CPUTester1 $end
$scope module CPU_Test1 $end
$scope module addFour $end
$var wire 32 N pc [31:0] $end
$var wire 32 O result [31:0] $end
$upscope $end
$upscope $end
$upscope $end
$scope module CPUTester1 $end
$scope module CPU_Test1 $end
$scope module adder $end
$var wire 32 P entry1 [31:0] $end
$var wire 32 Q entry0 [31:0] $end
$var reg 32 R result [31:0] $end
$upscope $end
$upscope $end
$upscope $end
$scope module CPUTester1 $end
$scope module CPU_Test1 $end
$scope module signExt $end
$var wire 16 S ins [15:0] $end
$var wire 1 ; unSign $end
$var reg 32 T result [31:0] $end
$var reg 16 U tempOnes [15:0] $end
$var reg 16 V tempZero [15:0] $end
$upscope $end
$upscope $end
$upscope $end
$scope module CPUTester1 $end
$scope module CPU_Test1 $end
$scope module shftJump $end
$var wire 26 W in [25:0] $end
$var reg 28 X result [27:0] $end
$upscope $end
$upscope $end
$upscope $end
$scope module CPUTester1 $end
$scope module CPU_Test1 $end
$scope module shftLeft $end
$var wire 32 Y in [31:0] $end
$var reg 32 Z result [31:0] $end
$upscope $end
$upscope $end
$upscope $end
$scope module CPUTester1 $end
$scope module CPU_Test1 $end
$scope module simpleAND $end
$var wire 1 D Z_flag $end
$var wire 1 / branch $end
$var reg 1 [ result $end
$upscope $end
$upscope $end
$upscope $end
$scope module CPUTester1 $end
$scope module CPU_Test1 $end
$scope module MAR $end
$var wire 1 3 load $end
$var wire 32 \ in [31:0] $end
$var reg 32 ] result [31:0] $end
$upscope $end
$upscope $end
$upscope $end
$scope module CPUTester1 $end
$scope module CPU_Test1 $end
$scope module MDR $end
$var wire 1 4 load $end
$var wire 32 ^ in [31:0] $end
$var reg 32 _ result [31:0] $end
$upscope $end
$upscope $end
$upscope $end
$scope module CPUTester1 $end
$scope module CPU_Test1 $end
$scope module NPC $end
$var wire 32 ` in [31:0] $end
$var wire 1 6 load $end
$var reg 32 a result [31:0] $end
$upscope $end
$upscope $end
$upscope $end
$scope module CPUTester1 $end
$scope module CPU_Test1 $end
$scope module IR $end
$var wire 1 1 load $end
$var wire 32 b in [31:0] $end
$var reg 32 c result [31:0] $end
$upscope $end
$upscope $end
$upscope $end
$scope module CPUTester1 $end
$scope module CPU_Test1 $end
$scope module funcMux $end
$var wire 6 d one [5:0] $end
$var wire 1 0 s $end
$var wire 6 e zero [5:0] $end
$var reg 6 f result [5:0] $end
$upscope $end
$upscope $end
$upscope $end
$scope module CPUTester1 $end
$scope module CPU_Test1 $end
$scope module pcMux $end
$var wire 32 g one [31:0] $end
$var wire 1 7 s $end
$var wire 32 h zero [31:0] $end
$var reg 32 i result [31:0] $end
$upscope $end
$upscope $end
$upscope $end
$scope module CPUTester1 $end
$scope module CPU_Test1 $end
$scope module Jump_Mux $end
$var wire 32 j one [31:0] $end
$var wire 1 2 s $end
$var wire 32 k zero [31:0] $end
$var reg 32 l result [31:0] $end
$upscope $end
$upscope $end
$upscope $end
$scope module CPUTester1 $end
$scope module CPU_Test1 $end
$scope module ALU_Mux $end
$var wire 32 m three [31:0] $end
$var wire 32 n zero [31:0] $end
$var wire 32 o two [31:0] $end
$var wire 2 p s [1:0] $end
$var wire 32 q one [31:0] $end
$var reg 32 r result [31:0] $end
$upscope $end
$upscope $end
$upscope $end
$scope module CPUTester1 $end
$scope module CPU_Test1 $end
$scope module Register_Mux $end
$var wire 5 s one [4:0] $end
$var wire 1 9 s $end
$var wire 5 t zero [4:0] $end
$var reg 5 u result [4:0] $end
$upscope $end
$upscope $end
$upscope $end
$scope module CPUTester1 $end
$scope module CPU_Test1 $end
$scope module mdrMux $end
$var wire 32 v one [31:0] $end
$var wire 1 5 s $end
$var wire 32 w zero [31:0] $end
$var reg 32 x result [31:0] $end
$upscope $end
$upscope $end
$upscope $end
$scope module CPUTester1 $end
$scope module CPU_Test1 $end
$scope module Branch_Mux $end
$var wire 32 y zero [31:0] $end
$var wire 1 [ s $end
$var wire 32 z one [31:0] $end
$var reg 32 { result [31:0] $end
$upscope $end
$upscope $end
$upscope $end
$enddefinitions $end
#0
$dumpvars
b100 {
bx z
b100 y
bx x
bx w
bx v
bx u
bx t
bx s
bx r
bx q
bx p
bx o
bx n
b0 m
b0xxxxxxxxxxxxxxxxxxxxxxxxxxxx l
b100 k
b0xxxxxxxxxxxxxxxxxxxxxxxxxxxx j
b0 i
bx h
b0 g
bx f
bx e
bx d
bx c
bx b
bx a
b0xxxxxxxxxxxxxxxxxxxxxxxxxxxx `
bx _
bx ^
bx ]
bx \
0[
bx Z
bx Y
bx X
bx W
b0 V
b1111111111111111 U
bx T
bx S
bx R
bx Q
b100 P
b100 O
b0 N
bx M
bx L
bx K
bx J
bx I
bx H
b0 G
bx F
b0 E
0D
bx C
xB
xA
x@
bx ?
b0 >
bx =
bx <
x;
b0 :
x9
x8
x7
x6
x5
x4
x3
x2
x1
x0
x/
bx .
bx -
bx ,
bx +
1*
x)
x(
bx '
bx &
b0 %
bx $
x#
0"
0!
$end
#5
b0 .
b0 p
b100 `
b100 l
bx >
bx i
05
04
03
0)
0/
02
08
09
01
00
07
0(
0;
06
0#
1!
#6
b1 :
#10
0!
#15
0B
0@
b0 ?
b0 \
b0 v
b100001 =
b100001 f
b0 <
b0 r
b100001 -
b100001 d
b11 .
b11 p
b100 $
b100 a
b0 >
b0 i
10
06
17
1!
#16
b0 &
b0 ]
13
#17
b10 :
#20
0!
#25
b100100000000010000000000101100 J
b100100000000010000000000101100 ^
b100100000000010000000000101100 x
b100100000000010000000000101100 +
b100100000000010000000000101100 b
b100100000000010000000000101100 w
0*
1(
03
1!
#26
b11 :
#30
0!
#35
1!
#38
1*
#40
0!
#45
0(
1!
#46
b0 M
b0 n
b0 L
b0 h
b10110100 R
b10110100 z
b10110000 Q
b10110000 Z
b1000000000010110000 j
b1000000000010110000 X
b101100 T
b101100 Y
b101100 q
b1 K
b1 u
b10000000000101100 W
b101100 S
b1 I
b0 H
b0 s
b1 t
b101100 e
b1001 ,
b100100000000010000000000101100 c
11
#47
b100 :
#50
0!
#55
b101100 =
b101100 f
1;
b100001 -
b100001 d
b0 .
b0 p
07
00
01
1!
#56
b110 :
#60
0!
#65
b101100 ?
b101100 \
b101100 v
b101100 <
b101100 r
b101100 J
b101100 ^
b101100 x
b100001 =
b100001 f
b1 .
b1 p
15
10
1!
#66
b101100 M
b101100 n
b1000 `
b1000 l
b1000 k
b1000 {
b10111000 R
b10111000 z
b1000 O
b1000 P
b1000 y
b100 %
b100 N
b100 g
b101100 '
b101100 _
b101100 o
1#
16
18
14
#67
b1 :
#70
0!
#75
b0 <
b0 r
b11 .
b11 p
b100 J
b100 ^
b100 x
b100 ?
b100 \
b100 v
b100 >
b100 i
06
0;
0#
04
17
1!
#76
b100 &
b100 ]
13
#77
b10 :
#80
0!
#85
b10010000001000100000000000000000 +
b10010000001000100000000000000000 b
b10010000001000100000000000000000 w
0*
1(
03
1!
#86
b11 :
#90
0!
#95
1!
#98
1*
#100
0!
#105
0(
1!
#106
b0 M
b0 n
b101100 L
b101100 h
b1000 R
b1000 z
b0 Q
b0 Z
b100010000000000000000000 j
b100010000000000000000000 X
b0 T
b0 Y
b0 q
b10 K
b10 u
b1000100000000000000000 W
b0 S
b10 I
b1 H
b10 t
b0 e
b100100 ,
b10010000001000100000000000000000 c
11
#107
b100 :
#110
0!
#115
b0 ?
b0 \
b0 v
b101100 >
b101100 i
b0 =
b0 f
b10010000001000100000000000000000 J
b10010000001000100000000000000000 ^
b10010000001000100000000000000000 x
1;
b100001 -
b100001 d
b0 .
b0 p
07
00
01
05
08
1!
#116
b111 :
#120
0!
#125
0A
b100000 -
b100000 d
b1 .
b1 p
b101100 ?
b101100 \
b101100 v
b100000 =
b100000 f
10
1!
#126
b101100 &
b101100 ]
13
#127
b1000 :
#130
0!
#135
b11001000001010000011100000100 J
b11001000001010000011100000100 ^
b11001000001010000011100000100 x
b11001000001010000011100000100 +
b11001000001010000011100000100 b
b11001000001010000011100000100 w
0*
1(
03
1!
#136
b1001 :
#140
0!
#145
1!
#146
b11001000001010000011100000100 M
b11001000001010000011100000100 n
b1100 `
b1100 l
b1100 k
b1100 {
b1100 R
b1100 z
b1100 O
b1100 P
b1100 y
b1000 %
b1000 N
b1000 g
b1000 $
b1000 a
b11001000001010000011100000100 '
b11001000001010000011100000100 _
b11001000001010000011100000100 o
1#
16
18
0(
14
#147
b1 :
#148
1*
#150
0!
#155
b100001 =
b100001 f
b100001 -
b100001 d
b11 .
b11 p
b1000 ?
b1000 \
b1000 v
b1000 >
b1000 i
06
0;
0#
04
17
1!
#156
b1000 &
b1000 ]
13
#157
b10 :
#160
0!
#165
b10010000001000110000000000000010 J
b10010000001000110000000000000010 ^
b10010000001000110000000000000010 x
b10010000001000110000000000000010 +
b10010000001000110000000000000010 b
b10010000001000110000000000000010 w
0*
1(
03
1!
#166
b11 :
#170
0!
#175
1!
#178
1*
#180
0!
#185
0(
1!
#186
b0 M
b0 n
b10100 R
b10100 z
b1000 Q
b1000 Z
b100011000000000000001000 j
b100011000000000000001000 X
b10 T
b10 Y
b10 q
b11 K
b11 u
b1000110000000000000010 W
b10 S
b11 I
b11 t
b10 e
b10010000001000110000000000000010 c
11
#187
b100 :
#190
0!
#195
b0 ?
b0 \
b0 v
b101100 >
b101100 i
b10 =
b10 f
1;
b100001 -
b100001 d
b0 .
b0 p
07
00
01
08
1!
#196
b111 :
#200
0!
#205
b10 <
b10 r
b100000 -
b100000 d
b1 .
b1 p
b101110 ?
b101110 \
b101110 v
b100000 =
b100000 f
10
1!
#206
b101110 &
b101110 ]
13
#207
b1000 :
#210
0!
#215
b111000001000001000000000000 J
b111000001000001000000000000 ^
b111000001000001000000000000 x
b111000001000001000000000000 +
b111000001000001000000000000 b
b111000001000001000000000000 w
0*
1(
03
1!
#216
b1001 :
#220
0!
#225
1!
#226
b111000001000001000000000000 M
b111000001000001000000000000 n
b10000 `
b10000 l
b10000 k
b10000 {
b11000 R
b11000 z
b10000 O
b10000 P
b10000 y
b1100 %
b1100 N
b1100 g
b1100 $
b1100 a
b111000001000001000000000000 '
b111000001000001000000000000 _
b111000001000001000000000000 o
1#
16
18
0(
14
#227
b1 :
#228
1*
#230
0!
#235
b100001 =
b100001 f
b0 <
b0 r
b100001 -
b100001 d
b11 .
b11 p
b1100 ?
b1100 \
b1100 v
b1100 >
b1100 i
06
0;
0#
04
17
1!
#236
b1100 &
b1100 ]
13
#237
b10 :
#240
0!
#245
b10100000100001 J
b10100000100001 ^
b10100000100001 x
b10100000100001 +
b10100000100001 b
b10100000100001 w
0*
1(
03
1!
#246
b11 :
#250
0!
#255
1!
#258
1*
#260
0!
#265
0(
1!
#266
b0 M
b0 n
b0 L
b0 h
b1010000010010100 R
b1010000010010100 z
b1010000010000100 Q
b1010000010000100 Z
b1010000010000100 j
b1010000010000100 X
b10100000100001 T
b10100000100001 Y
b10100000100001 q
b0 K
b0 u
b10100000100001 W
b10100000100001 S
b0 I
b0 H
b101 s
b0 t
b100001 e
b0 ,
b10100000100001 c
11
#267
b100 :
#270
0!
#275
b0 ?
b0 \
b0 v
b0 >
b0 i
b0 -
b0 d
b0 .
b0 p
07
00
01
08
1!
#276
b101 :
#280
0!
#285
b0 J
b0 ^
b0 x
b10100000100001 '
b10100000100001 _
b10100000100001 o
b101 K
b101 u
15
14
19
1!
#286
b10100 `
b10100 l
b10100 k
b10100 {
b1010000010011000 R
b1010000010011000 z
b10100 O
b10100 P
b10100 y
b10000 %
b10000 N
b10000 g
b10000 $
b10000 a
1#
16
18
#287
b1 :
#290
0!
#295
b10000 J
b10000 ^
b10000 x
b10000 ?
b10000 \
b10000 v
b100001 -
b100001 d
b11 .
b11 p
b100001 =
b100001 f
b10000 >
b10000 i
06
10
0#
04
17
1!
#296
b10000 &
b10000 ]
13
#297
b10 :
#300
0!
#305
b101000100010100000100001 +
b101000100010100000100001 b
b101000100010100000100001 w
0*
1(
03
1!
#306
b11 :
#310
0!
#315
1!
#318
1*
#320
0!
#325
0(
1!
#326
b11001000001010000011100000100 M
b11001000001010000011100000100 n
b10100010001010000010000100 j
b10100010001010000010000100 X
b101000100010100000100001 W
b10 I
b101 H
b10 t
b101000100010100000100001 c
11
#327
b100 :
#330
0!
#335
b11001000001010000011100000100 ?
b11001000001010000011100000100 \
b11001000001010000011100000100 v
b11001000001010000011100000100 <
b11001000001010000011100000100 r
b0 >
b0 i
b101000100010100000100001 J
b101000100010100000100001 ^
b101000100010100000100001 x
b0 -
b0 d
b0 .
b0 p
07
00
01
05
08
1!
#336
b101 :
#340
0!
#345
b11001000001010000011100000100 J
b11001000001010000011100000100 ^
b11001000001010000011100000100 x
b101000100010100000100001 '
b101000100010100000100001 _
b101000100010100000100001 o
15
14
1!
#346
b110010000010100000111000001000 J
b110010000010100000111000001000 ^
b110010000010100000111000001000 x
b110010000010100000111000001000 ?
b110010000010100000111000001000 \
b110010000010100000111000001000 v
b11001000001010000011100000100 >
b11001000001010000011100000100 i
b11001000001010000011100000100 L
b11001000001010000011100000100 h
b11000 `
b11000 l
b11000 k
b11000 {
b1010000010011100 R
b1010000010011100 z
b11000 O
b11000 P
b11000 y
b10100 %
b10100 N
b10100 g
b10100 $
b10100 a
1#
16
18
#347
b1 :
#350
0!
#355
b10100 J
b10100 ^
b10100 x
b10100 ?
b10100 \
b10100 v
b0 <
b0 r
b100001 -
b100001 d
b11 .
b11 p
b100001 =
b100001 f
b10100 >
b10100 i
06
10
0#
04
17
1!
#356
b10100 &
b10100 ]
13
#357
b10 :
#360
0!
#365
b100100011000111111111111111111 +
b100100011000111111111111111111 b
b100100011000111111111111111111 w
0*
1(
03
1!
#366
b11 :
#370
0!
#375
1!
#378
1*
#380
0!
#385
0(
1!
#386
b111000001000001000000000000 M
b111000001000001000000000000 n
b111000001000001000000000000 L
b111000001000001000000000000 h
b10100 R
b10100 z
b11111111111111111111111111111100 Q
b11111111111111111111111111111100 Z
b1100011111111111111111100 j
b1100011111111111111111100 X
b11111111111111111111111111111111 T
b11111111111111111111111111111111 Y
b11111111111111111111111111111111 q
b11111 K
b11111 u
b11000111111111111111111 W
b1111111111111111 S
b11 I
b11 H
b11111 s
b11 t
b111111 e
b1001 ,
b100100011000111111111111111111 c
11
#387
b100 :
#390
0!
#395
b111000001000001000000000000 ?
b111000001000001000000000000 \
b111000001000001000000000000 v
b111000001000001000000000000 <
b111000001000001000000000000 r
b111000001000001000000000000 >
b111000001000001000000000000 i
b111111 =
b111111 f
b100100011000111111111111111111 J
b100100011000111111111111111111 ^
b100100011000111111111111111111 x
1;
b100001 -
b100001 d
b0 .
b0 p
07
00
01
05
08
1!
#396
b110 :
#400
0!
#405
1@
b111000001000000111111111111 ?
b111000001000000111111111111 \
b111000001000000111111111111 v
b11111111111111111111111111111111 <
b11111111111111111111111111111111 r
b111000001000000111111111111 J
b111000001000000111111111111 ^
b111000001000000111111111111 x
b100001 =
b100001 f
b11 K
b11 u
b1 .
b1 p
15
10
09
1!
#406
b111000001000000111111111110 J
b111000001000000111111111110 ^
b111000001000000111111111110 x
b111000001000000111111111110 ?
b111000001000000111111111110 \
b111000001000000111111111110 v
b111000001000000111111111111 >
b111000001000000111111111111 i
b111000001000000111111111111 M
b111000001000000111111111111 n
b111000001000000111111111111 L
b111000001000000111111111111 h
b11100 `
b11100 l
b11100 k
b11100 {
b11000 R
b11000 z
b11100 O
b11100 P
b11100 y
b11000 %
b11000 N
b11000 g
b11000 $
b11000 a
b111000001000000111111111111 '
b111000001000000111111111111 _
b111000001000000111111111111 o
1#
16
18
14
#407
b1 :
#410
0!
#415
0@
b0 <
b0 r
b11 .
b11 p
b11000 J
b11000 ^
b11000 x
b11000 ?
b11000 \
b11000 v
b11000 >
b11000 i
06
0;
0#
04
17
1!
#416
b11000 &
b11000 ]
13
#417
b10 :
#420
0!
#425
b11100011000001111111111111101 +
b11100011000001111111111111101 b
b11100011000001111111111111101 w
0*
1(
03
1!
#426
b11 :
#430
0!
#435
1!
#438
1*
#440
0!
#445
0(
1!
#446
b0 M
b0 n
b10000 R
b10000 z
b11111111111111111111111111110100 Q
b11111111111111111111111111110100 Z
b1100000111111111111110100 j
b1100000111111111111110100 X
b11111111111111111111111111111101 T
b11111111111111111111111111111101 Y
b11111111111111111111111111111101 q
b0 K
b0 u
b11000001111111111111101 W
b1111111111111101 S
b0 I
b0 t
b111101 e
b111 ,
b11100011000001111111111111101 c
11
#447
b100 :
#450
0!
#455
b111000001000000111111111111 >
b111000001000000111111111111 i
b111101 =
b111101 f
b11100011000001111111111111101 J
b11100011000001111111111111101 ^
b11100011000001111111111111101 x
b0 -
b0 d
b0 .
b0 p
07
00
01
05
08
1!
#456
b10000 :
#460
0!
#465
1!
#466
b1 :
#470
0!
#475
b100001 -
b100001 d
b11 .
b11 p
b100000 `
b100000 l
b100000 k
b100000 {
b10100 R
b10100 z
b11100 ?
b11100 \
b11100 v
b100001 =
b100001 f
b100000 O
b100000 P
b100000 y
b11100 %
b11100 N
b11100 g
b11100 $
b11100 a
b11100 >
b11100 i
10
06
17
1!
#476
b11100 &
b11100 ]
13
#477
b10 :
#480
0!
#485
b0 J
b0 ^
b0 x
b0 +
b0 b
b0 w
0*
1(
03
1!
#486
b11 :
#490
0!
#495
1!
#498
1*
#500
0!
#505
0(
1!
#506
b0 L
b0 h
b100000 R
b100000 z
b0 Q
b0 Z
b0 j
b0 X
b0 T
b0 Y
b0 q
b0 W
b0 S
b0 H
b0 s
b0 e
b0 ,
b0 c
11
#507
b100 :
#510
0!
#515
b0 ?
b0 \
b0 v
b0 >
b0 i
b0 =
b0 f
b0 -
b0 d
b0 .
b0 p
07
00
01
1!
#516
b101 :
#520
0!
#525
b0 '
b0 _
b0 o
15
14
19
1!
#526
b100100 `
b100100 l
b100100 k
b100100 {
b100100 R
b100100 z
b100100 O
b100100 P
b100100 y
b100000 %
b100000 N
b100000 g
b100000 $
b100000 a
1#
16
18
#527
b1 :
#530
0!
#535
b100000 J
b100000 ^
b100000 x
b100000 ?
b100000 \
b100000 v
b100001 =
b100001 f
b100001 -
b100001 d
b11 .
b11 p
b100000 >
b100000 i
06
10
0#
04
17
1!
#536
b100000 &
b100000 ]
13
#537
b10 :
#540
0!
#545
b10100000001001010000000000000001 +
b10100000001001010000000000000001 b
b10100000001001010000000000000001 w
0*
1(
03
1!
#546
b11 :
#550
0!
#555
1!
#558
1*
#560
0!
#565
0(
1!
#566
b11001000001010000011100000100 M
b11001000001010000011100000100 n
b101100 L
b101100 h
b101000 R
b101000 z
b100 Q
b100 Z
b100101000000000000000100 j
b100101000000000000000100 X
b1 T
b1 Y
b1 q
b1001010000000000000001 W
b1 S
b101 I
b1 H
b101 t
b1 e
b101000 ,
b10100000001001010000000000000001 c
11
#567
b100 :
#570
0!
#575
b11001000001010000011100000100 <
b11001000001010000011100000100 r
b101100 >
b101100 i
b1 =
b1 f
b10100000001001010000000000000001 J
b10100000001001010000000000000001 ^
b10100000001001010000000000000001 x
b0 -
b0 d
b0 .
b0 p
07
00
01
05
08
1!
#576
b1010 :
#580
0!
#585
b1 <
b1 r
b100000 -
b100000 d
b1 .
b1 p
b101101 ?
b101101 \
b101101 v
b100000 =
b100000 f
10
1!
#586
b101101 &
b101101 ]
13
#587
b1011 :
#590
0!
#595
b0 ?
b0 \
b0 v
b111 =
b111 f
b11001000001010000011100000100 <
b11001000001010000011100000100 r
b111 -
b111 d
b0 .
b0 p
03
1!
#596
b10100000001001010000000000000001 '
b10100000001001010000000000000001 _
b10100000001001010000000000000001 o
14
#597
b1100 :
#600
0!
#605
b110010000010100000111000001000 ?
b110010000010100000111000001000 \
b110010000010100000111000001000 v
b0 =
b0 f
b0 -
b0 d
b101000 `
b101000 l
b101000 k
b101000 {
b101100 R
b101100 z
b101000001110000010000010000 J
b101000001110000010000010000 ^
b101000001110000010000010000 x
b101000 O
b101000 P
b101000 y
b100100 %
b100100 N
b100100 g
b100100 $
b100100 a
b101000001110000010000010000 +
b101000001110000010000010000 b
b101000001110000010000010000 w
0*
1#
16
0)
0(
04
1!
#606
b1 :
#610
0!
#615
b100100 ?
b100100 \
b100100 v
b100001 =
b100001 f
b0 <
b0 r
b100001 -
b100001 d
b11 .
b11 p
b100100 >
b100100 i
06
0#
17
1!
#616
b100100 &
b100100 ]
13
#617
b10 :
#618
1*
#620
0!
#625
b10000000000000000000000000010 J
b10000000000000000000000000010 ^
b10000000000000000000000000010 x
b10000000000000000000000000010 +
b10000000000000000000000000010 b
b10000000000000000000000000010 w
0*
1(
03
1!
#626
b11 :
#630
0!
#635
1!
#638
1*
#640
0!
#645
0(
1!
#646
b0 M
b0 n
b0 L
b0 h
b110000 R
b110000 z
b1000 Q
b1000 Z
b1000 j
b1000 X
b10 T
b10 Y
b10 q
b10 W
b10 S
b0 I
b0 H
b0 t
b10 e
b100 ,
b10000000000000000000000000010 c
11
#647
b100 :
#650
0!
#655
b0 ?
b0 \
b0 v
b0 >
b0 i
b10 =
b10 f
b0 -
b0 d
b0 .
b0 p
07
00
01
1!
#656
b10000 :
#660
0!
#665
1!
#666
b1 :
#670
0!
#675
b101000 ?
b101000 \
b101000 v
b100001 -
b100001 d
b11 .
b11 p
b101100 `
b101100 l
b101100 k
b101100 {
b110100 R
b110100 z
b100001 =
b100001 f
b101100 O
b101100 P
b101100 y
b101000 %
b101000 N
b101000 g
b101000 $
b101000 a
b101000 >
b101000 i
10
06
17
1!
#676
b101000 &
b101000 ]
13
#677
b10 :
#680
0!
#685
b0 J
b0 ^
b0 x
b0 +
b0 b
b0 w
0*
1(
03
1!
#686
b11 :
#690
0!
#695
1!
#698
1*
#700
0!
#705
0(
1!
#706
b101100 R
b101100 z
b0 Q
b0 Z
b0 j
b0 X
b0 T
b0 Y
b0 q
b0 W
b0 S
b0 e
b0 ,
b0 c
11
#707
b100 :
#710
0!
#715
b0 ?
b0 \
b0 v
b0 >
b0 i
b0 =
b0 f
b0 -
b0 d
b0 .
b0 p
07
00
01
1!
#716
b101 :
#720
0!
#725
b0 '
b0 _
b0 o
15
14
1!
#726
b110000 `
b110000 l
b110000 k
b110000 {
b110000 R
b110000 z
b110000 O
b110000 P
b110000 y
b101100 %
b101100 N
b101100 g
b101100 $
b101100 a
1#
16
18
#727
b1 :
#730
0!
#735
b101100 J
b101100 ^
b101100 x
b101100 ?
b101100 \
b101100 v
b100001 =
b100001 f
b100001 -
b100001 d
b11 .
b11 p
b101100 >
b101100 i
06
10
0#
04
17
1!
#736
b101100 &
b101100 ]
13
#737
b10 :
#740
0!
#745
b11001000001010000011100000100 +
b11001000001010000011100000100 b
b11001000001010000011100000100 w
0*
1(
03
1!
#746
b11 :
#750
0!
#755
1!
#758
1*
#760
0!
#765
0(
1!
#766
b11001000001010000011100000100 M
b11001000001010000011100000100 n
b1110001000000 R
b1110001000000 z
b1110000010000 Q
b1110000010000 Z
b100000101000001110000010000 j
b100000101000001110000010000 X
b11100000100 T
b11100000100 Y
b11100000100 q
b1000001010000011100000100 W
b11100000100 S
b101 I
b1000 H
b101 t
b100 e
b110 ,
b11001000001010000011100000100 c
11
#767
b100 :
#770
0!
#775
b11001000001010000011100000100 ?
b11001000001010000011100000100 \
b11001000001010000011100000100 v
b11001000001010000011100000100 <
b11001000001010000011100000100 r
b0 >
b0 i
b100 =
b100 f
b11001000001010000011100000100 J
b11001000001010000011100000100 ^
b11001000001010000011100000100 x
b0 -
b0 d
b0 .
b0 p
07
00
01
05
08
1!
#776
b10000 :
#780
0!
#785
1!
#786
b1 :
#790
0!
#795
b0 <
b0 r
b100001 -
b100001 d
b11 .
b11 p
b110100 `
b110100 l
b110100 k
b110100 {
b1110001000100 R
b1110001000100 z
b110000 ?
b110000 \
b110000 v
b100001 =
b100001 f
b110100 O
b110100 P
b110100 y
b110000 %
b110000 N
b110000 g
b110000 $
b110000 a
b110000 >
b110000 i
10
06
17
1!
#796
b110000 &
b110000 ]
13
#797
b10 :
#800
0!
#805
b10000000000001111111111111111 J
b10000000000001111111111111111 ^
b10000000000001111111111111111 x
b10000000000001111111111111111 +
b10000000000001111111111111111 b
b10000000000001111111111111111 w
0*
1(
03
1!
#806
b11 :
#810
0!
#815
1!
#818
1*
#820
0!
#825
0(
1!
#826
b0 M
b0 n
b110000 R
b110000 z
b11111111111111111111111111111100 Q
b11111111111111111111111111111100 Z
b111111111111111100 j
b111111111111111100 X
b11111111111111111111111111111111 T
b11111111111111111111111111111111 Y
b11111111111111111111111111111111 q
b11111 K
b11111 u
b1111111111111111 W
b1111111111111111 S
b0 I
b0 H
b11111 s
b0 t
b111111 e
b100 ,
b10000000000001111111111111111 c
11
#827
b100 :
#830
0!
#835
b0 ?
b0 \
b0 v
b0 >
b0 i
b111111 =
b111111 f
b0 -
b0 d
b0 .
b0 p
07
00
01
1!
#836
b10000 :
#840
0!
#845
1!
#846
b1 :
#850
0!
#855
b110100 ?
b110100 \
b110100 v
b100001 -
b100001 d
b11 .
b11 p
b111000 `
b111000 l
b111000 k
b111000 {
b110100 R
b110100 z
b100001 =
b100001 f
b111000 O
b111000 P
b111000 y
b110100 %
b110100 N
b110100 g
b110100 $
b110100 a
b110100 >
b110100 i
10
06
17
1!
#856
b110100 &
b110100 ]
13
#857
b10 :
#860
0!
#865
b0 J
b0 ^
b0 x
b0 +
b0 b
b0 w
0*
1(
03
1!
#866
b11 :
#870
0!
#875
1!
#878
1*
#880
0!
#885
0(
1!
#886
b111000 R
b111000 z
b0 Q
b0 Z
b0 j
b0 X
b0 T
b0 Y
b0 q
b0 K
b0 u
b0 W
b0 S
b0 s
b0 e
b0 ,
b0 c
11
#887
b100 :
#890
0!
#895
b0 ?
b0 \
b0 v
b0 >
b0 i
b0 =
b0 f
b0 -
b0 d
b0 .
b0 p
07
00
01
1!
#896
b101 :
#900
0!
#905
15
14
1!
#906
b111100 `
b111100 l
b111100 k
b111100 {
b111100 R
b111100 z
b111100 O
b111100 P
b111100 y
b111000 %
b111000 N
b111000 g
b111000 $
b111000 a
1#
16
18
#907
b1 :
#910
0!
#915
b111000 J
b111000 ^
b111000 x
b111000 ?
b111000 \
b111000 v
b100001 =
b100001 f
b100001 -
b100001 d
b11 .
b11 p
b111000 >
b111000 i
06
10
0#
04
17
1!
#916
b111000 &
b111000 ]
13
#917
b10 :
#920
0!
#925
bx +
bx b
bx w
0*
1(
03
1!
#926
b11 :
#930
0!
#935
1!
#938
1*
#940
0!
#945
0(
1!
#946
bx M
bx n
bx L
bx h
bx R
bx z
b11111111111111xxxxxxxxxxxxxxxx00 Q
b11111111111111xxxxxxxxxxxxxxxx00 Z
b0xxxxxxxxxxxxxxxxxxxxxxxxxx00 j
bx00 X
b1111111111111111xxxxxxxxxxxxxxxx T
b1111111111111111xxxxxxxxxxxxxxxx Y
b1111111111111111xxxxxxxxxxxxxxxx q
bx K
bx u
bx W
bx S
bx I
bx H
bx s
bx t
bx e
bx ,
bx c
11
#947
b100 :
#950
0!
#955
bx <
bx r
bx >
bx i
bx =
bx f
bx J
bx ^
bx x
b0 -
b0 d
b0 .
b0 p
07
00
01
05
08
1!
