cleanup/results/CPUFileTest1.vcd
$date
	Fri Dec 14 00:27:00 2018
$end
$version
	Icarus Verilog
$end
$timescale
	1s
$end
$scope module CPUTester1 $end
$var reg 1 ! clk $end
$upscope $end
$scope module CPUTester1 $end
$var reg 1 " reset $end
$upscope $end
$scope module CPUTester1 $end
$scope module CPU_Test1 $end
$scope module Program_Counter $end
$var wire 1 ! Clk $end
$var wire 1 # Load $end
$var wire 32 $ PCNext [31:0] $end
$var wire 1 " Reset $end
$var reg 32 % PCResult [31:0] $end
$upscope $end
$upscope $end
$upscope $end
$scope module CPUTester1 $end
$scope module CPU_Test1 $end
$scope module Memory $end
$var wire 32 & dataIn [31:0] $end
$var wire 1 ' memEnable $end
$var wire 1 ( rw $end
$var wire 32 ) address [31:0] $end
$var reg 1 * MOC $end
$var reg 32 + output_destination [31:0] $end
$upscope $end
$upscope $end
$upscope $end
$scope module CPUTester1 $end
$scope module CPU_Test1 $end
$scope module Control_Unit $end
$var wire 1 ! clk $end
$var wire 6 , opCode [5:0] $end
$var wire 1 " reset $end
$var wire 1 * MOC $end
$var reg 1 ( RW $end
$var reg 6 - aluCode [5:0] $end
$var reg 2 . aluSrc [1:0] $end
$var reg 1 / branch $end
$var reg 1 0 immediate $end
$var reg 1 1 irLoad $end
$var reg 1 2 jump $end
$var reg 1 3 marLoad $end
$var reg 1 4 mdrLoad $end
$var reg 1 5 mdrSource $end
$var reg 1 ' memEnable $end
$var reg 1 6 npcLoad $end
$var reg 1 # pcLoad $end
$var reg 1 7 pcSelect $end
$var reg 1 8 regWrite $end
$var reg 1 9 rfSource $end
$var reg 5 : state [4:0] $end
$upscope $end
$upscope $end
$upscope $end
$scope module CPUTester1 $end
$scope module CPU_Test1 $end
$scope module alu $end
$var wire 32 ; b [31:0] $end
$var wire 6 < operation [5:0] $end
$var wire 32 = a [31:0] $end
$var reg 32 > Result [31:0] $end
$var reg 1 ? carryFlag $end
$var reg 1 @ negativeFlag $end
$var reg 1 A overFlowFlag $end
$var reg 32 B tempVar [31:0] $end
$var reg 1 C zeroFlag $end
$var integer 32 D counter [31:0] $end
$var integer 32 E var [31:0] $end
$upscope $end
$upscope $end
$upscope $end
$scope module CPUTester1 $end
$scope module CPU_Test1 $end
$scope module Register_File $end
$var wire 5 F A_Address [4:0] $end
$var wire 5 G B_Address [4:0] $end
$var wire 1 ! Clk $end
$var wire 1 5 Write $end
$var wire 32 H C_Data [31:0] $end
$var wire 5 I C_Address [4:0] $end
$var reg 32 J A_Data [31:0] $end
$var reg 32 K B_Data [31:0] $end
$upscope $end
$upscope $end
$upscope $end
$scope module CPUTester1 $end
$scope module CPU_Test1 $end
$scope module addFour $end
$var wire 32 L pc [31:0] $end
$var wire 32 M result [31:0] $end
$upscope $end
$upscope $end
$upscope $end
$scope module CPUTester1 $end
$scope module CPU_Test1 $end
$scope module adder $end
$var wire 32 N entry1 [31:0] $end
$var wire 32 O entry0 [31:0] $end
$var reg 32 P result [31:0] $end
$upscope $end
$upscope $end
$upscope $end
$scope module CPUTester1 $end
$scope module CPU_Test1 $end
$scope module signExt $end
$var wire 16 Q ins [15:0] $end
$var wire 1 R unSign $end
$var reg 32 S result [31:0] $end
$var reg 16 T tempOnes [15:0] $end
$var reg 16 U tempZero [15:0] $end
$upscope $end
$upscope $end
$upscope $end
$scope module CPUTester1 $end
$scope module CPU_Test1 $end
$scope module shftJump $end
$var wire 26 V in [25:0] $end
$var reg 28 W result [27:0] $end
$upscope $end
$upscope $end
$upscope $end
$scope module CPUTester1 $end
$scope module CPU_Test1 $end
$scope module shftLeft $end
$var wire 32 X in [31:0] $end
$var reg 32 Y result [31:0] $end
$upscope $end
$upscope $end
$upscope $end
$scope module CPUTester1 $end
$scope module CPU_Test1 $end
$scope module simpleAND $end
$var wire 1 C Z_flag $end
$var wire 1 / branch $end
$var reg 1 Z result $end
$upscope $end
$upscope $end
$upscope $end
$scope module CPUTester1 $end
$scope module CPU_Test1 $end
$scope module MAR $end
$var wire 1 3 load $end
$var wire 32 [ in [31:0] $end
$var reg 32 \ result [31:0] $end
$upscope $end
$upscope $end
$upscope $end
$scope module CPUTester1 $end
$scope module CPU_Test1 $end
$scope module MDR $end
$var wire 1 4 load $end
$var wire 32 ] in [31:0] $end
$var reg 32 ^ result [31:0] $end
$upscope $end
$upscope $end
$upscope $end
$scope module CPUTester1 $end
$scope module CPU_Test1 $end
$scope module NPC $end
$var wire 32 _ in [31:0] $end
$var wire 1 6 load $end
$var reg 32 ` result [31:0] $end
$upscope $end
$upscope $end
$upscope $end
$scope module CPUTester1 $end
$scope module CPU_Test1 $end
$scope module IR $end
$var wire 1 1 load $end
$var wire 32 a in [31:0] $end
$var reg 32 b result [31:0] $end
$upscope $end
$upscope $end
$upscope $end
$scope module CPUTester1 $end
$scope module CPU_Test1 $end
$scope module funcMux $end
$var wire 6 c one [5:0] $end
$var wire 1 0 s $end
$var wire 6 d zero [5:0] $end
$var reg 6 e result [5:0] $end
$upscope $end
$upscope $end
$upscope $end
$scope module CPUTester1 $end
$scope module CPU_Test1 $end
$scope module pcMux $end
$var wire 32 f one [31:0] $end
$var wire 1 7 s $end
$var wire 32 g zero [31:0] $end
$var reg 32 h result [31:0] $end
$upscope $end
$upscope $end
$upscope $end
$scope module CPUTester1 $end
$scope module CPU_Test1 $end
$scope module Jump_Mux $end
$var wire 32 i one [31:0] $end
$var wire 1 2 s $end
$var wire 32 j zero [31:0] $end
$var reg 32 k result [31:0] $end
$upscope $end
$upscope $end
$upscope $end
$scope module CPUTester1 $end
$scope module CPU_Test1 $end
$scope module ALU_Mux $end
$var wire 32 l three [31:0] $end
$var wire 32 m zero [31:0] $end
$var wire 32 n two [31:0] $end
$var wire 2 o s [1:0] $end
$var wire 32 p one [31:0] $end
$var reg 32 q result [31:0] $end
$upscope $end
$upscope $end
$upscope $end
$scope module CPUTester1 $end
$scope module CPU_Test1 $end
$scope module Register_Mux $end
$var wire 5 r one [4:0] $end
$var wire 1 9 s $end
$var wire 5 s zero [4:0] $end
$var reg 5 t result [4:0] $end
$upscope $end
$upscope $end
$upscope $end
$scope module CPUTester1 $end
$scope module CPU_Test1 $end
$scope module mdrMux $end
$var wire 32 u one [31:0] $end
$var wire 1 v s $end
$var wire 32 w zero [31:0] $end
$var reg 32 x result [31:0] $end
$upscope $end
$upscope $end
$upscope $end
$scope module CPUTester1 $end
$scope module CPU_Test1 $end
$scope module Branch_Mux $end
$var wire 32 y zero [31:0] $end
$var wire 1 Z s $end
$var wire 32 z one [31:0] $end
$var reg 32 { result [31:0] $end
$upscope $end
$upscope $end
$upscope $end
$enddefinitions $end
#0
$dumpvars
b100 {
bx z
b100 y
bx x
bx w
zv
bx u
bx t
bx s
bx r
bx q
bx p
bx o
bx n
bx m
b0 l
b0xxxxxxxxxxxxxxxxxxxxxxxxxxxx k
b100 j
b0xxxxxxxxxxxxxxxxxxxxxxxxxxxx i
b0 h
bx g
b0 f
bx e
bx d
bx c
bx b
bx a
bx `
b0xxxxxxxxxxxxxxxxxxxxxxxxxxxx _
bx ^
bx ]
bx \
bx [
0Z
bx Y
bx X
bx W
bx V
b0 U
b1111111111111111 T
bx S
zR
bx Q
bx P
bx O
b100 N
b100 M
b0 L
bx K
bx J
bx I
bx H
bx G
bx F
b0 E
b0 D
0C
bx B
xA
x@
x?
bx >
b0 =
bx <
bx ;
b0 :
x9
x8
x7
x6
x5
x4
x3
x2
x1
x0
x/
bx .
bx -
bx ,
bx +
1*
bx )
x(
x'
bx &
b0 %
bx $
x#
0"
0!
$end
#5
b1 :
b0 -
b0 c
b0 .
b0 o
b100 _
b100 k
bx =
bx h
05
04
03
0(
0/
02
08
09
01
00
07
0'
06
0#
1!
#10
0!
#15
0A
0?
b0 ;
b0 q
b10 :
b100001 -
b100001 c
b11 .
b11 o
b0 H
b0 ]
b0 x
b0 )
b0 >
b0 [
b0 u
b100001 <
b100001 e
b0 =
b0 h
13
10
17
1!
#20
0!
#25
b0 <
b0 e
b11 :
b0 -
b0 c
b100100000000010000000000101100 +
b100100000000010000000000101100 a
b100100000000010000000000101100 w
0*
1'
03
1!
#30
0!
#35
1!
#38
1*
#40
0!
#45
b0 K
b0 m
b0 J
b0 g
b10110100 P
b10110100 z
b10110000 O
b10110000 Y
b1000000000010110000 i
b1000000000010110000 W
b101100 S
b101100 X
b101100 p
b1 I
b1 t
b10000000000101100 V
b101100 Q
b1 G
b0 F
b0 r
b1 s
b101100 d
b1001 ,
b100100000000010000000000101100 b
11
b100 :
1!
#50
0!
#55
b100 $
b100 `
b1 :
b1000 _
b1000 k
b1000000000010110000 i
b1000 j
b1000 {
b10111000 P
b10111000 z
b1000 M
b1000 N
b1000 y
b100 %
b100 L
b100 f
b101100 <
b101100 e
1#
16
b0 .
b0 o
07
00
01
1!
#60
0!
#65
b100 H
b100 ]
b100 x
b100 )
b100 >
b100 [
b100 u
b0 \
b10 :
b100001 -
b100001 c
b11 .
b11 o
b100001 <
b100001 e
b100 =
b100 h
06
0#
13
10
17
1!
#70
0!
#75
b0 H
b0 ]
b0 x
b0 )
b0 >
b0 [
b0 u
b0 <
b0 e
b11 :
b0 -
b0 c
03
1!
#80
0!
#85
11
b100 :
1!
#90
0!
#95
b1100 _
b1100 k
b1100 j
b1100 {
b10111100 P
b10111100 z
b1100 M
b1100 N
b1100 y
b1000 %
b1000 L
b1000 f
b1000 $
b1000 `
b1 :
b0 =
b0 h
b101100 <
b101100 e
1#
16
b0 .
b0 o
07
00
01
1!
#100
0!
#105
b1000 H
b1000 ]
b1000 x
b1000 )
b1000 >
b1000 [
b1000 u
b10 :
b100001 -
b100001 c
b11 .
b11 o
b100001 <
b100001 e
b1000 =
b1000 h
06
0#
13
10
17
1!
#110
0!
#115
b0 H
b0 ]
b0 x
b0 )
b0 >
b0 [
b0 u
b0 <
b0 e
b11 :
b0 -
b0 c
03
1!
#120
0!
#125
11
b100 :
1!
#130
0!
#135
b10000 _
b10000 k
b10000 j
b10000 {
b11000000 P
b11000000 z
b10000 M
b10000 N
b10000 y
b1100 %
b1100 L
b1100 f
b1100 $
b1100 `
b1 :
b0 =
b0 h
b101100 <
b101100 e
1#
16
b0 .
b0 o
07
00
01
1!
#140
0!
#145
b1100 H
b1100 ]
b1100 x
b1100 )
b1100 >
b1100 [
b1100 u
b10 :
b100001 -
b100001 c
b11 .
b11 o
b100001 <
b100001 e
b1100 =
b1100 h
06
0#
13
10
17
1!
#150
0!
#155
b0 H
b0 ]
b0 x
b0 )
b0 >
b0 [
b0 u
b0 <
b0 e
b11 :
b0 -
b0 c
03
1!
#160
0!
#165
11
b100 :
1!
#170
0!
#175
b10100 _
b10100 k
b10100 j
b10100 {
b11000100 P
b11000100 z
b10100 M
b10100 N
b10100 y
b10000 %
b10000 L
b10000 f
b10000 $
b10000 `
b1 :
b0 =
b0 h
b101100 <
b101100 e
1#
16
b0 .
b0 o
07
00
01
1!
#180
0!
#185
b10000 H
b10000 ]
b10000 x
b10000 )
b10000 >
b10000 [
b10000 u
b10 :
b100001 -
b100001 c
b11 .
b11 o
b100001 <
b100001 e
b10000 =
b10000 h
06
0#
13
10
17
1!
#190
0!
#195
b0 H
b0 ]
b0 x
b0 )
b0 >
b0 [
b0 u
b0 <
b0 e
b11 :
b0 -
b0 c
03
1!
#200
0!
#205
11
b100 :
1!
#210
0!
#215
b11000 _
b11000 k
b11000 j
b11000 {
b11001000 P
b11001000 z
b11000 M
b11000 N
b11000 y
b10100 %
b10100 L
b10100 f
b10100 $
b10100 `
b1 :
b0 =
b0 h
b101100 <
b101100 e
1#
16
b0 .
b0 o
07
00
01
1!
#220
0!
#225
b10100 H
b10100 ]
b10100 x
b10100 )
b10100 >
b10100 [
b10100 u
b10 :
b100001 -
b100001 c
b11 .
b11 o
b100001 <
b100001 e
b10100 =
b10100 h
06
0#
13
10
17
1!
#230
0!
#235
b0 H
b0 ]
b0 x
b0 )
b0 >
b0 [
b0 u
b0 <
b0 e
b11 :
b0 -
b0 c
03
1!
#240
0!
#245
11
b100 :
1!
#250
0!
#255
b11100 _
b11100 k
b11100 j
b11100 {
b11001100 P
b11001100 z
b11100 M
b11100 N
b11100 y
b11000 %
b11000 L
b11000 f
b11000 $
b11000 `
b1 :
b0 =
b0 h
b101100 <
b101100 e
1#
16
b0 .
b0 o
07
00
01
1!
#260
0!
#265
b11000 H
b11000 ]
b11000 x
b11000 )
b11000 >
b11000 [
b11000 u
b10 :
b100001 -
b100001 c
b11 .
b11 o
b100001 <
b100001 e
b11000 =
b11000 h
06
0#
13
10
17
1!
#270
0!
#275
b0 H
b0 ]
b0 x
b0 )
b0 >
b0 [
b0 u
b0 <
b0 e
b11 :
b0 -
b0 c
03
1!
#280
0!
#285
11
b100 :
1!
#290
0!
#295
b100000 _
b100000 k
b100000 j
b100000 {
b11010000 P
b11010000 z
b100000 M
b100000 N
b100000 y
b11100 %
b11100 L
b11100 f
b11100 $
b11100 `
b1 :
b0 =
b0 h
b101100 <
b101100 e
1#
16
b0 .
b0 o
07
00
01
1!
#300
0!
#305
b11100 H
b11100 ]
b11100 x
b11100 )
b11100 >
b11100 [
b11100 u
b10 :
b100001 -
b100001 c
b11 .
b11 o
b100001 <
b100001 e
b11100 =
b11100 h
06
0#
13
10
17
1!
#310
0!
#315
b0 H
b0 ]
b0 x
b0 )
b0 >
b0 [
b0 u
b0 <
b0 e
b11 :
b0 -
b0 c
03
1!
#320
0!
#325
11
b100 :
1!
#330
0!
#335
b100100 _
b100100 k
b100100 j
b100100 {
b11010100 P
b11010100 z
b100100 M
b100100 N
b100100 y
b100000 %
b100000 L
b100000 f
b100000 $
b100000 `
b1 :
b0 =
b0 h
b101100 <
b101100 e
1#
16
b0 .
b0 o
07
00
01
1!
#340
0!
#345
b100000 H
b100000 ]
b100000 x
b100000 )
b100000 >
b100000 [
b100000 u
b10 :
b100001 -
b100001 c
b11 .
b11 o
b100001 <
b100001 e
b100000 =
b100000 h
06
0#
13
10
17
1!
#350
0!
#355
b0 H
b0 ]
b0 x
b0 )
b0 >
b0 [
b0 u
b0 <
b0 e
b11 :
b0 -
b0 c
03
1!
#360
0!
#365
11
b100 :
1!
#370
0!
#375
b101000 _
b101000 k
b101000 j
b101000 {
b11011000 P
b11011000 z
b101000 M
b101000 N
b101000 y
b100100 %
b100100 L
b100100 f
b100100 $
b100100 `
b1 :
b0 =
b0 h
b101100 <
b101100 e
1#
16
b0 .
b0 o
07
00
01
1!
#380
0!
#385
b100100 H
b100100 ]
b100100 x
b100100 )
b100100 >
b100100 [
b100100 u
b10 :
b100001 -
b100001 c
b11 .
b11 o
b100001 <
b100001 e
b100100 =
b100100 h
06
0#
13
10
17
1!
#390
0!
#395
b0 H
b0 ]
b0 x
b0 )
b0 >
b0 [
b0 u
b0 <
b0 e
b11 :
b0 -
b0 c
03
1!
#400
0!
#405
11
b100 :
1!
#410
0!
#415
b101100 _
b101100 k
b101100 j
b101100 {
b11011100 P
b11011100 z
b101100 M
b101100 N
b101100 y
b101000 %
b101000 L
b101000 f
b101000 $
b101000 `
b1 :
b0 =
b0 h
b101100 <
b101100 e
1#
16
b0 .
b0 o
07
00
01
1!
#420
0!
#425
b101000 H
b101000 ]
b101000 x
b101000 )
b101000 >
b101000 [
b101000 u
b10 :
b100001 -
b100001 c
b11 .
b11 o
b100001 <
b100001 e
b101000 =
b101000 h
06
0#
13
10
17
1!
#430
0!
#435
b0 H
b0 ]
b0 x
b0 )
b0 >
b0 [
b0 u
b0 <
b0 e
b11 :
b0 -
b0 c
03
1!
#440
0!
#445
11
b100 :
1!
#450
0!
#455
b110000 _
b110000 k
b110000 j
b110000 {
b11100000 P
b11100000 z
b110000 M
b110000 N
b110000 y
b101100 %
b101100 L
b101100 f
b101100 $
b101100 `
b1 :
b0 =
b0 h
b101100 <
b101100 e
1#
16
b0 .
b0 o
07
00
01
1!
#460
0!
#465
b101100 H
b101100 ]
b101100 x
b101100 )
b101100 >
b101100 [
b101100 u
b10 :
b100001 -
b100001 c
b11 .
b11 o
b100001 <
b100001 e
b101100 =
b101100 h
06
0#
13
10
17
1!
#470
0!
#475
b0 H
b0 ]
b0 x
b0 )
b0 >
b0 [
b0 u
b0 <
b0 e
b11 :
b0 -
b0 c
03
1!
#480
0!
#485
11
b100 :
1!
#490
0!
#495
b110100 _
b110100 k
b110100 j
b110100 {
b11100100 P
b11100100 z
b110100 M
b110100 N
b110100 y
b110000 %
b110000 L
b110000 f
b110000 $
b110000 `
b1 :
b0 =
b0 h
b101100 <
b101100 e
1#
16
b0 .
b0 o
07
00
01
1!
#500
0!
#505
b110000 H
b110000 ]
b110000 x
b110000 )
b110000 >
b110000 [
b110000 u
b10 :
b100001 -
b100001 c
b11 .
b11 o
b100001 <
b100001 e
b110000 =
b110000 h
06
0#
13
10
17
1!
#510
0!
#515
b0 H
b0 ]
b0 x
b0 )
b0 >
b0 [
b0 u
b0 <
b0 e
b11 :
b0 -
b0 c
03
1!
#520
0!
#525
11
b100 :
1!
#530
0!
#535
b111000 _
b111000 k
b111000 j
b111000 {
b11101000 P
b11101000 z
b111000 M
b111000 N
b111000 y
b110100 %
b110100 L
b110100 f
b110100 $
b110100 `
b1 :
b0 =
b0 h
b101100 <
b101100 e
1#
16
b0 .
b0 o
07
00
01
1!
#540
0!
#545
b110100 H
b110100 ]
b110100 x
b110100 )
b110100 >
b110100 [
b110100 u
b10 :
b100001 -
b100001 c
b11 .
b11 o
b100001 <
b100001 e
b110100 =
b110100 h
06
0#
13
10
17
1!
#550
0!
#555
b0 H
b0 ]
b0 x
b0 )
b0 >
b0 [
b0 u
b0 <
b0 e
b11 :
b0 -
b0 c
03
1!
#560
0!
#565
11
b100 :
1!
#570
0!
#575
b111100 _
b111100 k
b111100 j
b111100 {
b11101100 P
b11101100 z
b111100 M
b111100 N
b111100 y
b111000 %
b111000 L
b111000 f
b111000 $
b111000 `
b1 :
b0 =
b0 h
b101100 <
b101100 e
1#
16
b0 .
b0 o
07
00
01
1!
#580
0!
#585
b111000 H
b111000 ]
b111000 x
b111000 )
b111000 >
b111000 [
b111000 u
b10 :
b100001 -
b100001 c
b11 .
b11 o
b100001 <
b100001 e
b111000 =
b111000 h
06
0#
13
10
17
1!
#590
0!
#595
b0 H
b0 ]
b0 x
b0 )
b0 >
b0 [
b0 u
b0 <
b0 e
b11 :
b0 -
b0 c
03
1!
#600
0!
#605
11
b100 :
1!
#610
0!
#615
b1000000 _
b1000000 k
b1000000 j
b1000000 {
b11110000 P
b11110000 z
b1000000 M
b1000000 N
b1000000 y
b111100 %
b111100 L
b111100 f
b111100 $
b111100 `
b1 :
b0 =
b0 h
b101100 <
b101100 e
1#
16
b0 .
b0 o
07
00
01
1!
#620
0!
#625
b111100 H
b111100 ]
b111100 x
b111100 )
b111100 >
b111100 [
b111100 u
b10 :
b100001 -
b100001 c
b11 .
b11 o
b100001 <
b100001 e
b111100 =
b111100 h
06
0#
13
10
17
1!
#630
0!
#635
b0 H
b0 ]
b0 x
b0 )
b0 >
b0 [
b0 u
b0 <
b0 e
b11 :
b0 -
b0 c
03
1!
#640
0!
#645
11
b100 :
1!
#650
0!
#655
b1000100 _
b1000100 k
b1000100 j
b1000100 {
b11110100 P
b11110100 z
b1000100 M
b1000100 N
b1000100 y
b1000000 %
b1000000 L
b1000000 f
b1000000 $
b1000000 `
b1 :
b0 =
b0 h
b101100 <
b101100 e
1#
16
b0 .
b0 o
07
00
01
1!
#660
0!
#665
b1000000 H
b1000000 ]
b1000000 x
b1000000 )
b1000000 >
b1000000 [
b1000000 u
b10 :
b100001 -
b100001 c
b11 .
b11 o
b100001 <
b100001 e
b1000000 =
b1000000 h
06
0#
13
10
17
1!
#670
0!
#675
b0 H
b0 ]
b0 x
b0 )
b0 >
b0 [
b0 u
b0 <
b0 e
b11 :
b0 -
b0 c
03
1!
#680
0!
#685
11
b100 :
1!
#690
0!
#695
b1001000 _
b1001000 k
b1001000 j
b1001000 {
b11111000 P
b11111000 z
b1001000 M
b1001000 N
b1001000 y
b1000100 %
b1000100 L
b1000100 f
b1000100 $
b1000100 `
b1 :
b0 =
b0 h
b101100 <
b101100 e
1#
16
b0 .
b0 o
07
00
01
1!
#700
0!
#705
b1000100 H
b1000100 ]
b1000100 x
b1000100 )
b1000100 >
b1000100 [
b1000100 u
b10 :
b100001 -
b100001 c
b11 .
b11 o
b100001 <
b100001 e
b1000100 =
b1000100 h
06
0#
13
10
17
1!
#710
0!
#715
b0 H
b0 ]
b0 x
b0 )
b0 >
b0 [
b0 u
b0 <
b0 e
b11 :
b0 -
b0 c
03
1!
#720
0!
#725
11
b100 :
1!
#730
0!
#735
b1001100 _
b1001100 k
b1001100 j
b1001100 {
b11111100 P
b11111100 z
b1001100 M
b1001100 N
b1001100 y
b1001000 %
b1001000 L
b1001000 f
b1001000 $
b1001000 `
b1 :
b0 =
b0 h
b101100 <
b101100 e
1#
16
b0 .
b0 o
07
00
01
1!
#740
0!
#745
b1001000 H
b1001000 ]
b1001000 x
b1001000 )
b1001000 >
b1001000 [
b1001000 u
b10 :
b100001 -
b100001 c
b11 .
b11 o
b100001 <
b100001 e
b1001000 =
b1001000 h
06
0#
13
10
17
1!
#750
0!
#755
b0 H
b0 ]
b0 x
b0 )
b0 >
b0 [
b0 u
b0 <
b0 e
b11 :
b0 -
b0 c
03
1!
#760
0!
#765
11
b100 :
1!
#770
0!
#775
b1010000 _
b1010000 k
b1010000 j
b1010000 {
b100000000 P
b100000000 z
b1010000 M
b1010000 N
b1010000 y
b1001100 %
b1001100 L
b1001100 f
b1001100 $
b1001100 `
b1 :
b0 =
b0 h
b101100 <
b101100 e
1#
16
b0 .
b0 o
07
00
01
1!
#780
0!
#785
b1001100 H
b1001100 ]
b1001100 x
b1001100 )
b1001100 >
b1001100 [
b1001100 u
b10 :
b100001 -
b100001 c
b11 .
b11 o
b100001 <
b100001 e
b1001100 =
b1001100 h
06
0#
13
10
17
1!
#790
0!
#795
b0 H
b0 ]
b0 x
b0 )
b0 >
b0 [
b0 u
b0 <
b0 e
b11 :
b0 -
b0 c
03
1!
#800
0!
#805
11
b100 :
1!
#810
0!
#815
b1010100 _
b1010100 k
b1010100 j
b1010100 {
b100000100 P
b100000100 z
b1010100 M
b1010100 N
b1010100 y
b1010000 %
b1010000 L
b1010000 f
b1010000 $
b1010000 `
b1 :
b0 =
b0 h
b101100 <
b101100 e
1#
16
b0 .
b0 o
07
00
01
1!
#820
0!
#825
b1010000 H
b1010000 ]
b1010000 x
b1010000 )
b1010000 >
b1010000 [
b1010000 u
b10 :
b100001 -
b100001 c
b11 .
b11 o
b100001 <
b100001 e
b1010000 =
b1010000 h
06
0#
13
10
17
1!
#830
0!
#835
b0 H
b0 ]
b0 x
b0 )
b0 >
b0 [
b0 u
b0 <
b0 e
b11 :
b0 -
b0 c
03
1!
#840
0!
#845
11
b100 :
1!
#850
0!
#855
b1011000 _
b1011000 k
b1011000 j
b1011000 {
b100001000 P
b100001000 z
b1011000 M
b1011000 N
b1011000 y
b1010100 %
b1010100 L
b1010100 f
b1010100 $
b1010100 `
b1 :
b0 =
b0 h
b101100 <
b101100 e
1#
16
b0 .
b0 o
07
00
01
1!
#860
0!
#865
b1010100 H
b1010100 ]
b1010100 x
b1010100 )
b1010100 >
b1010100 [
b1010100 u
b10 :
b100001 -
b100001 c
b11 .
b11 o
b100001 <
b100001 e
b1010100 =
b1010100 h
06
0#
13
10
17
1!
#870
0!
#875
b0 H
b0 ]
b0 x
b0 )
b0 >
b0 [
b0 u
b0 <
b0 e
b11 :
b0 -
b0 c
03
1!
#880
0!
#885
11
b100 :
1!
#890
0!
#895
b1011100 _
b1011100 k
b1011100 j
b1011100 {
b100001100 P
b100001100 z
b1011100 M
b1011100 N
b1011100 y
b1011000 %
b1011000 L
b1011000 f
b1011000 $
b1011000 `
b1 :
b0 =
b0 h
b101100 <
b101100 e
1#
16
b0 .
b0 o
07
00
01
1!
#900
0!
#905
b1011000 H
b1011000 ]
b1011000 x
b1011000 )
b1011000 >
b1011000 [
b1011000 u
b10 :
b100001 -
b100001 c
b11 .
b11 o
b100001 <
b100001 e
b1011000 =
b1011000 h
06
0#
13
10
17
1!
#910
0!
#915
b0 H
b0 ]
b0 x
b0 )
b0 >
b0 [
b0 u
b0 <
b0 e
b11 :
b0 -
b0 c
03
1!
#920
0!
#925
11
b100 :
1!
#930
0!
#935
b1100000 _
b1100000 k
b1100000 j
b1100000 {
b100010000 P
b100010000 z
b1100000 M
b1100000 N
b1100000 y
b1011100 %
b1011100 L
b1011100 f
b1011100 $
b1011100 `
b1 :
b0 =
b0 h
b101100 <
b101100 e
1#
16
b0 .
b0 o
07
00
01
1!
#940
0!
#945
b1011100 H
b1011100 ]
b1011100 x
b1011100 )
b1011100 >
b1011100 [
b1011100 u
b10 :
b100001 -
b100001 c
b11 .
b11 o
b100001 <
b100001 e
b1011100 =
b1011100 h
06
0#
13
10
17
1!
#950
0!
#955
b0 H
b0 ]
b0 x
b0 )
b0 >
b0 [
b0 u
b0 <
b0 e
b11 :
b0 -
b0 c
03
1!
#960
0!
#965
11
b100 :
1!
#970
0!
#975
b1100100 _
b1100100 k
b1100100 j
b1100100 {
b100010100 P
b100010100 z
b1100100 M
b1100100 N
b1100100 y
b1100000 %
b1100000 L
b1100000 f
b1100000 $
b1100000 `
b1 :
b0 =
b0 h
b101100 <
b101100 e
1#
16
b0 .
b0 o
07
00
01
1!
#980
0!
#985
b1100000 H
b1100000 ]
b1100000 x
b1100000 )
b1100000 >
b1100000 [
b1100000 u
b10 :
b100001 -
b100001 c
b11 .
b11 o
b100001 <
b100001 e
b1100000 =
b1100000 h
06
0#
13
10
17
1!
#990
0!
#995
b0 H
b0 ]
b0 x
b0 )
b0 >
b0 [
b0 u
b0 <
b0 e
b11 :
b0 -
b0 c
03
1!
#1000
0!
#1005
11
b100 :
1!
#1010
0!
#1015
b1101000 _
b1101000 k
b1101000 j
b1101000 {
b100011000 P
b100011000 z
b1101000 M
b1101000 N
b1101000 y
b1100100 %
b1100100 L
b1100100 f
b1100100 $
b1100100 `
b1 :
b0 =
b0 h
b101100 <
b101100 e
1#
16
b0 .
b0 o
07
00
01
1!
#1020
0!
#1025
b1100100 H
b1100100 ]
b1100100 x
b1100100 )
b1100100 >
b1100100 [
b1100100 u
b10 :
b100001 -
b100001 c
b11 .
b11 o
b100001 <
b100001 e
b1100100 =
b1100100 h
06
0#
13
10
17
1!
#1030
0!
#1035
b0 H
b0 ]
b0 x
b0 )
b0 >
b0 [
b0 u
b0 <
b0 e
b11 :
b0 -
b0 c
03
1!
#1040
0!
#1045
11
b100 :
1!
#1050
0!
#1055
b1101100 _
b1101100 k
b1101100 j
b1101100 {
b100011100 P
b100011100 z
b1101100 M
b1101100 N
b1101100 y
b1101000 %
b1101000 L
b1101000 f
b1101000 $
b1101000 `
b1 :
b0 =
b0 h
b101100 <
b101100 e
1#
16
b0 .
b0 o
07
00
01
1!
#1060
0!
#1065
b1101000 H
b1101000 ]
b1101000 x
b1101000 )
b1101000 >
b1101000 [
b1101000 u
b10 :
b100001 -
b100001 c
b11 .
b11 o
b100001 <
b100001 e
b1101000 =
b1101000 h
06
0#
13
10
17
1!
#1070
0!
#1075
b0 H
b0 ]
b0 x
b0 )
b0 >
b0 [
b0 u
b0 <
b0 e
b11 :
b0 -
b0 c
03
1!
#1080
0!
#1085
11
b100 :
1!
#1090
0!
#1095
b1110000 _
b1110000 k
b1110000 j
b1110000 {
b100100000 P
b100100000 z
b1110000 M
b1110000 N
b1110000 y
b1101100 %
b1101100 L
b1101100 f
b1101100 $
b1101100 `
b1 :
b0 =
b0 h
b101100 <
b101100 e
1#
16
b0 .
b0 o
07
00
01
1!
#1100
0!
#1105
b1101100 H
b1101100 ]
b1101100 x
b1101100 )
b1101100 >
b1101100 [
b1101100 u
b10 :
b100001 -
b100001 c
b11 .
b11 o
b100001 <
b100001 e
b1101100 =
b1101100 h
06
0#
13
10
17
1!
#1110
0!
#1115
b0 H
b0 ]
b0 x
b0 )
b0 >
b0 [
b0 u
b0 <
b0 e
b11 :
b0 -
b0 c
03
1!
#1120
0!
#1125
11
b100 :
1!
#1130
0!
#1135
b1110100 _
b1110100 k
b1110100 j
b1110100 {
b100100100 P
b100100100 z
b1110100 M
b1110100 N
b1110100 y
b1110000 %
b1110000 L
b1110000 f
b1110000 $
b1110000 `
b1 :
b0 =
b0 h
b101100 <
b101100 e
1#
16
b0 .
b0 o
07
00
01
1!
#1140
0!
#1145
b1110000 H
b1110000 ]
b1110000 x
b1110000 )
b1110000 >
b1110000 [
b1110000 u
b10 :
b100001 -
b100001 c
b11 .
b11 o
b100001 <
b100001 e
b1110000 =
b1110000 h
06
0#
13
10
17
1!
#1150
0!
#1155
b0 H
b0 ]
b0 x
b0 )
b0 >
b0 [
b0 u
b0 <
b0 e
b11 :
b0 -
b0 c
03
1!
#1160
0!
#1165
11
b100 :
1!
#1170
0!
#1175
b1111000 _
b1111000 k
b1111000 j
b1111000 {
b100101000 P
b100101000 z
b1111000 M
b1111000 N
b1111000 y
b1110100 %
b1110100 L
b1110100 f
b1110100 $
b1110100 `
b1 :
b0 =
b0 h
b101100 <
b101100 e
1#
16
b0 .
b0 o
07
00
01
1!
#1180
0!
#1185
b1110100 H
b1110100 ]
b1110100 x
b1110100 )
b1110100 >
b1110100 [
b1110100 u
b10 :
b100001 -
b100001 c
b11 .
b11 o
b100001 <
b100001 e
b1110100 =
b1110100 h
06
0#
13
10
17
1!
#1190
0!
#1195
b0 H
b0 ]
b0 x
b0 )
b0 >
b0 [
b0 u
b0 <
b0 e
b11 :
b0 -
b0 c
03
1!
#1200
0!
#1205
11
b100 :
1!
#1210
0!
