cleanup/results/CPUFileTest2.vcd
$date
	Thu Dec 13 10:46:55 2018
$end
$version
	Icarus Verilog
$end
$timescale
	1s
$end
$scope module CPUTester2 $end
$var reg 1 ! clk $end
$upscope $end
$scope module CPUTester2 $end
$var reg 1 " reset $end
$upscope $end
$scope module CPUTester2 $end
$scope module CPU_Test1 $end
$scope module Program_Counter $end
$var wire 1 ! Clk $end
$var wire 32 # PCNext [31:0] $end
$var wire 1 " Reset $end
$var reg 32 $ PCResult [31:0] $end
$upscope $end
$upscope $end
$upscope $end
$scope module CPUTester2 $end
$scope module CPU_Test1 $end
$scope module Instruction_Memory $end
$var wire 1 ! Enable $end
$var wire 32 % PC [31:0] $end
$var wire 32 & Instruction [31:0] $end
$upscope $end
$upscope $end
$upscope $end
$scope module CPUTester2 $end
$scope module CPU_Test1 $end
$scope module Control_Unit $end
$var wire 1 ! clk $end
$var wire 6 ' opcode [5:0] $end
$var wire 1 " reset $end
$var reg 3 ( aluCode [2:0] $end
$var reg 1 ) alu_src $end
$var reg 1 * branch $end
$var reg 1 + jump $end
$var reg 1 , memRead $end
$var reg 1 - memWrite $end
$var reg 1 . mem_to_reg $end
$var reg 1 / reg_dst $end
$var reg 1 0 reg_write $end
$var reg 1 1 unSign $end
$upscope $end
$upscope $end
$upscope $end
$scope module CPUTester2 $end
$scope module CPU_Test1 $end
$scope module alu $end
$var wire 32 2 a [31:0] $end
$var wire 3 3 aluCode [2:0] $end
$var wire 32 4 b [31:0] $end
$var wire 6 5 operation [5:0] $end
$var reg 32 6 Result [31:0] $end
$var reg 32 7 tempVar [31:0] $end
$var reg 1 8 zeroFlag $end
$var integer 32 9 counter [31:0] $end
$var integer 32 : index [31:0] $end
$var integer 32 ; var [31:0] $end
$upscope $end
$upscope $end
$upscope $end
$scope module CPUTester2 $end
$scope module CPU_Test1 $end
$scope module Register_File $end
$var wire 5 < A_Address [4:0] $end
$var wire 5 = B_Address [4:0] $end
$var wire 32 > C_Data [31:0] $end
$var wire 1 ! Clk $end
$var wire 1 . Write $end
$var wire 5 ? C_Address [4:0] $end
$var reg 32 @ A_Data [31:0] $end
$var reg 32 A B_Data [31:0] $end
$upscope $end
$upscope $end
$upscope $end
$scope module CPUTester2 $end
$scope module CPU_Test1 $end
$scope module ram $end
$var wire 32 B address [31:0] $end
$var wire 1 ! clk $end
$var wire 32 C dataIn [31:0] $end
$var wire 1 , read $end
$var wire 1 - write $end
$var reg 32 D output_destination [31:0] $end
$upscope $end
$upscope $end
$upscope $end
$scope module CPUTester2 $end
$scope module CPU_Test1 $end
$scope module addFour $end
$var wire 32 E pc [31:0] $end
$var wire 32 F result [31:0] $end
$upscope $end
$upscope $end
$upscope $end
$scope module CPUTester2 $end
$scope module CPU_Test1 $end
$scope module adder $end
$var wire 32 G entry1 [31:0] $end
$var wire 32 H entry0 [31:0] $end
$var reg 32 I result [31:0] $end
$upscope $end
$upscope $end
$upscope $end
$scope module CPUTester2 $end
$scope module CPU_Test1 $end
$scope module signExt $end
$var wire 16 J ins [15:0] $end
$var wire 1 1 unSign $end
$var reg 32 K result [31:0] $end
$var reg 16 L tempOnes [15:0] $end
$var reg 16 M tempZero [15:0] $end
$upscope $end
$upscope $end
$upscope $end
$scope module CPUTester2 $end
$scope module CPU_Test1 $end
$scope module shftJump $end
$var wire 26 N in [25:0] $end
$var reg 28 O result [27:0] $end
$upscope $end
$upscope $end
$upscope $end
$scope module CPUTester2 $end
$scope module CPU_Test1 $end
$scope module shftLeft $end
$var wire 32 P in [31:0] $end
$var reg 32 Q result [31:0] $end
$upscope $end
$upscope $end
$upscope $end
$scope module CPUTester2 $end
$scope module CPU_Test1 $end
$scope module simpleAND $end
$var wire 1 8 Z_flag $end
$var wire 1 * branch $end
$var reg 1 R result $end
$upscope $end
$upscope $end
$upscope $end
$scope module CPUTester2 $end
$scope module CPU_Test1 $end
$scope module Jump_Mux $end
$var wire 32 S one [31:0] $end
$var wire 1 + s $end
$var wire 32 T zero [31:0] $end
$var reg 32 U result [31:0] $end
$upscope $end
$upscope $end
$upscope $end
$scope module CPUTester2 $end
$scope module CPU_Test1 $end
$scope module ALU_Mux $end
$var wire 32 V zero [31:0] $end
$var wire 1 ) s $end
$var wire 32 W one [31:0] $end
$var reg 32 X result [31:0] $end
$upscope $end
$upscope $end
$upscope $end
$scope module CPUTester2 $end
$scope module CPU_Test1 $end
$scope module Register_Mux $end
$var wire 5 Y one [4:0] $end
$var wire 1 / s $end
$var wire 5 Z zero [4:0] $end
$var reg 5 [ result [4:0] $end
$upscope $end
$upscope $end
$upscope $end
$scope module CPUTester2 $end
$scope module CPU_Test1 $end
$scope module RAM_Mux $end
$var wire 1 . s $end
$var wire 32 \ zero [31:0] $end
$var wire 32 ] one [31:0] $end
$var reg 32 ^ result [31:0] $end
$upscope $end
$upscope $end
$upscope $end
$scope module CPUTester2 $end
$scope module CPU_Test1 $end
$scope module Branch_Mux $end
$var wire 32 _ zero [31:0] $end
$var wire 1 R s $end
$var wire 32 ` one [31:0] $end
$var reg 32 a result [31:0] $end
$upscope $end
$upscope $end
$upscope $end
$enddefinitions $end
#0
$dumpvars
b100 a
b10001100 `
b100 _
b100010 ^
b100010 ]
bx \
b1 [
b1 Z
b0 Y
b100010 X
b100010 W
b0 V
b100 U
b100 T
b1000000000010001000 S
0R
b10001000 Q
b100010 P
b1000000000010001000 O
b10000000000100010 N
b0 M
b1111111111111111 L
b100010 K
b100010 J
b10001100 I
b10001000 H
b100 G
b100 F
b0 E
bx D
b0 C
b100010 B
b0 A
b0 @
b1 ?
b100010 >
b1 =
b0 <
b0 ;
bx :
b0 9
08
bx 7
b100010 6
b100010 5
b100010 4
b101 3
b0 2
11
10
0/
1.
0-
0,
0+
0*
1)
b101 (
b1001 '
b100100000000010000000000100010 &
b0 %
b0 $
b100 #
0"
0!
$end
#5
b0 A
b0 C
b0 V
b11011100 >
b11011100 ^
b11011100 6
b11011100 B
b11011100 ]
b11011100 4
b11011100 X
b1101110000 H
b1101110000 Q
b1000 #
b1000 U
b11011100 K
b11011100 P
b11011100 W
b100000000001101110000 S
b100000000001101110000 O
b100 ?
b100 [
b1000 T
b1000 a
b1101111000 I
b1101111000 `
b11011100 J
b11100 5
b1000000000011011100 N
b100 =
b100 Z
b1000 F
b1000 G
b1000 _
b100100000001000000000011011100 &
b100 $
b100 %
b100 E
0!
#10
b11011100 A
b11011100 C
b11011100 V
b11011100 >
b11011100 ^
b11011100 6
b11011100 B
b11011100 ]
b10100000010010100 H
b10100000010010100 Q
b11011100 4
b11011100 X
b1100 #
b1100 U
b100010100000010010100 S
b100010100000010010100 O
b101000000100101 K
b101000000100101 P
b101000000100101 W
b1010 ?
b1010 [
01
b0 (
b0 3
0)
1/
b1100 T
b1100 a
b10100000010100000 I
b10100000010100000 `
b100101 5
b1000101000000100101 N
b101000000100101 J
b1010 Y
b0 '
b1100 F
b1100 G
b1100 _
b1000101000000100101 &
b1000 $
b1000 %
b1000 E
0!
#15
b0 4
b0 X
b11011100 6
b11011100 B
b11011100 ]
b0 A
b0 C
b0 V
b11011100 2
b11011100 @
b0 H
b0 Q
bx >
bx ^
b10000 #
b10000 U
b0 K
b0 P
b0 W
b0 ?
b0 [
b101000011000000000000000000 S
b101000011000000000000000000 O
0.
1-
b101 (
b101 3
00
b10000 T
b10000 a
b10000 I
b10000 `
b0 5
b0 J
b0 Y
b11 =
b11 Z
b1010000110000000000000000 N
b1010 <
b100011 '
b10000 F
b10000 G
b10000 _
b10001101010000110000000000000000 &
b1100 $
b1100 %
b1100 E
0!
#20
b11011100 A
b11011100 C
b11011100 V
b11100000 6
b11100000 B
b11100000 ]
b10000 H
b10000 Q
b11100000 >
b11100000 ^
b100 4
b100 X
b10100 #
b10100 U
b100 K
b100 P
b100 W
b101001010000000000000010000 S
b101001010000000000000010000 O
b1010 ?
b1010 [
11
1.
0-
1)
10
0/
b10100 T
b10100 a
b100100 I
b100100 `
b100 J
b100 5
b1010010100000000000000100 N
b1010 =
b1010 Z
b1001 '
b10100 F
b10100 G
b10100 _
b100101010010100000000000000100 &
b10000 $
b10000 %
b10000 E
0!
#25
b0 A
b0 C
b0 V
b100010 2
b100010 @
b100010 >
b100010 ^
b100010 6
b100010 B
b100010 ]
b100000010000100 H
b100000010000100 Q
b0 4
b0 X
b11000 #
b11000 U
b1000000100001 K
b1000000100001 P
b1000000100001 W
b10 ?
b10 [
b100011000100000010000100 S
b100011000100000010000100 O
01
b0 (
b0 3
0)
1/
b11000 T
b11000 a
b100000010011100 I
b100000010011100 `
b100001 5
b1000000100001 J
b10 Y
b11 =
b11 Z
b1000110001000000100001 N
b1 <
b0 '
b11000 F
b11000 G
b11000 _
b1000110001000000100001 &
b10100 $
b10100 %
b10100 E
0!
#30
b100010 >
b100010 ^
b100010 4
b100010 X
b100010 6
b100010 B
b100010 ]
b100010 A
b100010 C
b100010 V
b0 2
b0 @
b1010000010010100 H
b1010000010010100 Q
b11100 #
b11100 U
b10100000100101 K
b10100000100101 P
b10100000100101 W
b10001010000010010100 S
b10001010000010010100 O
b101 ?
b101 [
b11100 T
b11100 a
b1010000010110000 I
b1010000010110000 `
b100101 5
b10100000100101 J
b101 Y
b100010100000100101 N
b10 =
b0 <
b10 Z
b11100 F
b11100 G
b11100 _
b100010100000100101 &
b11000 $
b11000 %
b11000 E
0!
#35
b100000010 6
b100000010 B
b100000010 ]
b11100000 2
b11100000 @
b0 H
b0 Q
bx >
bx ^
b100000 #
b100000 U
b0 K
b0 P
b0 W
b0 ?
b0 [
b101000101000000000000000000 S
b101000101000000000000000000 O
0.
1-
b101 (
b101 3
00
b100000 T
b100000 a
b100000 I
b100000 `
b0 5
b0 J
b0 Y
b101 =
b101 Z
b1010001010000000000000000 N
b1010 <
b101011 '
b100000 F
b100000 G
b100000 _
b10101101010001010000000000000000 &
b11100 $
b11100 %
b11100 E
0!
#40
b11100000 A
b11100000 C
b11100000 V
b11100100 6
b11100100 B
b11100100 ]
b10000 H
b10000 Q
b11100100 >
b11100100 ^
b100 4
b100 X
b100100 #
b100100 U
b100 K
b100 P
b100 W
b101001010000000000000010000 S
b101001010000000000000010000 O
b1010 ?
b1010 [
11
1.
0-
1)
10
0/
b100100 T
b100100 a
b110100 I
b110100 `
b100 J
b100 5
b1010010100000000000000100 N
b1010 =
b1010 Z
b1001 '
b100100 F
b100100 G
b100100 _
b100101010010100000000000000100 &
b100000 $
b100000 %
b100000 E
0!
#45
b100010 A
b100010 C
b100010 V
b100010 2
b100010 @
b1010000010001100 H
b1010000010001100 Q
b100010 4
b100010 X
b101000 #
b101000 U
b10100000100011 K
b10100000100011 P
b10100000100011 W
b101 ?
b101 [
b100010001010000010001100 S
b100010001010000010001100 O
01
b0 (
b0 3
0)
1/
b101000 T
b101000 a
b1010000010110100 I
b1010000010110100 `
b100011 5
b10100000100011 J
b101 Y
b10 =
b10 Z
b1000100010100000100011 N
b1 <
b0 '
b101000 F
b101000 G
b101000 _
b1000100010100000100011 &
b100100 $
b100100 %
b100100 E
0!
#50
b11100100 4
b11100100 X
b11100100 A
b11100100 C
b11100100 V
b11100100 2
b11100100 @
b0 H
b0 Q
bx >
bx ^
b101100 #
b101100 U
b111001000 6
b111001000 B
b111001000 ]
b0 K
b0 P
b0 W
b0 ?
b0 [
b101000101000000000000000000 S
b101000101000000000000000000 O
0.
1-
b101 (
b101 3
00
b101100 T
b101100 a
b101100 I
b101100 `
b0 5
b0 J
b0 Y
b101 =
b101 Z
b1010001010000000000000000 N
b1010 <
b101011 '
b101100 F
b101100 G
b101100 _
b10101101010001010000000000000000 &
b101000 $
b101000 %
b101000 E
0!
#55
b11101000 6
b11101000 B
b11101000 ]
b10000 H
b10000 Q
b11101000 >
b11101000 ^
b100 4
b100 X
b110000 #
b110000 U
b100 K
b100 P
b100 W
b101001010000000000000010000 S
b101001010000000000000010000 O
b1010 ?
b1010 [
11
1.
0-
1)
10
0/
b110000 T
b110000 a
b1000000 I
b1000000 `
b100 J
b100 5
b1010010100000000000000100 N
b1010 =
b1010 Z
b1001 '
b110000 F
b110000 G
b110000 _
b100101010010100000000000000100 &
b101100 $
b101100 %
b101100 E
0!
#60
b100010 A
b100010 C
b100010 V
b100010 2
b100010 @
b1 >
b1 ^
b1010000010101100 H
b1010000010101100 Q
b100010 4
b100010 X
b110100 #
b110100 U
b1 6
b1 B
b1 ]
b10100000101011 K
b10100000101011 P
b10100000101011 W
b101 ?
b101 [
b100010001010000010101100 S
b100010001010000010101100 O
01
b0 (
b0 3
0)
1/
b110100 T
b110100 a
b1010000011100000 I
b1010000011100000 `
b101011 5
b10100000101011 J
b101 Y
b10 =
b10 Z
b1000100010100000101011 N
b1 <
b0 '
b110100 F
b110100 G
b110100 _
b1000100010100000101011 &
b110000 $
b110000 %
b110000 E
0!
#65
b1 4
b1 X
b1 A
b1 C
b1 V
b11101000 2
b11101000 @
b0 H
b0 Q
bx >
bx ^
b111000 #
b111000 U
b11101001 6
b11101001 B
b11101001 ]
b0 K
b0 P
b0 W
b0 ?
b0 [
b101000101000000000000000000 S
b101000101000000000000000000 O
0.
1-
b101 (
b101 3
00
b111000 T
b111000 a
b111000 I
b111000 `
b0 5
b0 J
b0 Y
b101 =
b101 Z
b1010001010000000000000000 N
b1010 <
b101011 '
b111000 F
b111000 G
b111000 _
b10101101010001010000000000000000 &
b110100 $
b110100 %
b110100 E
0!
#70
b11101000 A
b11101000 C
b11101000 V
b11101100 6
b11101100 B
b11101100 ]
b10000 H
b10000 Q
b11101100 >
b11101100 ^
b100 4
b100 X
b111100 #
b111100 U
b100 K
b100 P
b100 W
b101001010000000000000010000 S
b101001010000000000000010000 O
b1010 ?
b1010 [
11
1.
0-
1)
10
0/
b111100 T
b111100 a
b1001100 I
b1001100 `
b100 J
b100 5
b1010010100000000000000100 N
b1010 =
b1010 Z
b1001 '
b111100 F
b111100 G
b111100 _
b100101010010100000000000000100 &
b111000 $
b111000 %
b111000 E
0!
#75
b0 A
b0 C
b0 V
b0 2
b0 @
b0 >
b0 ^
b1010001100001100 H
b1010001100001100 Q
b0 4
b0 X
b1000000 #
b1000000 U
b0 6
b0 B
b0 ]
b10100011000011 K
b10100011000011 P
b10100011000011 W
b101 ?
b101 [
b11001010001100001100 S
b11001010001100001100 O
01
b0 (
b0 3
0)
1/
b1000000 T
b1000000 a
b1010001101001100 I
b1010001101001100 `
b11 5
b10100011000011 J
b101 Y
b11 =
b11 Z
b110010100011000011 N
b0 <
b0 '
b1000000 F
b1000000 G
b1000000 _
b110010100011000011 &
b111100 $
b111100 %
b111100 E
0!
#80
b11101100 6
b11101100 B
b11101100 ]
b11101100 2
b11101100 @
b0 H
b0 Q
bx >
bx ^
b1000100 #
b1000100 U
b0 K
b0 P
b0 W
b0 ?
b0 [
b101000101000000000000000000 S
b101000101000000000000000000 O
0.
1-
b101 (
b101 3
00
b1000100 T
b1000100 a
b1000100 I
b1000100 `
b0 5
b0 J
b0 Y
b101 =
b101 Z
b1010001010000000000000000 N
b1010 <
b101011 '
b1000100 F
b1000100 G
b1000100 _
b10101101010001010000000000000000 &
b1000000 $
b1000000 %
b1000000 E
0!
#85
b11101100 A
b11101100 C
b11101100 V
b11110000 6
b11110000 B
b11110000 ]
b10000 H
b10000 Q
b11110000 >
b11110000 ^
b100 4
b100 X
b1001000 #
b1001000 U
b100 K
b100 P
b100 W
b101001010000000000000010000 S
b101001010000000000000010000 O
b1010 ?
b1010 [
11
1.
0-
1)
10
0/
b1001000 T
b1001000 a
b1011000 I
b1011000 `
b100 J
b100 5
b1010010100000000000000100 N
b1010 =
b1010 Z
b1001 '
b1001000 F
b1001000 G
b1001000 _
b100101010010100000000000000100 &
b1000100 $
b1000100 %
b1000100 E
0!
#90
b0 A
b0 C
b0 V
b0 2
b0 @
b0 >
b0 ^
b1010001100000000 H
b1010001100000000 Q
b0 4
b0 X
b1001100 #
b1001100 U
b0 6
b0 B
b0 ]
b10100011000000 K
b10100011000000 P
b10100011000000 W
b101 ?
b101 [
b11001010001100000000 S
b11001010001100000000 O
01
b0 (
b0 3
0)
1/
b1001100 T
b1001100 a
b1010001101001100 I
b1010001101001100 `
b0 5
b10100011000000 J
b101 Y
b11 =
b11 Z
b110010100011000000 N
b0 <
b0 '
b1001100 F
b1001100 G
b1001100 _
b110010100011000000 &
b1001000 $
b1001000 %
b1001000 E
0!
#95
b11110000 6
b11110000 B
b11110000 ]
b11110000 2
b11110000 @
b0 H
b0 Q
bx >
bx ^
b1010000 #
b1010000 U
b0 K
b0 P
b0 W
b0 ?
b0 [
b101000101000000000000000000 S
b101000101000000000000000000 O
0.
1-
b101 (
b101 3
00
b1010000 T
b1010000 a
b1010000 I
b1010000 `
b0 J
b0 Y
b101 =
b101 Z
b1010001010000000000000000 N
b1010 <
b101011 '
b1010000 F
b1010000 G
b1010000 _
b10101101010001010000000000000000 &
b1001100 $
b1001100 %
b1001100 E
0!
#100
b11110000 A
b11110000 C
b11110000 V
b11110100 6
b11110100 B
b11110100 ]
b10000 H
b10000 Q
b11110100 >
b11110100 ^
b100 4
b100 X
b1010100 #
b1010100 U
b100 K
b100 P
b100 W
b101001010000000000000010000 S
b101001010000000000000010000 O
b1010 ?
b1010 [
11
1.
0-
1)
10
0/
b1010100 T
b1010100 a
b1100100 I
b1100100 `
b100 J
b100 5
b1010010100000000000000100 N
b1010 =
b1010 Z
b1001 '
b1010100 F
b1010100 G
b1010100 _
b100101010010100000000000000100 &
b1010000 $
b1010000 %
b1010000 E
0!
#105
b0 A
b0 C
b0 V
b0 2
b0 @
b0 >
b0 ^
b1010001100001000 H
b1010001100001000 Q
b0 4
b0 X
b1011000 #
b1011000 U
b0 6
b0 B
b0 ]
b10100011000010 K
b10100011000010 P
b10100011000010 W
b101 ?
b101 [
b11001010001100001000 S
b11001010001100001000 O
01
b0 (
b0 3
0)
1/
b1011000 T
b1011000 a
b1010001101100000 I
b1010001101100000 `
b10 5
b10100011000010 J
b101 Y
b11 =
b11 Z
b110010100011000010 N
b0 <
b0 '
b1011000 F
b1011000 G
b1011000 _
b110010100011000010 &
b1010100 $
b1010100 %
b1010100 E
0!
#110
b11110100 6
b11110100 B
b11110100 ]
b11110100 2
b11110100 @
b0 H
b0 Q
bx >
bx ^
b1011100 #
b1011100 U
b0 K
b0 P
b0 W
b0 ?
b0 [
b101000101000000000000000000 S
b101000101000000000000000000 O
0.
1-
b101 (
b101 3
00
b1011100 T
b1011100 a
b1011100 I
b1011100 `
b0 5
b0 J
b0 Y
b101 =
b101 Z
b1010001010000000000000000 N
b1010 <
b101011 '
b1011100 F
b1011100 G
b1011100 _
b10101101010001010000000000000000 &
b1011000 $
b1011000 %
b1011000 E
0!
#115
b11110100 A
b11110100 C
b11110100 V
b11111000 6
b11111000 B
b11111000 ]
b10000 H
b10000 Q
b11111000 >
b11111000 ^
b100 4
b100 X
b1100000 #
b1100000 U
b100 K
b100 P
b100 W
b101001010000000000000010000 S
b101001010000000000000010000 O
b1010 ?
b1010 [
11
1.
0-
1)
10
0/
b1100000 T
b1100000 a
b1110000 I
b1110000 `
b100 J
b100 5
b1010010100000000000000100 N
b1010 =
b1010 Z
b1001 '
b1100000 F
b1100000 G
b1100000 _
b100101010010100000000000000100 &
b1011100 $
b1011100 %
b1011100 E
0!
#120
b0 A
b0 C
b0 V
b0 2
b0 @
1R
18
b1100 H
b1100 Q
bx >
bx ^
b0 4
b0 X
b1110000 #
b1110000 U
b11 K
b11 P
b11 W
b10001 ?
b10001 [
b10001000000000000001100 S
b10001000000000000001100 O
01
1*
0.
b1 (
b1 3
0)
00
b1110000 T
b1110000 a
b1110000 I
b1110000 `
b11 J
b11 5
b10001 =
b10001 Z
b100010000000000000011 N
b0 <
b1 '
b1100100 F
b1100100 G
b1100100 _
b100000100010000000000000011 &
b1100000 $
b1100000 %
b1100000 E
0!
#125
b11111111111111111110000010000100 H
b11111111111111111110000010000100 Q
0R
b0 >
b0 ^
b1110100 #
b1110100 U
b0 6
b0 B
b0 ]
b11111111111111111111100000100001 K
b11111111111111111111100000100001 P
b11111111111111111111100000100001 W
b11111 ?
b11111 [
b100011111111110000010000100 S
b100011111111110000010000100 O
0*
1.
b0 (
b0 3
10
1/
b1110100 T
b1110100 a
b11111111111111111110000011111000 I
b11111111111111111110000011111000 `
b100001 5
b1111100000100001 J
b11111 Y
b11111 =
b11111 Z
b1000111111111100000100001 N
b1000 <
b0 '
b1110100 F
b1110100 G
b1110100 _
b1000111111111100000100001 &
b1110000 $
b1110000 %
b1110000 E
0!
#130
b11111000 6
b11111000 B
b11111000 ]
b11111000 2
b11111000 @
b0 H
b0 Q
bx >
bx ^
b1111000 #
b1111000 U
b0 K
b0 P
b0 W
b0 ?
b0 [
b101011111000000000000000000 S
b101011111000000000000000000 O
0.
1-
b101 (
b101 3
00
b1111000 T
b1111000 a
b1111000 I
b1111000 `
b0 5
b0 J
b0 Y
b1010111110000000000000000 N
b1010 <
b101011 '
b1111000 F
b1111000 G
b1111000 _
b10101101010111110000000000000000 &
b1110100 $
b1110100 %
b1110100 E
0!
#135
b0 2
b0 @
b100000 H
b100000 Q
b11111000 >
b11111000 ^
b1111100 #
b1111100 U
b1000 K
b1000 P
b1000 W
b1111100000000000000000100000 S
b1111100000000000000000100000 O
1.
0-
b0 (
b0 3
10
b1111100 T
b1111100 a
b10011100 I
b10011100 `
b1000 J
b1000 5
b0 =
b0 Z
b11111000000000000000001000 N
b11111 <
b0 '
b1111100 F
b1111100 G
b1111100 _
b11111000000000000000001000 &
b1111000 $
b1111000 %
b1111000 E
0!
#140
b11111000 A
b11111000 C
b11111000 V
b11111000 2
b11111000 @
b10000 H
b10000 Q
b11111100 >
b11111100 ^
b100 4
b100 X
b10000000 #
b10000000 U
b100 K
b100 P
b100 W
b11111100 6
b11111100 B
b11111100 ]
b1010 ?
b1010 [
b101001010000000000000010000 S
b101001010000000000000010000 O
11
b101 (
b101 3
1)
0/
b10000000 T
b10000000 a
b10010000 I
b10010000 `
b100 J
b100 5
b1010 =
b1010 Z
b1010010100000000000000100 N
b1010 <
b1001 '
b10000000 F
b10000000 G
b10000000 _
b100101010010100000000000000100 &
b1111100 $
b1111100 %
b1111100 E
0!
#145
b0 A
b0 C
b0 V
b0 2
b0 @
b0 H
b0 Q
b0 >
b0 ^
b0 4
b0 X
b10000100 #
b10000100 U
b0 K
b0 P
b0 W
b0 6
b0 B
b0 ]
b0 ?
b0 [
b0 S
b0 O
01
b0 (
b0 3
0)
1/
b10000100 T
b10000100 a
b10000100 I
b10000100 `
b0 J
b0 5
b0 =
b0 Z
b0 N
b0 <
b0 '
b10000100 F
b10000100 G
b10000100 _
b0 &
b10000000 $
b10000000 %
b10000000 E
0!
#150
b11011100 6
b11011100 B
b11011100 ]
b11011100 2
b11011100 @
b11111111111111111111111111110000 H
b11111111111111111111111111110000 Q
bx >
bx ^
b10001000 #
b10001000 U
b11111111111111111111111111111100 K
b11111111111111111111111111111100 P
b11111111111111111111111111111100 W
b10001100111111111111110000 S
b10001100111111111111110000 O
b11111 ?
b11111 [
0.
1-
b101 (
b101 3
00
b10001000 T
b10001000 a
b1111000 I
b1111000 `
b111100 5
b1111111111111100 J
b11111 Y
b100011001111111111111100 N
b1100 =
b100 <
b1100 Z
b100011 '
b10001000 F
b10001000 G
b10001000 _
b10001100100011001111111111111100 &
b10000100 $
b10000100 %
b10000100 E
0!
#155
b11111111111111111111111111100000 H
b11111111111111111111111111100000 Q
b10001100 #
b10001100 U
b11111111111111111111111111111000 K
b11111111111111111111111111111000 P
b11111111111111111111111111111000 W
b10001011111111111111100000 S
b10001011111111111111100000 O
b10001100 T
b10001100 a
b1101100 I
b1101100 `
b1111111111111000 J
b111000 5
b100010111111111111111000 N
b1011 =
b1011 Z
b10001100 F
b10001100 G
b10001100 _
b10001100100010111111111111111000 &
b10001000 $
b10001000 %
b10001000 E
0!
#160
b0 2
b0 @
b1100100 H
b1100100 Q
b11011100 >
b11011100 ^
b10010000 #
b10010000 U
b11001 K
b11001 P
b11001 W
b0 ?
b0 [
b110001011000000000001100100 S
b110001011000000000001100100 O
1.
0-
b0 (
b0 3
10
b10010000 T
b10010000 a
b11110100 I
b11110100 `
b11001 5
b11001 J
b0 Y
b1100010110000000000011001 N
b1100 <
b0 '
b10010000 F
b10010000 G
b10010000 _
b1100010110000000000011001 &
b10001100 $
b10001100 %
b10001100 E
0!
#165
b11010000001000000 H
b11010000001000000 Q
b10010100 #
b10010100 U
b110100000010000 K
b110100000010000 P
b110100000010000 W
b1101 ?
b1101 [
b11010000001000000 S
b11010000001000000 O
b10010100 T
b10010100 a
b11010000011010100 I
b11010000011010100 `
b10000 5
b110100000010000 J
b1101 Y
b0 =
b0 Z
b110100000010000 N
b0 <
b10010100 F
b10010100 G
b10010100 _
b110100000010000 &
b10010000 $
b10010000 %
b10010000 E
0!
#170
b11100000001001000 H
b11100000001001000 Q
b10011000 #
b10011000 U
b11100000001001000 S
b11100000001001000 O
b111000000010010 K
b111000000010010 P
b111000000010010 W
b1110 ?
b1110 [
b10011000 T
b10011000 a
b11100000011100000 I
b11100000011100000 `
b10010 5
b111000000010010 N
b111000000010010 J
b1110 Y
b10011000 F
b10011000 G
b10011000 _
b111000000010010 &
b10010100 $
b10010100 %
b10010100 E
0!
#175
b11011100 4
b11011100 X
b11011100 A
b11011100 C
b11011100 V
b11111100 2
b11111100 @
b0 H
b0 Q
bx >
bx ^
b10011100 #
b10011100 U
b111011000 6
b111011000 B
b111011000 ]
b0 K
b0 P
b0 W
b0 ?
b0 [
b101001101000000000000000000 S
b101001101000000000000000000 O
0.
1-
b101 (
b101 3
00
b10011100 T
b10011100 a
b10011100 I
b10011100 `
b0 5
b0 J
b0 Y
b1101 =
b1101 Z
b1010011010000000000000000 N
b1010 <
b101011 '
b10011100 F
b10011100 G
b10011100 _
b10101101010011010000000000000000 &
b10011000 $
b10011000 %
b10011000 E
0!
#180
b11111100 A
b11111100 C
b11111100 V
b100000000 6
b100000000 B
b100000000 ]
b10000 H
b10000 Q
b100000000 >
b100000000 ^
b100 4
b100 X
b10100000 #
b10100000 U
b100 K
b100 P
b100 W
b101001010000000000000010000 S
b101001010000000000000010000 O
b1010 ?
b1010 [
11
1.
0-
1)
10
0/
b10100000 T
b10100000 a
b10110000 I
b10110000 `
b100 J
b100 5
b1010010100000000000000100 N
b1010 =
b1010 Z
b1001 '
b10100000 F
b10100000 G
b10100000 _
b100101010010100000000000000100 &
b10011100 $
b10011100 %
b10011100 E
0!
#185
b11011100 A
b11011100 C
b11011100 V
b100000000 2
b100000000 @
b111011100 6
b111011100 B
b111011100 ]
b0 H
b0 Q
bx >
bx ^
b11011100 4
b11011100 X
b10100100 #
b10100100 U
b0 K
b0 P
b0 W
b101001110000000000000000000 S
b101001110000000000000000000 O
b1110 ?
b1110 [
01
0.
1-
0)
00
b10100100 T
b10100100 a
b10100100 I
b10100100 `
b0 J
b0 5
b1010011100000000000000000 N
b1110 =
b1110 Z
b101011 '
b10100100 F
b10100100 G
b10100100 _
b10101101010011100000000000000000 &
b10100000 $
b10100000 %
b10100000 E
0!
#190
b100000000 A
b100000000 C
b100000000 V
b100000100 6
b100000100 B
b100000100 ]
b10000 H
b10000 Q
b100000100 >
b100000100 ^
b100 4
b100 X
b10101000 #
b10101000 U
b100 K
b100 P
b100 W
b101001010000000000000010000 S
b101001010000000000000010000 O
b1010 ?
b1010 [
11
1.
0-
1)
10
b10101000 T
b10101000 a
b10111000 I
b10111000 `
b100 J
b100 5
b1010010100000000000000100 N
b1010 =
b1010 Z
b1001 '
b10101000 F
b10101000 G
b10101000 _
b100101010010100000000000000100 &
b10100100 $
b10100100 %
b10100100 E
0!
#195
b0 A
b0 C
b0 V
b0 2
b0 @
b1000100 H
b1000100 Q
b0 4
b0 X
b10101100 #
b10101100 U
b10001 K
b10001 P
b10001 W
b101100000000000000001000100 S
b101100000000000000001000100 O
b0 ?
b0 [
01
b0 (
b0 3
0)
1/
b10101100 T
b10101100 a
b11110000 I
b11110000 `
b10001 J
b10001 5
b1011000000000000000010001 N
b0 =
b1011 <
b0 Z
b0 '
b10101100 F
b10101100 G
b10101100 _
b1011000000000000000010001 &
b10101000 $
b10101000 %
b10101000 E
0!
#200
b1001100 H
b1001100 Q
b10110000 #
b10110000 U
b10011 K
b10011 P
b10011 W
b110000000000000000001001100 S
b110000000000000000001001100 O
b10110000 T
b10110000 a
b11111100 I
b11111100 `
b10011 J
b10011 5
b1100000000000000000010011 N
b1100 <
b10110000 F
b10110000 G
b10110000 _
b1100000000000000000010011 &
b10101100 $
b10101100 %
b10101100 E
0!
#205
b11010000001000000 H
b11010000001000000 Q
b10110100 #
b10110100 U
b110100000010000 K
b110100000010000 P
b110100000010000 W
b1101 ?
b1101 [
b11010000001000000 S
b11010000001000000 O
b10110100 T
b10110100 a
b11010000011110100 I
b11010000011110100 `
b10000 5
b110100000010000 J
b1101 Y
b110100000010000 N
b0 <
b10110100 F
b10110100 G
b10110100 _
b110100000010000 &
b10110000 $
b10110000 %
b10110000 E
0!
#210
b11100000001001000 H
b11100000001001000 Q
b10111000 #
b10111000 U
b11100000001001000 S
b11100000001001000 O
b111000000010010 K
b111000000010010 P
b111000000010010 W
b1110 ?
b1110 [
b10111000 T
b10111000 a
b11100000100000000 I
b11100000100000000 `
b10010 5
b111000000010010 N
b111000000010010 J
b1110 Y
b10111000 F
b10111000 G
b10111000 _
b111000000010010 &
b10110100 $
b10110100 %
b10110100 E
0!
