cleanup/results/CPUFileTest1.vcd
$date
	Thu Dec 13 10:37:32 2018
$end
$version
	Icarus Verilog
$end
$timescale
	1s
$end
$scope module CPUTester1 $end
$var reg 1 ! clk $end
$upscope $end
$scope module CPUTester1 $end
$var reg 1 " reset $end
$upscope $end
$scope module CPUTester1 $end
$scope module CPU_Test1 $end
$scope module Program_Counter $end
$var wire 1 ! Clk $end
$var wire 32 # PCNext [31:0] $end
$var wire 1 " Reset $end
$var reg 32 $ PCResult [31:0] $end
$upscope $end
$upscope $end
$upscope $end
$scope module CPUTester1 $end
$scope module CPU_Test1 $end
$scope module Instruction_Memory $end
$var wire 1 ! Enable $end
$var wire 32 % PC [31:0] $end
$var wire 32 & Instruction [31:0] $end
$upscope $end
$upscope $end
$upscope $end
$scope module CPUTester1 $end
$scope module CPU_Test1 $end
$scope module Control_Unit $end
$var wire 1 ! clk $end
$var wire 6 ' opcode [5:0] $end
$var wire 1 " reset $end
$var reg 3 ( aluCode [2:0] $end
$var reg 1 ) alu_src $end
$var reg 1 * branch $end
$var reg 1 + jump $end
$var reg 1 , memRead $end
$var reg 1 - memWrite $end
$var reg 1 . mem_to_reg $end
$var reg 1 / reg_dst $end
$var reg 1 0 reg_write $end
$var reg 1 1 unSign $end
$upscope $end
$upscope $end
$upscope $end
$scope module CPUTester1 $end
$scope module CPU_Test1 $end
$scope module alu $end
$var wire 32 2 a [31:0] $end
$var wire 3 3 aluCode [2:0] $end
$var wire 32 4 b [31:0] $end
$var wire 6 5 operation [5:0] $end
$var reg 32 6 Result [31:0] $end
$var reg 32 7 tempVar [31:0] $end
$var reg 1 8 zeroFlag $end
$var integer 32 9 counter [31:0] $end
$var integer 32 : index [31:0] $end
$var integer 32 ; var [31:0] $end
$upscope $end
$upscope $end
$upscope $end
$scope module CPUTester1 $end
$scope module CPU_Test1 $end
$scope module Register_File $end
$var wire 5 < A_Address [4:0] $end
$var wire 5 = B_Address [4:0] $end
$var wire 32 > C_Data [31:0] $end
$var wire 1 ! Clk $end
$var wire 1 . Write $end
$var wire 5 ? C_Address [4:0] $end
$var reg 32 @ A_Data [31:0] $end
$var reg 32 A B_Data [31:0] $end
$upscope $end
$upscope $end
$upscope $end
$scope module CPUTester1 $end
$scope module CPU_Test1 $end
$scope module ram $end
$var wire 32 B address [31:0] $end
$var wire 1 ! clk $end
$var wire 32 C dataIn [31:0] $end
$var wire 1 , read $end
$var wire 1 - write $end
$var reg 32 D output_destination [31:0] $end
$upscope $end
$upscope $end
$upscope $end
$scope module CPUTester1 $end
$scope module CPU_Test1 $end
$scope module addFour $end
$var wire 32 E pc [31:0] $end
$var wire 32 F result [31:0] $end
$upscope $end
$upscope $end
$upscope $end
$scope module CPUTester1 $end
$scope module CPU_Test1 $end
$scope module adder $end
$var wire 32 G entry1 [31:0] $end
$var wire 32 H entry0 [31:0] $end
$var reg 32 I result [31:0] $end
$upscope $end
$upscope $end
$upscope $end
$scope module CPUTester1 $end
$scope module CPU_Test1 $end
$scope module signExt $end
$var wire 16 J ins [15:0] $end
$var wire 1 1 unSign $end
$var reg 32 K result [31:0] $end
$var reg 16 L tempOnes [15:0] $end
$var reg 16 M tempZero [15:0] $end
$upscope $end
$upscope $end
$upscope $end
$scope module CPUTester1 $end
$scope module CPU_Test1 $end
$scope module shftJump $end
$var wire 26 N in [25:0] $end
$var reg 28 O result [27:0] $end
$upscope $end
$upscope $end
$upscope $end
$scope module CPUTester1 $end
$scope module CPU_Test1 $end
$scope module shftLeft $end
$var wire 32 P in [31:0] $end
$var reg 32 Q result [31:0] $end
$upscope $end
$upscope $end
$upscope $end
$scope module CPUTester1 $end
$scope module CPU_Test1 $end
$scope module simpleAND $end
$var wire 1 8 Z_flag $end
$var wire 1 * branch $end
$var reg 1 R result $end
$upscope $end
$upscope $end
$upscope $end
$scope module CPUTester1 $end
$scope module CPU_Test1 $end
$scope module Jump_Mux $end
$var wire 32 S one [31:0] $end
$var wire 1 + s $end
$var wire 32 T zero [31:0] $end
$var reg 32 U result [31:0] $end
$upscope $end
$upscope $end
$upscope $end
$scope module CPUTester1 $end
$scope module CPU_Test1 $end
$scope module ALU_Mux $end
$var wire 32 V zero [31:0] $end
$var wire 1 ) s $end
$var wire 32 W one [31:0] $end
$var reg 32 X result [31:0] $end
$upscope $end
$upscope $end
$upscope $end
$scope module CPUTester1 $end
$scope module CPU_Test1 $end
$scope module Register_Mux $end
$var wire 5 Y one [4:0] $end
$var wire 1 / s $end
$var wire 5 Z zero [4:0] $end
$var reg 5 [ result [4:0] $end
$upscope $end
$upscope $end
$upscope $end
$scope module CPUTester1 $end
$scope module CPU_Test1 $end
$scope module RAM_Mux $end
$var wire 1 . s $end
$var wire 32 \ zero [31:0] $end
$var wire 32 ] one [31:0] $end
$var reg 32 ^ result [31:0] $end
$upscope $end
$upscope $end
$upscope $end
$scope module CPUTester1 $end
$scope module CPU_Test1 $end
$scope module Branch_Mux $end
$var wire 32 _ zero [31:0] $end
$var wire 1 R s $end
$var wire 32 ` one [31:0] $end
$var reg 32 a result [31:0] $end
$upscope $end
$upscope $end
$upscope $end
$enddefinitions $end
#0
$dumpvars
b100 a
b10110100 `
b100 _
bx ^
bx ]
bx \
b0 [
b1 Z
b0 Y
b101100 X
b101100 W
b0 V
b1000000000010110000 U
b100 T
b1000000000010110000 S
0R
b10110000 Q
b101100 P
b1000000000010110000 O
b10000000000101100 N
b0 M
b1111111111111111 L
b101100 K
b101100 J
b10110100 I
b10110000 H
b100 G
b100 F
b0 E
bx D
b0 C
bx B
b0 A
b0 @
b0 ?
bx >
b1 =
b0 <
b0 ;
bx :
b0 9
08
bx 7
bx 6
b101100 5
b101100 4
bx 3
b0 2
x1
x0
x/
x.
x-
x,
x+
x*
x)
bx (
b1001 '
b100100000000010000000000101100 &
b0 %
b0 $
b1000000000010110000 #
0"
0!
$end
#5
bx A
bx C
bx V
bx 2
bx @
bx >
bx ^
b0xxxxxxxxxxxxxxxx 4
b0xxxxxxxxxxxxxxxx X
b0xxxxxxxxxxxxxxxx00 H
b0xxxxxxxxxxxxxxxx00 Q
bx 6
bx B
bx ]
b0xxxxxxxxxxxxxxxx K
b0xxxxxxxxxxxxxxxx P
b0xxxxxxxxxxxxxxxx W
b0xxxxxxxxxxxxxxxxxxxxxxxxxx00 S
bx00 O
b1000000000010110100 T
b1000000000010110100 a
bx I
bx `
bx 5
bx J
bx Y
bx =
bx Z
bx N
bx <
bx '
b1000000000010110100 F
b1000000000010110100 G
b1000000000010110100 _
bx &
b1000000000010110000 $
b1000000000010110000 %
b1000000000010110000 E
b1000000000010110100 #
b1000000000010110100 U
bx ?
bx [
11
0*
0+
1.
0-
0,
b101 (
b101 3
1)
10
0/
0!
#10
b1000000000010111000 #
b1000000000010111000 U
b1000000000010111000 T
b1000000000010111000 a
b1000000000010111000 F
b1000000000010111000 G
b1000000000010111000 _
b1000000000010110100 $
b1000000000010110100 %
b1000000000010110100 E
bx 4
bx X
01
0.
b0 (
b0 3
0)
00
0!
#15
b1000000000010111100 #
b1000000000010111100 U
b1000000000010111100 T
b1000000000010111100 a
b1000000000010111100 F
b1000000000010111100 G
b1000000000010111100 _
b1000000000010111000 $
b1000000000010111000 %
b1000000000010111000 E
0!
#20
b1000000000011000000 #
b1000000000011000000 U
b1000000000011000000 T
b1000000000011000000 a
b1000000000011000000 F
b1000000000011000000 G
b1000000000011000000 _
b1000000000010111100 $
b1000000000010111100 %
b1000000000010111100 E
0!
#25
b1000000000011000100 #
b1000000000011000100 U
b1000000000011000100 T
b1000000000011000100 a
b1000000000011000100 F
b1000000000011000100 G
b1000000000011000100 _
b1000000000011000000 $
b1000000000011000000 %
b1000000000011000000 E
0!
#30
b1000000000011001000 #
b1000000000011001000 U
b1000000000011001000 T
b1000000000011001000 a
b1000000000011001000 F
b1000000000011001000 G
b1000000000011001000 _
b1000000000011000100 $
b1000000000011000100 %
b1000000000011000100 E
0!
#35
b1000000000011001100 #
b1000000000011001100 U
b1000000000011001100 T
b1000000000011001100 a
b1000000000011001100 F
b1000000000011001100 G
b1000000000011001100 _
b1000000000011001000 $
b1000000000011001000 %
b1000000000011001000 E
0!
#40
b1000000000011010000 #
b1000000000011010000 U
b1000000000011010000 T
b1000000000011010000 a
b1000000000011010000 F
b1000000000011010000 G
b1000000000011010000 _
b1000000000011001100 $
b1000000000011001100 %
b1000000000011001100 E
0!
#45
b1000000000011010100 #
b1000000000011010100 U
b1000000000011010100 T
b1000000000011010100 a
b1000000000011010100 F
b1000000000011010100 G
b1000000000011010100 _
b1000000000011010000 $
b1000000000011010000 %
b1000000000011010000 E
0!
#50
b1000000000011011000 #
b1000000000011011000 U
b1000000000011011000 T
b1000000000011011000 a
b1000000000011011000 F
b1000000000011011000 G
b1000000000011011000 _
b1000000000011010100 $
b1000000000011010100 %
b1000000000011010100 E
0!
#55
b1000000000011011100 #
b1000000000011011100 U
b1000000000011011100 T
b1000000000011011100 a
b1000000000011011100 F
b1000000000011011100 G
b1000000000011011100 _
b1000000000011011000 $
b1000000000011011000 %
b1000000000011011000 E
0!
#60
b1000000000011100000 #
b1000000000011100000 U
b1000000000011100000 T
b1000000000011100000 a
b1000000000011100000 F
b1000000000011100000 G
b1000000000011100000 _
b1000000000011011100 $
b1000000000011011100 %
b1000000000011011100 E
0!
#65
b1000000000011100100 #
b1000000000011100100 U
b1000000000011100100 T
b1000000000011100100 a
b1000000000011100100 F
b1000000000011100100 G
b1000000000011100100 _
b1000000000011100000 $
b1000000000011100000 %
b1000000000011100000 E
0!
#70
b1000000000011101000 #
b1000000000011101000 U
b1000000000011101000 T
b1000000000011101000 a
b1000000000011101000 F
b1000000000011101000 G
b1000000000011101000 _
b1000000000011100100 $
b1000000000011100100 %
b1000000000011100100 E
0!
#75
b1000000000011101100 #
b1000000000011101100 U
b1000000000011101100 T
b1000000000011101100 a
b1000000000011101100 F
b1000000000011101100 G
b1000000000011101100 _
b1000000000011101000 $
b1000000000011101000 %
b1000000000011101000 E
0!
#80
b1000000000011110000 #
b1000000000011110000 U
b1000000000011110000 T
b1000000000011110000 a
b1000000000011110000 F
b1000000000011110000 G
b1000000000011110000 _
b1000000000011101100 $
b1000000000011101100 %
b1000000000011101100 E
0!
#85
b1000000000011110100 #
b1000000000011110100 U
b1000000000011110100 T
b1000000000011110100 a
b1000000000011110100 F
b1000000000011110100 G
b1000000000011110100 _
b1000000000011110000 $
b1000000000011110000 %
b1000000000011110000 E
0!
#90
b1000000000011111000 #
b1000000000011111000 U
b1000000000011111000 T
b1000000000011111000 a
b1000000000011111000 F
b1000000000011111000 G
b1000000000011111000 _
b1000000000011110100 $
b1000000000011110100 %
b1000000000011110100 E
0!
#95
b1000000000011111100 #
b1000000000011111100 U
b1000000000011111100 T
b1000000000011111100 a
b1000000000011111100 F
b1000000000011111100 G
b1000000000011111100 _
b1000000000011111000 $
b1000000000011111000 %
b1000000000011111000 E
0!
#100
b1000000000100000000 #
b1000000000100000000 U
b1000000000100000000 T
b1000000000100000000 a
b1000000000100000000 F
b1000000000100000000 G
b1000000000100000000 _
b1000000000011111100 $
b1000000000011111100 %
b1000000000011111100 E
0!
#105
b1000000000100000100 #
b1000000000100000100 U
b1000000000100000100 T
b1000000000100000100 a
b1000000000100000100 F
b1000000000100000100 G
b1000000000100000100 _
b1000000000100000000 $
b1000000000100000000 %
b1000000000100000000 E
0!
#110
b1000000000100001000 #
b1000000000100001000 U
b1000000000100001000 T
b1000000000100001000 a
b1000000000100001000 F
b1000000000100001000 G
b1000000000100001000 _
b1000000000100000100 $
b1000000000100000100 %
b1000000000100000100 E
0!
#115
b1000000000100001100 #
b1000000000100001100 U
b1000000000100001100 T
b1000000000100001100 a
b1000000000100001100 F
b1000000000100001100 G
b1000000000100001100 _
b1000000000100001000 $
b1000000000100001000 %
b1000000000100001000 E
0!
#120
b1000000000100010000 #
b1000000000100010000 U
b1000000000100010000 T
b1000000000100010000 a
b1000000000100010000 F
b1000000000100010000 G
b1000000000100010000 _
b1000000000100001100 $
b1000000000100001100 %
b1000000000100001100 E
0!
#125
b1000000000100010100 #
b1000000000100010100 U
b1000000000100010100 T
b1000000000100010100 a
b1000000000100010100 F
b1000000000100010100 G
b1000000000100010100 _
b1000000000100010000 $
b1000000000100010000 %
b1000000000100010000 E
0!
#130
b1000000000100011000 #
b1000000000100011000 U
b1000000000100011000 T
b1000000000100011000 a
b1000000000100011000 F
b1000000000100011000 G
b1000000000100011000 _
b1000000000100010100 $
b1000000000100010100 %
b1000000000100010100 E
0!
#135
b1000000000100011100 #
b1000000000100011100 U
b1000000000100011100 T
b1000000000100011100 a
b1000000000100011100 F
b1000000000100011100 G
b1000000000100011100 _
b1000000000100011000 $
b1000000000100011000 %
b1000000000100011000 E
0!
#140
b1000000000100100000 #
b1000000000100100000 U
b1000000000100100000 T
b1000000000100100000 a
b1000000000100100000 F
b1000000000100100000 G
b1000000000100100000 _
b1000000000100011100 $
b1000000000100011100 %
b1000000000100011100 E
0!
#145
b1000000000100100100 #
b1000000000100100100 U
b1000000000100100100 T
b1000000000100100100 a
b1000000000100100100 F
b1000000000100100100 G
b1000000000100100100 _
b1000000000100100000 $
b1000000000100100000 %
b1000000000100100000 E
0!
#150
b1000000000100101000 #
b1000000000100101000 U
b1000000000100101000 T
b1000000000100101000 a
b1000000000100101000 F
b1000000000100101000 G
b1000000000100101000 _
b1000000000100100100 $
b1000000000100100100 %
b1000000000100100100 E
0!
#155
b1000000000100101100 #
b1000000000100101100 U
b1000000000100101100 T
b1000000000100101100 a
b1000000000100101100 F
b1000000000100101100 G
b1000000000100101100 _
b1000000000100101000 $
b1000000000100101000 %
b1000000000100101000 E
0!
#160
b1000000000100110000 #
b1000000000100110000 U
b1000000000100110000 T
b1000000000100110000 a
b1000000000100110000 F
b1000000000100110000 G
b1000000000100110000 _
b1000000000100101100 $
b1000000000100101100 %
b1000000000100101100 E
0!
#165
b1000000000100110100 #
b1000000000100110100 U
b1000000000100110100 T
b1000000000100110100 a
b1000000000100110100 F
b1000000000100110100 G
b1000000000100110100 _
b1000000000100110000 $
b1000000000100110000 %
b1000000000100110000 E
0!
#170
b1000000000100111000 #
b1000000000100111000 U
b1000000000100111000 T
b1000000000100111000 a
b1000000000100111000 F
b1000000000100111000 G
b1000000000100111000 _
b1000000000100110100 $
b1000000000100110100 %
b1000000000100110100 E
0!
#175
b1000000000100111100 #
b1000000000100111100 U
b1000000000100111100 T
b1000000000100111100 a
b1000000000100111100 F
b1000000000100111100 G
b1000000000100111100 _
b1000000000100111000 $
b1000000000100111000 %
b1000000000100111000 E
0!
#180
b1000000000101000000 #
b1000000000101000000 U
b1000000000101000000 T
b1000000000101000000 a
b1000000000101000000 F
b1000000000101000000 G
b1000000000101000000 _
b1000000000100111100 $
b1000000000100111100 %
b1000000000100111100 E
0!
#185
b1000000000101000100 #
b1000000000101000100 U
b1000000000101000100 T
b1000000000101000100 a
b1000000000101000100 F
b1000000000101000100 G
b1000000000101000100 _
b1000000000101000000 $
b1000000000101000000 %
b1000000000101000000 E
0!
#190
b1000000000101001000 #
b1000000000101001000 U
b1000000000101001000 T
b1000000000101001000 a
b1000000000101001000 F
b1000000000101001000 G
b1000000000101001000 _
b1000000000101000100 $
b1000000000101000100 %
b1000000000101000100 E
0!
#195
b1000000000101001100 #
b1000000000101001100 U
b1000000000101001100 T
b1000000000101001100 a
b1000000000101001100 F
b1000000000101001100 G
b1000000000101001100 _
b1000000000101001000 $
b1000000000101001000 %
b1000000000101001000 E
0!
#200
b1000000000101010000 #
b1000000000101010000 U
b1000000000101010000 T
b1000000000101010000 a
b1000000000101010000 F
b1000000000101010000 G
b1000000000101010000 _
b1000000000101001100 $
b1000000000101001100 %
b1000000000101001100 E
0!
#205
b1000000000101010100 #
b1000000000101010100 U
b1000000000101010100 T
b1000000000101010100 a
b1000000000101010100 F
b1000000000101010100 G
b1000000000101010100 _
b1000000000101010000 $
b1000000000101010000 %
b1000000000101010000 E
0!
#210
b1000000000101011000 #
b1000000000101011000 U
b1000000000101011000 T
b1000000000101011000 a
b1000000000101011000 F
b1000000000101011000 G
b1000000000101011000 _
b1000000000101010100 $
b1000000000101010100 %
b1000000000101010100 E
0!
#215
b1000000000101011100 #
b1000000000101011100 U
b1000000000101011100 T
b1000000000101011100 a
b1000000000101011100 F
b1000000000101011100 G
b1000000000101011100 _
b1000000000101011000 $
b1000000000101011000 %
b1000000000101011000 E
0!
#220
b1000000000101100000 #
b1000000000101100000 U
b1000000000101100000 T
b1000000000101100000 a
b1000000000101100000 F
b1000000000101100000 G
b1000000000101100000 _
b1000000000101011100 $
b1000000000101011100 %
b1000000000101011100 E
0!
#225
b1000000000101100100 #
b1000000000101100100 U
b1000000000101100100 T
b1000000000101100100 a
b1000000000101100100 F
b1000000000101100100 G
b1000000000101100100 _
b1000000000101100000 $
b1000000000101100000 %
b1000000000101100000 E
0!
#230
b1000000000101101000 #
b1000000000101101000 U
b1000000000101101000 T
b1000000000101101000 a
b1000000000101101000 F
b1000000000101101000 G
b1000000000101101000 _
b1000000000101100100 $
b1000000000101100100 %
b1000000000101100100 E
0!
#235
b1000000000101101100 #
b1000000000101101100 U
b1000000000101101100 T
b1000000000101101100 a
b1000000000101101100 F
b1000000000101101100 G
b1000000000101101100 _
b1000000000101101000 $
b1000000000101101000 %
b1000000000101101000 E
0!
#240
b1000000000101110000 #
b1000000000101110000 U
b1000000000101110000 T
b1000000000101110000 a
b1000000000101110000 F
b1000000000101110000 G
b1000000000101110000 _
b1000000000101101100 $
b1000000000101101100 %
b1000000000101101100 E
0!
#245
b1000000000101110100 #
b1000000000101110100 U
b1000000000101110100 T
b1000000000101110100 a
b1000000000101110100 F
b1000000000101110100 G
b1000000000101110100 _
b1000000000101110000 $
b1000000000101110000 %
b1000000000101110000 E
0!
#250
b1000000000101111000 #
b1000000000101111000 U
b1000000000101111000 T
b1000000000101111000 a
b1000000000101111000 F
b1000000000101111000 G
b1000000000101111000 _
b1000000000101110100 $
b1000000000101110100 %
b1000000000101110100 E
0!
#255
b1000000000101111100 #
b1000000000101111100 U
b1000000000101111100 T
b1000000000101111100 a
b1000000000101111100 F
b1000000000101111100 G
b1000000000101111100 _
b1000000000101111000 $
b1000000000101111000 %
b1000000000101111000 E
0!
#260
b1000000000110000000 #
b1000000000110000000 U
b1000000000110000000 T
b1000000000110000000 a
b1000000000110000000 F
b1000000000110000000 G
b1000000000110000000 _
b1000000000101111100 $
b1000000000101111100 %
b1000000000101111100 E
0!
#265
b1000000000110000100 #
b1000000000110000100 U
b1000000000110000100 T
b1000000000110000100 a
b1000000000110000100 F
b1000000000110000100 G
b1000000000110000100 _
b1000000000110000000 $
b1000000000110000000 %
b1000000000110000000 E
0!
#270
b1000000000110001000 #
b1000000000110001000 U
b1000000000110001000 T
b1000000000110001000 a
b1000000000110001000 F
b1000000000110001000 G
b1000000000110001000 _
b1000000000110000100 $
b1000000000110000100 %
b1000000000110000100 E
0!
#275
b1000000000110001100 #
b1000000000110001100 U
b1000000000110001100 T
b1000000000110001100 a
b1000000000110001100 F
b1000000000110001100 G
b1000000000110001100 _
b1000000000110001000 $
b1000000000110001000 %
b1000000000110001000 E
0!
#280
b1000000000110010000 #
b1000000000110010000 U
b1000000000110010000 T
b1000000000110010000 a
b1000000000110010000 F
b1000000000110010000 G
b1000000000110010000 _
b1000000000110001100 $
b1000000000110001100 %
b1000000000110001100 E
0!
#285
b1000000000110010100 #
b1000000000110010100 U
b1000000000110010100 T
b1000000000110010100 a
b1000000000110010100 F
b1000000000110010100 G
b1000000000110010100 _
b1000000000110010000 $
b1000000000110010000 %
b1000000000110010000 E
0!
#290
b1000000000110011000 #
b1000000000110011000 U
b1000000000110011000 T
b1000000000110011000 a
b1000000000110011000 F
b1000000000110011000 G
b1000000000110011000 _
b1000000000110010100 $
b1000000000110010100 %
b1000000000110010100 E
0!
#295
b1000000000110011100 #
b1000000000110011100 U
b1000000000110011100 T
b1000000000110011100 a
b1000000000110011100 F
b1000000000110011100 G
b1000000000110011100 _
b1000000000110011000 $
b1000000000110011000 %
b1000000000110011000 E
0!
#300
b1000000000110100000 #
b1000000000110100000 U
b1000000000110100000 T
b1000000000110100000 a
b1000000000110100000 F
b1000000000110100000 G
b1000000000110100000 _
b1000000000110011100 $
b1000000000110011100 %
b1000000000110011100 E
0!
#305
b1000000000110100100 #
b1000000000110100100 U
b1000000000110100100 T
b1000000000110100100 a
b1000000000110100100 F
b1000000000110100100 G
b1000000000110100100 _
b1000000000110100000 $
b1000000000110100000 %
b1000000000110100000 E
0!
#310
b1000000000110101000 #
b1000000000110101000 U
b1000000000110101000 T
b1000000000110101000 a
b1000000000110101000 F
b1000000000110101000 G
b1000000000110101000 _
b1000000000110100100 $
b1000000000110100100 %
b1000000000110100100 E
0!
#315
b1000000000110101100 #
b1000000000110101100 U
b1000000000110101100 T
b1000000000110101100 a
b1000000000110101100 F
b1000000000110101100 G
b1000000000110101100 _
b1000000000110101000 $
b1000000000110101000 %
b1000000000110101000 E
0!
#320
b1000000000110110000 #
b1000000000110110000 U
b1000000000110110000 T
b1000000000110110000 a
b1000000000110110000 F
b1000000000110110000 G
b1000000000110110000 _
b1000000000110101100 $
b1000000000110101100 %
b1000000000110101100 E
0!
#325
b1000000000110110100 #
b1000000000110110100 U
b1000000000110110100 T
b1000000000110110100 a
b1000000000110110100 F
b1000000000110110100 G
b1000000000110110100 _
b1000000000110110000 $
b1000000000110110000 %
b1000000000110110000 E
0!
#330
b1000000000110111000 #
b1000000000110111000 U
b1000000000110111000 T
b1000000000110111000 a
b1000000000110111000 F
b1000000000110111000 G
b1000000000110111000 _
b1000000000110110100 $
b1000000000110110100 %
b1000000000110110100 E
0!
#335
b1000000000110111100 #
b1000000000110111100 U
b1000000000110111100 T
b1000000000110111100 a
b1000000000110111100 F
b1000000000110111100 G
b1000000000110111100 _
b1000000000110111000 $
b1000000000110111000 %
b1000000000110111000 E
0!
#340
b1000000000111000000 #
b1000000000111000000 U
b1000000000111000000 T
b1000000000111000000 a
b1000000000111000000 F
b1000000000111000000 G
b1000000000111000000 _
b1000000000110111100 $
b1000000000110111100 %
b1000000000110111100 E
0!
#345
b1000000000111000100 #
b1000000000111000100 U
b1000000000111000100 T
b1000000000111000100 a
b1000000000111000100 F
b1000000000111000100 G
b1000000000111000100 _
b1000000000111000000 $
b1000000000111000000 %
b1000000000111000000 E
0!
#350
b1000000000111001000 #
b1000000000111001000 U
b1000000000111001000 T
b1000000000111001000 a
b1000000000111001000 F
b1000000000111001000 G
b1000000000111001000 _
b1000000000111000100 $
b1000000000111000100 %
b1000000000111000100 E
0!
#355
b1000000000111001100 #
b1000000000111001100 U
b1000000000111001100 T
b1000000000111001100 a
b1000000000111001100 F
b1000000000111001100 G
b1000000000111001100 _
b1000000000111001000 $
b1000000000111001000 %
b1000000000111001000 E
0!
#360
b1000000000111010000 #
b1000000000111010000 U
b1000000000111010000 T
b1000000000111010000 a
b1000000000111010000 F
b1000000000111010000 G
b1000000000111010000 _
b1000000000111001100 $
b1000000000111001100 %
b1000000000111001100 E
0!
#365
b1000000000111010100 #
b1000000000111010100 U
b1000000000111010100 T
b1000000000111010100 a
b1000000000111010100 F
b1000000000111010100 G
b1000000000111010100 _
b1000000000111010000 $
b1000000000111010000 %
b1000000000111010000 E
0!
#370
b1000000000111011000 #
b1000000000111011000 U
b1000000000111011000 T
b1000000000111011000 a
b1000000000111011000 F
b1000000000111011000 G
b1000000000111011000 _
b1000000000111010100 $
b1000000000111010100 %
b1000000000111010100 E
0!
#375
b1000000000111011100 #
b1000000000111011100 U
b1000000000111011100 T
b1000000000111011100 a
b1000000000111011100 F
b1000000000111011100 G
b1000000000111011100 _
b1000000000111011000 $
b1000000000111011000 %
b1000000000111011000 E
0!
#380
b1000000000111100000 #
b1000000000111100000 U
b1000000000111100000 T
b1000000000111100000 a
b1000000000111100000 F
b1000000000111100000 G
b1000000000111100000 _
b1000000000111011100 $
b1000000000111011100 %
b1000000000111011100 E
0!
#385
b1000000000111100100 #
b1000000000111100100 U
b1000000000111100100 T
b1000000000111100100 a
b1000000000111100100 F
b1000000000111100100 G
b1000000000111100100 _
b1000000000111100000 $
b1000000000111100000 %
b1000000000111100000 E
0!
#390
b1000000000111101000 #
b1000000000111101000 U
b1000000000111101000 T
b1000000000111101000 a
b1000000000111101000 F
b1000000000111101000 G
b1000000000111101000 _
b1000000000111100100 $
b1000000000111100100 %
b1000000000111100100 E
0!
#395
b1000000000111101100 #
b1000000000111101100 U
b1000000000111101100 T
b1000000000111101100 a
b1000000000111101100 F
b1000000000111101100 G
b1000000000111101100 _
b1000000000111101000 $
b1000000000111101000 %
b1000000000111101000 E
0!
#400
b1000000000111110000 #
b1000000000111110000 U
b1000000000111110000 T
b1000000000111110000 a
b1000000000111110000 F
b1000000000111110000 G
b1000000000111110000 _
b1000000000111101100 $
b1000000000111101100 %
b1000000000111101100 E
0!
#405
b1000000000111110100 #
b1000000000111110100 U
b1000000000111110100 T
b1000000000111110100 a
b1000000000111110100 F
b1000000000111110100 G
b1000000000111110100 _
b1000000000111110000 $
b1000000000111110000 %
b1000000000111110000 E
0!
#410
b1000000000111111000 #
b1000000000111111000 U
b1000000000111111000 T
b1000000000111111000 a
b1000000000111111000 F
b1000000000111111000 G
b1000000000111111000 _
b1000000000111110100 $
b1000000000111110100 %
b1000000000111110100 E
0!
#415
b1000000000111111100 #
b1000000000111111100 U
b1000000000111111100 T
b1000000000111111100 a
b1000000000111111100 F
b1000000000111111100 G
b1000000000111111100 _
b1000000000111111000 $
b1000000000111111000 %
b1000000000111111000 E
0!
#420
b1000000001000000000 #
b1000000001000000000 U
b1000000001000000000 T
b1000000001000000000 a
b1000000001000000000 F
b1000000001000000000 G
b1000000001000000000 _
b1000000000111111100 $
b1000000000111111100 %
b1000000000111111100 E
0!
#425
b1000000001000000100 #
b1000000001000000100 U
b1000000001000000100 T
b1000000001000000100 a
b1000000001000000100 F
b1000000001000000100 G
b1000000001000000100 _
b1000000001000000000 $
b1000000001000000000 %
b1000000001000000000 E
0!
#430
b1000000001000001000 #
b1000000001000001000 U
b1000000001000001000 T
b1000000001000001000 a
b1000000001000001000 F
b1000000001000001000 G
b1000000001000001000 _
b1000000001000000100 $
b1000000001000000100 %
b1000000001000000100 E
0!
#435
b1000000001000001100 #
b1000000001000001100 U
b1000000001000001100 T
b1000000001000001100 a
b1000000001000001100 F
b1000000001000001100 G
b1000000001000001100 _
b1000000001000001000 $
b1000000001000001000 %
b1000000001000001000 E
0!
#440
b1000000001000010000 #
b1000000001000010000 U
b1000000001000010000 T
b1000000001000010000 a
b1000000001000010000 F
b1000000001000010000 G
b1000000001000010000 _
b1000000001000001100 $
b1000000001000001100 %
b1000000001000001100 E
0!
#445
b1000000001000010100 #
b1000000001000010100 U
b1000000001000010100 T
b1000000001000010100 a
b1000000001000010100 F
b1000000001000010100 G
b1000000001000010100 _
b1000000001000010000 $
b1000000001000010000 %
b1000000001000010000 E
0!
#450
b1000000001000011000 #
b1000000001000011000 U
b1000000001000011000 T
b1000000001000011000 a
b1000000001000011000 F
b1000000001000011000 G
b1000000001000011000 _
b1000000001000010100 $
b1000000001000010100 %
b1000000001000010100 E
0!
#455
b1000000001000011100 #
b1000000001000011100 U
b1000000001000011100 T
b1000000001000011100 a
b1000000001000011100 F
b1000000001000011100 G
b1000000001000011100 _
b1000000001000011000 $
b1000000001000011000 %
b1000000001000011000 E
0!
#460
b1000000001000100000 #
b1000000001000100000 U
b1000000001000100000 T
b1000000001000100000 a
b1000000001000100000 F
b1000000001000100000 G
b1000000001000100000 _
b1000000001000011100 $
b1000000001000011100 %
b1000000001000011100 E
0!
#465
b1000000001000100100 #
b1000000001000100100 U
b1000000001000100100 T
b1000000001000100100 a
b1000000001000100100 F
b1000000001000100100 G
b1000000001000100100 _
b1000000001000100000 $
b1000000001000100000 %
b1000000001000100000 E
0!
#470
b1000000001000101000 #
b1000000001000101000 U
b1000000001000101000 T
b1000000001000101000 a
b1000000001000101000 F
b1000000001000101000 G
b1000000001000101000 _
b1000000001000100100 $
b1000000001000100100 %
b1000000001000100100 E
0!
#475
b1000000001000101100 #
b1000000001000101100 U
b1000000001000101100 T
b1000000001000101100 a
b1000000001000101100 F
b1000000001000101100 G
b1000000001000101100 _
b1000000001000101000 $
b1000000001000101000 %
b1000000001000101000 E
0!
#480
b1000000001000110000 #
b1000000001000110000 U
b1000000001000110000 T
b1000000001000110000 a
b1000000001000110000 F
b1000000001000110000 G
b1000000001000110000 _
b1000000001000101100 $
b1000000001000101100 %
b1000000001000101100 E
0!
#485
b1000000001000110100 #
b1000000001000110100 U
b1000000001000110100 T
b1000000001000110100 a
b1000000001000110100 F
b1000000001000110100 G
b1000000001000110100 _
b1000000001000110000 $
b1000000001000110000 %
b1000000001000110000 E
0!
#490
b1000000001000111000 #
b1000000001000111000 U
b1000000001000111000 T
b1000000001000111000 a
b1000000001000111000 F
b1000000001000111000 G
b1000000001000111000 _
b1000000001000110100 $
b1000000001000110100 %
b1000000001000110100 E
0!
#495
b1000000001000111100 #
b1000000001000111100 U
b1000000001000111100 T
b1000000001000111100 a
b1000000001000111100 F
b1000000001000111100 G
b1000000001000111100 _
b1000000001000111000 $
b1000000001000111000 %
b1000000001000111000 E
0!
#500
b1000000001001000000 #
b1000000001001000000 U
b1000000001001000000 T
b1000000001001000000 a
b1000000001001000000 F
b1000000001001000000 G
b1000000001001000000 _
b1000000001000111100 $
b1000000001000111100 %
b1000000001000111100 E
0!
