cleanup/results/CPUFileTest.vcd
$date
	Wed Dec 12 22:59:11 2018
$end
$version
	Icarus Verilog
$end
$timescale
	1s
$end
$scope module CPUTester $end
$var reg 1 ! clk $end
$upscope $end
$scope module CPUTester $end
$var reg 1 " reset $end
$upscope $end
$scope module CPUTester $end
$scope module CPU $end
$scope module Program_Counter $end
$var wire 1 ! Clk $end
$var wire 32 # PCNext [31:0] $end
$var wire 1 " Reset $end
$var reg 32 $ PCResult [31:0] $end
$upscope $end
$upscope $end
$upscope $end
$scope module CPUTester $end
$scope module CPU $end
$scope module Instruction_Memory $end
$var wire 1 ! Enable $end
$var wire 32 % PC [31:0] $end
$var wire 32 & Instruction [31:0] $end
$upscope $end
$upscope $end
$upscope $end
$scope module CPUTester $end
$scope module CPU $end
$scope module Control_Unit $end
$var wire 1 ! clk $end
$var wire 6 ' opcode [5:0] $end
$var wire 1 " reset $end
$var reg 3 ( aluCode [2:0] $end
$var reg 1 ) alu_src $end
$var reg 1 * branch $end
$var reg 1 + jump $end
$var reg 1 , memRead $end
$var reg 1 - memWrite $end
$var reg 1 . mem_to_reg $end
$var reg 1 / reg_dst $end
$var reg 1 0 reg_write $end
$upscope $end
$upscope $end
$upscope $end
$scope module CPUTester $end
$scope module CPU $end
$scope module alu $end
$var wire 32 1 a [31:0] $end
$var wire 3 2 aluCode [2:0] $end
$var wire 6 3 operation [5:0] $end
$var wire 32 4 b [31:0] $end
$var reg 32 5 Result [31:0] $end
$var reg 32 6 tempVar [31:0] $end
$var reg 1 7 zeroFlag $end
$var integer 32 8 counter [31:0] $end
$var integer 32 9 index [31:0] $end
$var integer 32 : var [31:0] $end
$upscope $end
$upscope $end
$upscope $end
$scope module CPUTester $end
$scope module CPU $end
$scope module Register_File $end
$var wire 5 ; A_Address [4:0] $end
$var wire 5 < B_Address [4:0] $end
$var wire 32 = C_Data [31:0] $end
$var wire 1 ! Clk $end
$var wire 1 . Write $end
$var wire 5 > C_Address [4:0] $end
$var reg 32 ? A_Data [31:0] $end
$var reg 32 @ B_Data [31:0] $end
$upscope $end
$upscope $end
$upscope $end
$scope module CPUTester $end
$scope module CPU $end
$scope module ram $end
$var wire 32 A address [31:0] $end
$var wire 1 ! clk $end
$var wire 32 B dataIn [31:0] $end
$var wire 1 , read $end
$var wire 1 - write $end
$var reg 32 C output_destination [31:0] $end
$upscope $end
$upscope $end
$upscope $end
$scope module CPUTester $end
$scope module CPU $end
$scope module addFour $end
$var wire 32 D pc [31:0] $end
$var wire 32 E result [31:0] $end
$upscope $end
$upscope $end
$upscope $end
$scope module CPUTester $end
$scope module CPU $end
$scope module Jump_Mux $end
$var wire 32 F one [31:0] $end
$var wire 1 + s $end
$var wire 32 G zero [31:0] $end
$var reg 32 H result [31:0] $end
$upscope $end
$upscope $end
$upscope $end
$scope module CPUTester $end
$scope module CPU $end
$scope module ALU_Mux $end
$var wire 32 I zero [31:0] $end
$var wire 1 ) s $end
$var wire 32 J one [31:0] $end
$var reg 32 K result [31:0] $end
$upscope $end
$upscope $end
$upscope $end
$scope module CPUTester $end
$scope module CPU $end
$scope module Register_Mux $end
$var wire 5 L one [4:0] $end
$var wire 1 / s $end
$var wire 5 M zero [4:0] $end
$var reg 5 N result [4:0] $end
$upscope $end
$upscope $end
$upscope $end
$scope module CPUTester $end
$scope module CPU $end
$scope module RAM_Mux $end
$var wire 1 . s $end
$var wire 32 O zero [31:0] $end
$var wire 32 P one [31:0] $end
$var reg 32 Q result [31:0] $end
$upscope $end
$upscope $end
$upscope $end
$scope module CPUTester $end
$scope module CPU $end
$scope module Branch_Mux $end
$var wire 32 R zero [31:0] $end
$var wire 1 S s $end
$var wire 32 T one [31:0] $end
$var reg 32 U result [31:0] $end
$upscope $end
$upscope $end
$upscope $end
$enddefinitions $end
#0
$dumpvars
b100 U
b10110100 T
0S
b100 R
bx Q
bx P
bx O
b1 N
b1 M
b0 L
b101100 K
b101100 J
bx I
b100 H
b100 G
b1000000000010110000 F
b100 E
b0 D
bx C
bx B
bx A
bx @
bx ?
b1 >
bx =
b1 <
b0 ;
b0 :
bx 9
b0 8
x7
bx 6
bx 5
b101100 4
b101100 3
b101 2
bx 1
10
0/
1.
0-
0,
0+
0*
1)
b101 (
b1001 '
b100100000000010000000000101100 &
b0 %
b0 $
b100 #
0"
0!
$end
#5
bx0 =
bx0 Q
bx K
b1000 #
b1000 H
b0 4
b0 J
bx0 5
bx0 A
bx0 O
b100010000000000000000000 F
b10 >
b10 N
0.
b0 (
b0 2
0)
00
b1000 G
b1000 U
b1000 T
b0 3
b10 <
b1 ;
b10 M
b100100 '
b1000 E
b1000 R
b10010000001000100000000000000000 &
b100 $
b100 %
b100 D
1!
#10
0!
#15
bx =
bx Q
b100100 K
b1100 #
b1100 H
b100100 4
b100100 J
bx 5
bx A
bx O
b100100000000000010010000 F
b100 >
b100 N
1.
b101 (
b101 2
1)
10
b1100 G
b1100 U
b10011100 T
b100100 3
b100 <
b100 M
b1001 '
b1100 E
b1100 R
b100100001001000000000000100100 &
b1000 $
b1000 %
b1000 D
1!
#20
0!
#25
bx K
b10000 #
b10000 H
b10100000100001 4
b10100000100001 J
b1010000010000100 F
b101 >
b101 N
0.
b0 (
b0 2
0)
1/
b10000 G
b10000 U
b1010000010010100 T
b100001 3
b101 L
b0 <
b0 ;
b0 M
b0 '
b10000 E
b10000 R
b10100000100001 &
b1100 $
b1100 %
b1100 D
1!
#30
b10100000100001 =
b10100000100001 Q
b0 K
b10100000100001 5
b10100000100001 A
b10100000100001 O
b0 @
b0 B
b0 I
b0 1
b0 ?
0!
#35
b10100 #
b10100 H
b10100010001010000010000100 F
b10100 G
b10100 U
b1010000010011000 T
b10 <
b101 ;
b10 M
b10100 E
b10100 R
b101000100010100000100001 &
b10000 $
b10000 %
b10000 D
1!
#40
bx =
bx Q
bx K
bx 5
bx A
bx O
bx @
bx B
bx I
bx 1
bx ?
0!
#45
b11111111111111111111111111111111 K
b11000 #
b11000 H
b11111111111111111111111111111111 4
b11111111111111111111111111111111 J
b1100011111111111111111100 F
b11 >
b11 N
1.
b101 (
b101 2
1)
0/
b11000 G
b11000 U
b10100 T
b111111 3
b11111 L
b11 <
b11 ;
b11 M
b1001 '
b11000 E
b11000 R
b100100011000111111111111111111 &
b10100 $
b10100 %
b10100 D
1!
#50
0!
#55
xS
b0x =
b0x Q
bx K
b10000 #
b10000 H
b11111111111111111111111111111101 4
b11111111111111111111111111111101 J
b0x 5
b0x A
b0x O
b1100000111111111111110100 F
b0 >
b0 N
1*
0.
b11 (
b11 2
0)
00
b10000 G
b10000 U
b10000 T
b111101 3
b0 <
b0 M
b111 '
b11100 E
b11100 R
b11100011000001111111111111101 &
b11000 $
b11000 %
b11000 D
1!
#60
b0 K
b0 @
b0 B
b0 I
0!
#65
bx =
bx Q
0S
b10100 #
b10100 H
bx 5
bx A
bx O
b10100000100001 4
b10100000100001 J
b10100010001010000010000100 F
b101 >
b101 N
0*
b0 (
b0 2
10
1/
b10100 G
b10100 U
b1010000010011000 T
b100001 3
b101 L
b10 <
b101 ;
b10 M
b0 '
b10100 E
b10100 R
b101000100010100000100001 &
b10000 $
b10000 %
b10000 D
1!
#70
bx K
bx @
bx B
bx I
0!
#75
b11111111111111111111111111111111 K
b11000 #
b11000 H
b11111111111111111111111111111111 4
b11111111111111111111111111111111 J
b1100011111111111111111100 F
b11 >
b11 N
1.
b101 (
b101 2
1)
0/
b11000 G
b11000 U
b10100 T
b111111 3
b11111 L
b11 <
b11 ;
b11 M
b1001 '
b11000 E
b11000 R
b100100011000111111111111111111 &
b10100 $
b10100 %
b10100 D
1!
#80
0!
#85
xS
b0x =
b0x Q
bx K
b10000 #
b10000 H
b11111111111111111111111111111101 4
b11111111111111111111111111111101 J
b0x 5
b0x A
b0x O
b1100000111111111111110100 F
b0 >
b0 N
1*
0.
b11 (
b11 2
0)
00
b10000 G
b10000 U
b10000 T
b111101 3
b0 <
b0 M
b111 '
b11100 E
b11100 R
b11100011000001111111111111101 &
b11000 $
b11000 %
b11000 D
1!
#90
b0 K
b0 @
b0 B
b0 I
0!
#95
bx =
bx Q
0S
b10100 #
b10100 H
bx 5
bx A
bx O
b10100000100001 4
b10100000100001 J
b10100010001010000010000100 F
b101 >
b101 N
0*
b0 (
b0 2
10
1/
b10100 G
b10100 U
b1010000010011000 T
b100001 3
b101 L
b10 <
b101 ;
b10 M
b0 '
b10100 E
b10100 R
b101000100010100000100001 &
b10000 $
b10000 %
b10000 D
1!
#100
bx K
bx @
bx B
bx I
0!
#105
b11111111111111111111111111111111 K
b11000 #
b11000 H
b11111111111111111111111111111111 4
b11111111111111111111111111111111 J
b1100011111111111111111100 F
b11 >
b11 N
1.
b101 (
b101 2
1)
0/
b11000 G
b11000 U
b10100 T
b111111 3
b11111 L
b11 <
b11 ;
b11 M
b1001 '
b11000 E
b11000 R
b100100011000111111111111111111 &
b10100 $
b10100 %
b10100 D
1!
#110
0!
#115
xS
b0x =
b0x Q
bx K
b10000 #
b10000 H
b11111111111111111111111111111101 4
b11111111111111111111111111111101 J
b0x 5
b0x A
b0x O
b1100000111111111111110100 F
b0 >
b0 N
1*
0.
b11 (
b11 2
0)
00
b10000 G
b10000 U
b10000 T
b111101 3
b0 <
b0 M
b111 '
b11100 E
b11100 R
b11100011000001111111111111101 &
b11000 $
b11000 %
b11000 D
1!
#120
b0 K
b0 @
b0 B
b0 I
0!
#125
bx =
bx Q
0S
b10100 #
b10100 H
bx 5
bx A
bx O
b10100000100001 4
b10100000100001 J
b10100010001010000010000100 F
b101 >
b101 N
0*
b0 (
b0 2
10
1/
b10100 G
b10100 U
b1010000010011000 T
b100001 3
b101 L
b10 <
b101 ;
b10 M
b0 '
b10100 E
b10100 R
b101000100010100000100001 &
b10000 $
b10000 %
b10000 D
1!
#130
bx K
bx @
bx B
bx I
0!
#135
b11111111111111111111111111111111 K
b11000 #
b11000 H
b11111111111111111111111111111111 4
b11111111111111111111111111111111 J
b1100011111111111111111100 F
b11 >
b11 N
1.
b101 (
b101 2
1)
0/
b11000 G
b11000 U
b10100 T
b111111 3
b11111 L
b11 <
b11 ;
b11 M
b1001 '
b11000 E
b11000 R
b100100011000111111111111111111 &
b10100 $
b10100 %
b10100 D
1!
#140
0!
#145
xS
b0x =
b0x Q
bx K
b10000 #
b10000 H
b11111111111111111111111111111101 4
b11111111111111111111111111111101 J
b0x 5
b0x A
b0x O
b1100000111111111111110100 F
b0 >
b0 N
1*
0.
b11 (
b11 2
0)
00
b10000 G
b10000 U
b10000 T
b111101 3
b0 <
b0 M
b111 '
b11100 E
b11100 R
b11100011000001111111111111101 &
b11000 $
b11000 %
b11000 D
1!
#150
b0 K
b0 @
b0 B
b0 I
0!
#155
bx =
bx Q
0S
b10100 #
b10100 H
bx 5
bx A
bx O
b10100000100001 4
b10100000100001 J
b10100010001010000010000100 F
b101 >
b101 N
0*
b0 (
b0 2
10
1/
b10100 G
b10100 U
b1010000010011000 T
b100001 3
b101 L
b10 <
b101 ;
b10 M
b0 '
b10100 E
b10100 R
b101000100010100000100001 &
b10000 $
b10000 %
b10000 D
1!
#160
bx K
bx @
bx B
bx I
0!
#165
b11111111111111111111111111111111 K
b11000 #
b11000 H
b11111111111111111111111111111111 4
b11111111111111111111111111111111 J
b1100011111111111111111100 F
b11 >
b11 N
1.
b101 (
b101 2
1)
0/
b11000 G
b11000 U
b10100 T
b111111 3
b11111 L
b11 <
b11 ;
b11 M
b1001 '
b11000 E
b11000 R
b100100011000111111111111111111 &
b10100 $
b10100 %
b10100 D
1!
#170
0!
#175
xS
b0x =
b0x Q
bx K
b10000 #
b10000 H
b11111111111111111111111111111101 4
b11111111111111111111111111111101 J
b0x 5
b0x A
b0x O
b1100000111111111111110100 F
b0 >
b0 N
1*
0.
b11 (
b11 2
0)
00
b10000 G
b10000 U
b10000 T
b111101 3
b0 <
b0 M
b111 '
b11100 E
b11100 R
b11100011000001111111111111101 &
b11000 $
b11000 %
b11000 D
1!
#180
b0 K
b0 @
b0 B
b0 I
0!
#185
bx =
bx Q
0S
b10100 #
b10100 H
bx 5
bx A
bx O
b10100000100001 4
b10100000100001 J
b10100010001010000010000100 F
b101 >
b101 N
0*
b0 (
b0 2
10
1/
b10100 G
b10100 U
b1010000010011000 T
b100001 3
b101 L
b10 <
b101 ;
b10 M
b0 '
b10100 E
b10100 R
b101000100010100000100001 &
b10000 $
b10000 %
b10000 D
1!
#190
bx K
bx @
bx B
bx I
0!
#195
b11111111111111111111111111111111 K
b11000 #
b11000 H
b11111111111111111111111111111111 4
b11111111111111111111111111111111 J
b1100011111111111111111100 F
b11 >
b11 N
1.
b101 (
b101 2
1)
0/
b11000 G
b11000 U
b10100 T
b111111 3
b11111 L
b11 <
b11 ;
b11 M
b1001 '
b11000 E
b11000 R
b100100011000111111111111111111 &
b10100 $
b10100 %
b10100 D
1!
#200
0!
#205
xS
b0x =
b0x Q
bx K
b10000 #
b10000 H
b11111111111111111111111111111101 4
b11111111111111111111111111111101 J
b0x 5
b0x A
b0x O
b1100000111111111111110100 F
b0 >
b0 N
1*
0.
b11 (
b11 2
0)
00
b10000 G
b10000 U
b10000 T
b111101 3
b0 <
b0 M
b111 '
b11100 E
b11100 R
b11100011000001111111111111101 &
b11000 $
b11000 %
b11000 D
1!
#210
b0 K
b0 @
b0 B
b0 I
0!
#215
bx =
bx Q
0S
b10100 #
b10100 H
bx 5
bx A
bx O
b10100000100001 4
b10100000100001 J
b10100010001010000010000100 F
b101 >
b101 N
0*
b0 (
b0 2
10
1/
b10100 G
b10100 U
b1010000010011000 T
b100001 3
b101 L
b10 <
b101 ;
b10 M
b0 '
b10100 E
b10100 R
b101000100010100000100001 &
b10000 $
b10000 %
b10000 D
1!
#220
bx K
bx @
bx B
bx I
0!
#225
b11111111111111111111111111111111 K
b11000 #
b11000 H
b11111111111111111111111111111111 4
b11111111111111111111111111111111 J
b1100011111111111111111100 F
b11 >
b11 N
1.
b101 (
b101 2
1)
0/
b11000 G
b11000 U
b10100 T
b111111 3
b11111 L
b11 <
b11 ;
b11 M
b1001 '
b11000 E
b11000 R
b100100011000111111111111111111 &
b10100 $
b10100 %
b10100 D
1!
#230
0!
#235
xS
b0x =
b0x Q
bx K
b10000 #
b10000 H
b11111111111111111111111111111101 4
b11111111111111111111111111111101 J
b0x 5
b0x A
b0x O
b1100000111111111111110100 F
b0 >
b0 N
1*
0.
b11 (
b11 2
0)
00
b10000 G
b10000 U
b10000 T
b111101 3
b0 <
b0 M
b111 '
b11100 E
b11100 R
b11100011000001111111111111101 &
b11000 $
b11000 %
b11000 D
1!
#240
b0 K
b0 @
b0 B
b0 I
0!
#245
bx =
bx Q
0S
b10100 #
b10100 H
bx 5
bx A
bx O
b10100000100001 4
b10100000100001 J
b10100010001010000010000100 F
b101 >
b101 N
0*
b0 (
b0 2
10
1/
b10100 G
b10100 U
b1010000010011000 T
b100001 3
b101 L
b10 <
b101 ;
b10 M
b0 '
b10100 E
b10100 R
b101000100010100000100001 &
b10000 $
b10000 %
b10000 D
1!
#250
bx K
bx @
bx B
bx I
0!
#255
b11111111111111111111111111111111 K
b11000 #
b11000 H
b11111111111111111111111111111111 4
b11111111111111111111111111111111 J
b1100011111111111111111100 F
b11 >
b11 N
1.
b101 (
b101 2
1)
0/
b11000 G
b11000 U
b10100 T
b111111 3
b11111 L
b11 <
b11 ;
b11 M
b1001 '
b11000 E
b11000 R
b100100011000111111111111111111 &
b10100 $
b10100 %
b10100 D
1!
#260
0!
#265
xS
b0x =
b0x Q
bx K
b10000 #
b10000 H
b11111111111111111111111111111101 4
b11111111111111111111111111111101 J
b0x 5
b0x A
b0x O
b1100000111111111111110100 F
b0 >
b0 N
1*
0.
b11 (
b11 2
0)
00
b10000 G
b10000 U
b10000 T
b111101 3
b0 <
b0 M
b111 '
b11100 E
b11100 R
b11100011000001111111111111101 &
b11000 $
b11000 %
b11000 D
1!
#270
b0 K
b0 @
b0 B
b0 I
0!
#275
bx =
bx Q
0S
b10100 #
b10100 H
bx 5
bx A
bx O
b10100000100001 4
b10100000100001 J
b10100010001010000010000100 F
b101 >
b101 N
0*
b0 (
b0 2
10
1/
b10100 G
b10100 U
b1010000010011000 T
b100001 3
b101 L
b10 <
b101 ;
b10 M
b0 '
b10100 E
b10100 R
b101000100010100000100001 &
b10000 $
b10000 %
b10000 D
1!
#280
bx K
bx @
bx B
bx I
0!
#285
b11111111111111111111111111111111 K
b11000 #
b11000 H
b11111111111111111111111111111111 4
b11111111111111111111111111111111 J
b1100011111111111111111100 F
b11 >
b11 N
1.
b101 (
b101 2
1)
0/
b11000 G
b11000 U
b10100 T
b111111 3
b11111 L
b11 <
b11 ;
b11 M
b1001 '
b11000 E
b11000 R
b100100011000111111111111111111 &
b10100 $
b10100 %
b10100 D
1!
#290
0!
#295
xS
b0x =
b0x Q
bx K
b10000 #
b10000 H
b11111111111111111111111111111101 4
b11111111111111111111111111111101 J
b0x 5
b0x A
b0x O
b1100000111111111111110100 F
b0 >
b0 N
1*
0.
b11 (
b11 2
0)
00
b10000 G
b10000 U
b10000 T
b111101 3
b0 <
b0 M
b111 '
b11100 E
b11100 R
b11100011000001111111111111101 &
b11000 $
b11000 %
b11000 D
1!
#300
b0 K
b0 @
b0 B
b0 I
0!
#305
bx =
bx Q
0S
b10100 #
b10100 H
bx 5
bx A
bx O
b10100000100001 4
b10100000100001 J
b10100010001010000010000100 F
b101 >
b101 N
0*
b0 (
b0 2
10
1/
b10100 G
b10100 U
b1010000010011000 T
b100001 3
b101 L
b10 <
b101 ;
b10 M
b0 '
b10100 E
b10100 R
b101000100010100000100001 &
b10000 $
b10000 %
b10000 D
1!
#310
bx K
bx @
bx B
bx I
0!
#315
b11111111111111111111111111111111 K
b11000 #
b11000 H
b11111111111111111111111111111111 4
b11111111111111111111111111111111 J
b1100011111111111111111100 F
b11 >
b11 N
1.
b101 (
b101 2
1)
0/
b11000 G
b11000 U
b10100 T
b111111 3
b11111 L
b11 <
b11 ;
b11 M
b1001 '
b11000 E
b11000 R
b100100011000111111111111111111 &
b10100 $
b10100 %
b10100 D
1!
#320
0!
#325
xS
b0x =
b0x Q
bx K
b10000 #
b10000 H
b11111111111111111111111111111101 4
b11111111111111111111111111111101 J
b0x 5
b0x A
b0x O
b1100000111111111111110100 F
b0 >
b0 N
1*
0.
b11 (
b11 2
0)
00
b10000 G
b10000 U
b10000 T
b111101 3
b0 <
b0 M
b111 '
b11100 E
b11100 R
b11100011000001111111111111101 &
b11000 $
b11000 %
b11000 D
1!
#330
b0 K
b0 @
b0 B
b0 I
0!
#335
bx =
bx Q
0S
b10100 #
b10100 H
bx 5
bx A
bx O
b10100000100001 4
b10100000100001 J
b10100010001010000010000100 F
b101 >
b101 N
0*
b0 (
b0 2
10
1/
b10100 G
b10100 U
b1010000010011000 T
b100001 3
b101 L
b10 <
b101 ;
b10 M
b0 '
b10100 E
b10100 R
b101000100010100000100001 &
b10000 $
b10000 %
b10000 D
1!
#340
bx K
bx @
bx B
bx I
0!
#345
b11111111111111111111111111111111 K
b11000 #
b11000 H
b11111111111111111111111111111111 4
b11111111111111111111111111111111 J
b1100011111111111111111100 F
b11 >
b11 N
1.
b101 (
b101 2
1)
0/
b11000 G
b11000 U
b10100 T
b111111 3
b11111 L
b11 <
b11 ;
b11 M
b1001 '
b11000 E
b11000 R
b100100011000111111111111111111 &
b10100 $
b10100 %
b10100 D
1!
#350
0!
#355
xS
b0x =
b0x Q
bx K
b10000 #
b10000 H
b11111111111111111111111111111101 4
b11111111111111111111111111111101 J
b0x 5
b0x A
b0x O
b1100000111111111111110100 F
b0 >
b0 N
1*
0.
b11 (
b11 2
0)
00
b10000 G
b10000 U
b10000 T
b111101 3
b0 <
b0 M
b111 '
b11100 E
b11100 R
b11100011000001111111111111101 &
b11000 $
b11000 %
b11000 D
1!
#360
b0 K
b0 @
b0 B
b0 I
0!
#365
bx =
bx Q
0S
b10100 #
b10100 H
bx 5
bx A
bx O
b10100000100001 4
b10100000100001 J
b10100010001010000010000100 F
b101 >
b101 N
0*
b0 (
b0 2
10
1/
b10100 G
b10100 U
b1010000010011000 T
b100001 3
b101 L
b10 <
b101 ;
b10 M
b0 '
b10100 E
b10100 R
b101000100010100000100001 &
b10000 $
b10000 %
b10000 D
1!
#370
bx K
bx @
bx B
bx I
0!
#375
b11111111111111111111111111111111 K
b11000 #
b11000 H
b11111111111111111111111111111111 4
b11111111111111111111111111111111 J
b1100011111111111111111100 F
b11 >
b11 N
1.
b101 (
b101 2
1)
0/
b11000 G
b11000 U
b10100 T
b111111 3
b11111 L
b11 <
b11 ;
b11 M
b1001 '
b11000 E
b11000 R
b100100011000111111111111111111 &
b10100 $
b10100 %
b10100 D
1!
#380
0!
#385
xS
b0x =
b0x Q
bx K
b10000 #
b10000 H
b11111111111111111111111111111101 4
b11111111111111111111111111111101 J
b0x 5
b0x A
b0x O
b1100000111111111111110100 F
b0 >
b0 N
1*
0.
b11 (
b11 2
0)
00
b10000 G
b10000 U
b10000 T
b111101 3
b0 <
b0 M
b111 '
b11100 E
b11100 R
b11100011000001111111111111101 &
b11000 $
b11000 %
b11000 D
1!
#390
b0 K
b0 @
b0 B
b0 I
0!
#395
bx =
bx Q
0S
b10100 #
b10100 H
bx 5
bx A
bx O
b10100000100001 4
b10100000100001 J
b10100010001010000010000100 F
b101 >
b101 N
0*
b0 (
b0 2
10
1/
b10100 G
b10100 U
b1010000010011000 T
b100001 3
b101 L
b10 <
b101 ;
b10 M
b0 '
b10100 E
b10100 R
b101000100010100000100001 &
b10000 $
b10000 %
b10000 D
1!
#400
bx K
bx @
bx B
bx I
0!
#405
b11111111111111111111111111111111 K
b11000 #
b11000 H
b11111111111111111111111111111111 4
b11111111111111111111111111111111 J
b1100011111111111111111100 F
b11 >
b11 N
1.
b101 (
b101 2
1)
0/
b11000 G
b11000 U
b10100 T
b111111 3
b11111 L
b11 <
b11 ;
b11 M
b1001 '
b11000 E
b11000 R
b100100011000111111111111111111 &
b10100 $
b10100 %
b10100 D
1!
#410
0!
#415
xS
b0x =
b0x Q
bx K
b10000 #
b10000 H
b11111111111111111111111111111101 4
b11111111111111111111111111111101 J
b0x 5
b0x A
b0x O
b1100000111111111111110100 F
b0 >
b0 N
1*
0.
b11 (
b11 2
0)
00
b10000 G
b10000 U
b10000 T
b111101 3
b0 <
b0 M
b111 '
b11100 E
b11100 R
b11100011000001111111111111101 &
b11000 $
b11000 %
b11000 D
1!
#420
b0 K
b0 @
b0 B
b0 I
0!
#425
bx =
bx Q
0S
b10100 #
b10100 H
bx 5
bx A
bx O
b10100000100001 4
b10100000100001 J
b10100010001010000010000100 F
b101 >
b101 N
0*
b0 (
b0 2
10
1/
b10100 G
b10100 U
b1010000010011000 T
b100001 3
b101 L
b10 <
b101 ;
b10 M
b0 '
b10100 E
b10100 R
b101000100010100000100001 &
b10000 $
b10000 %
b10000 D
1!
