cleanup/results/CPUFileTest1.vcd
$date
	Fri Dec 14 15:14:18 2018
$end
$version
	Icarus Verilog
$end
$timescale
	1s
$end
$scope module CPUTester1 $end
$var reg 1 ! clk $end
$upscope $end
$scope module CPUTester1 $end
$var reg 1 " reset $end
$upscope $end
$scope module CPUTester1 $end
$scope module CPU_Test1 $end
$scope module Program_Counter $end
$var wire 1 ! Clk $end
$var wire 1 # Load $end
$var wire 32 $ PCNext [31:0] $end
$var wire 1 " Reset $end
$var reg 32 % PCResult [31:0] $end
$upscope $end
$upscope $end
$upscope $end
$scope module CPUTester1 $end
$scope module CPU_Test1 $end
$scope module Memory $end
$var wire 32 & address [31:0] $end
$var wire 1 ' byte $end
$var wire 32 ( dataIn [31:0] $end
$var wire 1 ) memEnable $end
$var wire 1 * rw $end
$var reg 1 + MOC $end
$var reg 32 , output_destination [31:0] $end
$upscope $end
$upscope $end
$upscope $end
$scope module CPUTester1 $end
$scope module CPU_Test1 $end
$scope module Control_Unit $end
$var wire 1 ! clk $end
$var wire 6 - opCode [5:0] $end
$var wire 1 " reset $end
$var wire 1 + MOC $end
$var reg 1 * RW $end
$var reg 6 . aluCode [5:0] $end
$var reg 2 / aluSrc [1:0] $end
$var reg 1 0 branch $end
$var reg 1 ' byte $end
$var reg 1 1 immediate $end
$var reg 1 2 irLoad $end
$var reg 1 3 jump $end
$var reg 1 4 marLoad $end
$var reg 1 5 mdrLoad $end
$var reg 1 6 mdrSource $end
$var reg 1 ) memEnable $end
$var reg 1 7 npcLoad $end
$var reg 1 # pcLoad $end
$var reg 1 8 pcSelect $end
$var reg 1 9 regWrite $end
$var reg 1 : rfSource $end
$var reg 5 ; state [4:0] $end
$var reg 1 < unSign $end
$upscope $end
$upscope $end
$upscope $end
$scope module CPUTester1 $end
$scope module CPU_Test1 $end
$scope module alu $end
$var wire 32 = b [31:0] $end
$var wire 6 > operation [5:0] $end
$var wire 32 ? a [31:0] $end
$var reg 32 @ Result [31:0] $end
$var reg 1 A carryFlag $end
$var reg 1 B condition $end
$var reg 1 C negativeFlag $end
$var reg 1 D overFlowFlag $end
$var reg 32 E tempVar [31:0] $end
$var reg 1 F zeroFlag $end
$var integer 32 G counter [31:0] $end
$var integer 32 H index [31:0] $end
$var integer 32 I var [31:0] $end
$upscope $end
$upscope $end
$upscope $end
$scope module CPUTester1 $end
$scope module CPU_Test1 $end
$scope module Register_File $end
$var wire 5 J A_Address [4:0] $end
$var wire 5 K B_Address [4:0] $end
$var wire 1 ! Clk $end
$var wire 1 9 Write $end
$var wire 32 L C_Data [31:0] $end
$var wire 5 M C_Address [4:0] $end
$var reg 32 N A_Data [31:0] $end
$var reg 32 O B_Data [31:0] $end
$upscope $end
$upscope $end
$upscope $end
$scope module CPUTester1 $end
$scope module CPU_Test1 $end
$scope module addFour $end
$var wire 32 P pc [31:0] $end
$var wire 32 Q result [31:0] $end
$upscope $end
$upscope $end
$upscope $end
$scope module CPUTester1 $end
$scope module CPU_Test1 $end
$scope module adder $end
$var wire 32 R entry1 [31:0] $end
$var wire 32 S entry0 [31:0] $end
$var reg 32 T result [31:0] $end
$upscope $end
$upscope $end
$upscope $end
$scope module CPUTester1 $end
$scope module CPU_Test1 $end
$scope module signExt $end
$var wire 16 U ins [15:0] $end
$var wire 1 < unSign $end
$var reg 32 V result [31:0] $end
$var reg 16 W tempOnes [15:0] $end
$var reg 16 X tempZero [15:0] $end
$upscope $end
$upscope $end
$upscope $end
$scope module CPUTester1 $end
$scope module CPU_Test1 $end
$scope module shftJump $end
$var wire 26 Y in [25:0] $end
$var reg 28 Z result [27:0] $end
$upscope $end
$upscope $end
$upscope $end
$scope module CPUTester1 $end
$scope module CPU_Test1 $end
$scope module shftLeft $end
$var wire 32 [ in [31:0] $end
$var reg 32 \ result [31:0] $end
$upscope $end
$upscope $end
$upscope $end
$scope module CPUTester1 $end
$scope module CPU_Test1 $end
$scope module simpleAND $end
$var wire 1 0 branch $end
$var wire 1 B condition $end
$var reg 1 ] result $end
$upscope $end
$upscope $end
$upscope $end
$scope module CPUTester1 $end
$scope module CPU_Test1 $end
$scope module MAR $end
$var wire 1 4 load $end
$var wire 32 ^ in [31:0] $end
$var reg 32 _ result [31:0] $end
$upscope $end
$upscope $end
$upscope $end
$scope module CPUTester1 $end
$scope module CPU_Test1 $end
$scope module MDR $end
$var wire 1 5 load $end
$var wire 32 ` in [31:0] $end
$var reg 32 a result [31:0] $end
$upscope $end
$upscope $end
$upscope $end
$scope module CPUTester1 $end
$scope module CPU_Test1 $end
$scope module NPC $end
$var wire 32 b in [31:0] $end
$var wire 1 7 load $end
$var reg 32 c result [31:0] $end
$upscope $end
$upscope $end
$upscope $end
$scope module CPUTester1 $end
$scope module CPU_Test1 $end
$scope module IR $end
$var wire 1 2 load $end
$var wire 32 d in [31:0] $end
$var reg 32 e result [31:0] $end
$upscope $end
$upscope $end
$upscope $end
$scope module CPUTester1 $end
$scope module CPU_Test1 $end
$scope module funcMux $end
$var wire 6 f one [5:0] $end
$var wire 1 1 s $end
$var wire 6 g zero [5:0] $end
$var reg 6 h result [5:0] $end
$upscope $end
$upscope $end
$upscope $end
$scope module CPUTester1 $end
$scope module CPU_Test1 $end
$scope module pcMux $end
$var wire 32 i one [31:0] $end
$var wire 1 8 s $end
$var wire 32 j zero [31:0] $end
$var reg 32 k result [31:0] $end
$upscope $end
$upscope $end
$upscope $end
$scope module CPUTester1 $end
$scope module CPU_Test1 $end
$scope module Jump_Mux $end
$var wire 32 l one [31:0] $end
$var wire 1 3 s $end
$var wire 32 m zero [31:0] $end
$var reg 32 n result [31:0] $end
$upscope $end
$upscope $end
$upscope $end
$scope module CPUTester1 $end
$scope module CPU_Test1 $end
$scope module ALU_Mux $end
$var wire 32 o three [31:0] $end
$var wire 32 p zero [31:0] $end
$var wire 32 q two [31:0] $end
$var wire 2 r s [1:0] $end
$var wire 32 s one [31:0] $end
$var reg 32 t result [31:0] $end
$upscope $end
$upscope $end
$upscope $end
$scope module CPUTester1 $end
$scope module CPU_Test1 $end
$scope module Register_Mux $end
$var wire 5 u one [4:0] $end
$var wire 1 : s $end
$var wire 5 v zero [4:0] $end
$var reg 5 w result [4:0] $end
$upscope $end
$upscope $end
$upscope $end
$scope module CPUTester1 $end
$scope module CPU_Test1 $end
$scope module mdrMux $end
$var wire 32 x one [31:0] $end
$var wire 1 6 s $end
$var wire 32 y zero [31:0] $end
$var reg 32 z result [31:0] $end
$upscope $end
$upscope $end
$upscope $end
$scope module CPUTester1 $end
$scope module CPU_Test1 $end
$scope module Branch_Mux $end
$var wire 32 { zero [31:0] $end
$var wire 1 ] s $end
$var wire 32 | one [31:0] $end
$var reg 32 } result [31:0] $end
$upscope $end
$upscope $end
$upscope $end
$enddefinitions $end
#0
$dumpvars
b100 }
bx |
b100 {
bx z
bx y
bx x
bx w
bx v
bx u
bx t
bx s
bx r
bx q
bx p
b0 o
b0xxxxxxxxxxxxxxxxxxxxxxxxxxxx n
b100 m
b0xxxxxxxxxxxxxxxxxxxxxxxxxxxx l
b0 k
bx j
b0 i
bx h
bx g
bx f
bx e
bx d
bx c
b0xxxxxxxxxxxxxxxxxxxxxxxxxxxx b
bx a
bx `
bx _
bx ^
0]
bx \
bx [
bx Z
bx Y
b0 X
b1111111111111111 W
bx V
bx U
bx T
bx S
b100 R
b100 Q
b0 P
bx O
bx N
bx M
bx L
bx K
bx J
b0 I
bx H
b0 G
0F
bx E
xD
xC
0B
xA
bx @
b0 ?
bx >
bx =
x<
b0 ;
x:
x9
x8
x7
x6
x5
x4
x3
x2
x1
x0
bx /
bx .
bx -
bx ,
1+
x*
x)
bx (
x'
bx &
b0 %
bx $
x#
0"
0!
$end
#5
b0 /
b0 r
b100 b
b100 n
bx ?
bx k
06
05
04
0*
00
03
09
0:
02
01
08
0)
0<
07
0#
0'
1!
#6
b1 ;
#10
0!
#15
0D
0A
b0 @
b0 ^
b0 x
b100001 >
b100001 h
b0 =
b0 t
b100001 .
b100001 f
b11 /
b11 r
b100 $
b100 c
b0 ?
b0 k
11
07
18
1!
#16
b0 &
b0 _
14
#17
b10 ;
#20
0!
#25
b100100000000010000000000101100 L
b100100000000010000000000101100 `
b100100000000010000000000101100 z
b100100000000010000000000101100 ,
b100100000000010000000000101100 d
b100100000000010000000000101100 y
0+
1)
04
1!
#26
b11 ;
#30
0!
#35
1!
#38
1+
#40
0!
#45
0)
1!
#46
b0 O
b0 p
b0 N
b0 j
b10110100 T
b10110100 |
b10110000 S
b10110000 \
b1000000000010110000 l
b1000000000010110000 Z
b101100 V
b101100 [
b101100 s
b1 M
b1 w
b10000000000101100 Y
b101100 U
b1 K
b0 J
b0 u
b1 v
b101100 g
b1001 -
b100100000000010000000000101100 e
12
#47
b100 ;
#50
0!
#55
b101100 >
b101100 h
1<
b100001 .
b100001 f
b0 /
b0 r
08
01
02
1!
#56
b110 ;
#60
0!
#65
b101100 @
b101100 ^
b101100 x
b101100 =
b101100 t
b101100 L
b101100 `
b101100 z
b100001 >
b100001 h
b1 /
b1 r
16
11
1!
#66
b101100 O
b101100 p
b1000 b
b1000 n
b1000 m
b1000 }
b10111000 T
b10111000 |
b1000 Q
b1000 R
b1000 {
b100 %
b100 P
b100 i
b101100 (
b101100 a
b101100 q
1#
17
19
15
#67
b1 ;
#70
0!
#75
b0 =
b0 t
b11 /
b11 r
b100 L
b100 `
b100 z
b100 @
b100 ^
b100 x
b100 ?
b100 k
07
0<
0#
05
18
1!
#76
b100 &
b100 _
14
#77
b10 ;
#80
0!
#85
b10010000001000100000000000000000 ,
b10010000001000100000000000000000 d
b10010000001000100000000000000000 y
0+
1)
04
1!
#86
b11 ;
#90
0!
#95
1!
#98
1+
#100
0!
#105
0)
1!
#106
b0 O
b0 p
b101100 N
b101100 j
b1000 T
b1000 |
b0 S
b0 \
b100010000000000000000000 l
b100010000000000000000000 Z
b0 V
b0 [
b0 s
b10 M
b10 w
b1000100000000000000000 Y
b0 U
b10 K
b1 J
b10 v
b0 g
b100100 -
b10010000001000100000000000000000 e
12
#107
b100 ;
#110
0!
#115
b0 @
b0 ^
b0 x
b101100 ?
b101100 k
b0 >
b0 h
b10010000001000100000000000000000 L
b10010000001000100000000000000000 `
b10010000001000100000000000000000 z
1'
1<
b100001 .
b100001 f
b0 /
b0 r
08
01
02
06
09
1!
#116
b111 ;
#120
0!
#125
0C
b100000 .
b100000 f
b1 /
b1 r
b101100 @
b101100 ^
b101100 x
b100000 >
b100000 h
11
1!
#126
b101100 &
b101100 _
14
#127
b1000 ;
#130
0!
#135
b11001000000000000000000000000 L
b11001000000000000000000000000 `
b11001000000000000000000000000 z
b11001000000000000000000000000 ,
b11001000000000000000000000000 d
b11001000000000000000000000000 y
0+
1)
04
1!
#136
b1001 ;
#140
0!
#142
1+
#145
1!
#146
b11001000000000000000000000000 O
b11001000000000000000000000000 p
b1100 b
b1100 n
b1100 m
b1100 }
b1100 T
b1100 |
b1100 Q
b1100 R
b1100 {
b1000 %
b1000 P
b1000 i
b1000 $
b1000 c
b11001000000000000000000000000 (
b11001000000000000000000000000 a
b11001000000000000000000000000 q
1#
17
19
0)
15
#147
b1 ;
#150
0!
#155
b100001 >
b100001 h
b100001 .
b100001 f
b11 /
b11 r
b1000 @
b1000 ^
b1000 x
b1000 ?
b1000 k
07
0<
0#
05
18
1!
#156
b1000 &
b1000 _
14
#157
b10 ;
#160
0!
#165
b10010000001000110000000000000010 L
b10010000001000110000000000000010 `
b10010000001000110000000000000010 z
b10010000001000110000000000000010 ,
b10010000001000110000000000000010 d
b10010000001000110000000000000010 y
0+
1)
0'
04
1!
#166
b11 ;
#170
0!
#175
1!
#178
1+
#180
0!
#185
0)
1!
#186
b0 O
b0 p
b10100 T
b10100 |
b1000 S
b1000 \
b100011000000000000001000 l
b100011000000000000001000 Z
b10 V
b10 [
b10 s
b11 M
b11 w
b1000110000000000000010 Y
b10 U
b11 K
b11 v
b10 g
b10010000001000110000000000000010 e
12
#187
b100 ;
#190
0!
#195
b0 @
b0 ^
b0 x
b101100 ?
b101100 k
b10 >
b10 h
1'
1<
b100001 .
b100001 f
b0 /
b0 r
08
01
02
09
1!
#196
b111 ;
#200
0!
#205
b10 =
b10 t
b100000 .
b100000 f
b1 /
b1 r
b101110 @
b101110 ^
b101110 x
b100000 >
b100000 h
11
1!
#206
b101110 &
b101110 _
14
#207
b1000 ;
#210
0!
#215
b111000000000000000000000000 L
b111000000000000000000000000 `
b111000000000000000000000000 z
b111000000000000000000000000 ,
b111000000000000000000000000 d
b111000000000000000000000000 y
0+
1)
04
1!
#216
b1001 ;
#220
0!
#222
1+
#225
1!
#226
b111000000000000000000000000 O
b111000000000000000000000000 p
b10000 b
b10000 n
b10000 m
b10000 }
b11000 T
b11000 |
b10000 Q
b10000 R
b10000 {
b1100 %
b1100 P
b1100 i
b1100 $
b1100 c
b111000000000000000000000000 (
b111000000000000000000000000 a
b111000000000000000000000000 q
1#
17
19
0)
15
#227
b1 ;
#230
0!
#235
b100001 >
b100001 h
b0 =
b0 t
b100001 .
b100001 f
b11 /
b11 r
b1100 @
b1100 ^
b1100 x
b1100 ?
b1100 k
07
0<
0#
05
18
1!
#236
b1100 &
b1100 _
14
#237
b10 ;
#240
0!
#245
b10100000100001 L
b10100000100001 `
b10100000100001 z
b10100000100001 ,
b10100000100001 d
b10100000100001 y
0+
1)
0'
04
1!
#246
b11 ;
#250
0!
#255
1!
#258
1+
#260
0!
#265
0)
1!
#266
b0 O
b0 p
b0 N
b0 j
b1010000010010100 T
b1010000010010100 |
b1010000010000100 S
b1010000010000100 \
b1010000010000100 l
b1010000010000100 Z
b10100000100001 V
b10100000100001 [
b10100000100001 s
b0 M
b0 w
b10100000100001 Y
b10100000100001 U
b0 K
b0 J
b101 u
b0 v
b100001 g
b0 -
b10100000100001 e
12
#267
b100 ;
#270
0!
#275
b0 @
b0 ^
b0 x
b0 ?
b0 k
b0 .
b0 f
b0 /
b0 r
08
01
02
09
1!
#276
b101 ;
#280
0!
#285
b0 L
b0 `
b0 z
b10100000100001 (
b10100000100001 a
b10100000100001 q
b101 M
b101 w
16
15
1:
1!
#286
b10100 b
b10100 n
b10100 m
b10100 }
b1010000010011000 T
b1010000010011000 |
b10100 Q
b10100 R
b10100 {
b10000 %
b10000 P
b10000 i
b10000 $
b10000 c
1#
17
19
#287
b1 ;
#290
0!
#295
b10000 L
b10000 `
b10000 z
b10000 @
b10000 ^
b10000 x
b100001 .
b100001 f
b11 /
b11 r
b100001 >
b100001 h
b10000 ?
b10000 k
07
11
0#
05
18
1!
#296
b10000 &
b10000 _
14
#297
b10 ;
#300
0!
#305
b101000100010100000100001 ,
b101000100010100000100001 d
b101000100010100000100001 y
0+
1)
04
1!
#306
b11 ;
#310
0!
#315
1!
#318
1+
#320
0!
#325
0)
1!
#326
b11001000000000000000000000000 O
b11001000000000000000000000000 p
b10100010001010000010000100 l
b10100010001010000010000100 Z
b101000100010100000100001 Y
b10 K
b101 J
b10 v
b101000100010100000100001 e
12
#327
b100 ;
#330
0!
#335
b11001000000000000000000000000 @
b11001000000000000000000000000 ^
b11001000000000000000000000000 x
b11001000000000000000000000000 =
b11001000000000000000000000000 t
b0 ?
b0 k
b101000100010100000100001 L
b101000100010100000100001 `
b101000100010100000100001 z
b0 .
b0 f
b0 /
b0 r
08
01
02
06
09
1!
#336
b101 ;
#340
0!
#345
b11001000000000000000000000000 L
b11001000000000000000000000000 `
b11001000000000000000000000000 z
b101000100010100000100001 (
b101000100010100000100001 a
b101000100010100000100001 q
16
15
1!
#346
b110010000000000000000000000000 L
b110010000000000000000000000000 `
b110010000000000000000000000000 z
b110010000000000000000000000000 @
b110010000000000000000000000000 ^
b110010000000000000000000000000 x
b11001000000000000000000000000 ?
b11001000000000000000000000000 k
b11001000000000000000000000000 N
b11001000000000000000000000000 j
b11000 b
b11000 n
b11000 m
b11000 }
b1010000010011100 T
b1010000010011100 |
b11000 Q
b11000 R
b11000 {
b10100 %
b10100 P
b10100 i
b10100 $
b10100 c
1#
17
19
#347
b1 ;
#350
0!
#355
b10100 L
b10100 `
b10100 z
b10100 @
b10100 ^
b10100 x
b0 =
b0 t
b100001 .
b100001 f
b11 /
b11 r
b100001 >
b100001 h
b10100 ?
b10100 k
07
11
0#
05
18
1!
#356
b10100 &
b10100 _
14
#357
b10 ;
#360
0!
#365
b100100011000111111111111111111 ,
b100100011000111111111111111111 d
b100100011000111111111111111111 y
0+
1)
04
1!
#366
b11 ;
#370
0!
#375
1!
#378
1+
#380
0!
#385
0)
1!
#386
b111000000000000000000000000 O
b111000000000000000000000000 p
b111000000000000000000000000 N
b111000000000000000000000000 j
b10100 T
b10100 |
b11111111111111111111111111111100 S
b11111111111111111111111111111100 \
b1100011111111111111111100 l
b1100011111111111111111100 Z
b11111111111111111111111111111111 V
b11111111111111111111111111111111 [
b11111111111111111111111111111111 s
b11111 M
b11111 w
b11000111111111111111111 Y
b1111111111111111 U
b11 K
b11 J
b11111 u
b11 v
b111111 g
b1001 -
b100100011000111111111111111111 e
12
#387
b100 ;
#390
0!
#395
b111000000000000000000000000 @
b111000000000000000000000000 ^
b111000000000000000000000000 x
b111000000000000000000000000 =
b111000000000000000000000000 t
b111000000000000000000000000 ?
b111000000000000000000000000 k
b111111 >
b111111 h
b100100011000111111111111111111 L
b100100011000111111111111111111 `
b100100011000111111111111111111 z
1<
b100001 .
b100001 f
b0 /
b0 r
08
01
02
06
09
1!
#396
b110 ;
#400
0!
#405
1A
b110111111111111111111111111 @
b110111111111111111111111111 ^
b110111111111111111111111111 x
b11111111111111111111111111111111 =
b11111111111111111111111111111111 t
b110111111111111111111111111 L
b110111111111111111111111111 `
b110111111111111111111111111 z
b100001 >
b100001 h
b11 M
b11 w
b1 /
b1 r
16
11
0:
1!
#406
b110111111111111111111111110 L
b110111111111111111111111110 `
b110111111111111111111111110 z
b110111111111111111111111110 @
b110111111111111111111111110 ^
b110111111111111111111111110 x
b110111111111111111111111111 ?
b110111111111111111111111111 k
b110111111111111111111111111 O
b110111111111111111111111111 p
b110111111111111111111111111 N
b110111111111111111111111111 j
b11100 b
b11100 n
b11100 m
b11100 }
b11000 T
b11000 |
b11100 Q
b11100 R
b11100 {
b11000 %
b11000 P
b11000 i
b11000 $
b11000 c
b110111111111111111111111111 (
b110111111111111111111111111 a
b110111111111111111111111111 q
1#
17
19
15
#407
b1 ;
#410
0!
#415
0A
b0 =
b0 t
b11 /
b11 r
b11000 L
b11000 `
b11000 z
b11000 @
b11000 ^
b11000 x
b11000 ?
b11000 k
07
0<
0#
05
18
1!
#416
b11000 &
b11000 _
14
#417
b10 ;
#420
0!
#425
b11100011000001111111111111101 ,
b11100011000001111111111111101 d
b11100011000001111111111111101 y
0+
1)
04
1!
#426
b11 ;
#430
0!
#435
1!
#438
1+
#440
0!
#445
0)
1!
#446
b0 O
b0 p
b10000 T
b10000 |
b11111111111111111111111111110100 S
b11111111111111111111111111110100 \
b1100000111111111111110100 l
b1100000111111111111110100 Z
b11111111111111111111111111111101 V
b11111111111111111111111111111101 [
b11111111111111111111111111111101 s
b0 M
b0 w
b11000001111111111111101 Y
b1111111111111101 U
b0 K
b0 v
b111101 g
b111 -
b11100011000001111111111111101 e
12
#447
b100 ;
#450
0!
#455
b110111111111111111111111111 ?
b110111111111111111111111111 k
b111101 >
b111101 h
b11100011000001111111111111101 L
b11100011000001111111111111101 `
b11100011000001111111111111101 z
b1111 .
b1111 f
b0 /
b0 r
08
01
02
06
09
1!
#456
b10000 ;
#460
0!
#465
b1 @
b1 ^
b1 x
b11111111111111111111111111111101 =
b11111111111111111111111111111101 t
b1111 >
b1111 h
10
b1 /
b1 r
11
1!
#466
b1 ;
#470
0!
#475
b11100 @
b11100 ^
b11100 x
b100001 >
b100001 h
b0 =
b0 t
b100001 .
b100001 f
b11 /
b11 r
b100000 b
b100000 n
b100000 m
b100000 }
b10100 T
b10100 |
b100000 Q
b100000 R
b100000 {
b11100 %
b11100 P
b11100 i
b11100 $
b11100 c
b11100 ?
b11100 k
07
18
1!
#476
b11100 &
b11100 _
14
#477
b10 ;
#480
0!
#485
b0 L
b0 `
b0 z
b0 ,
b0 d
b0 y
0+
1)
04
1!
#486
b11 ;
#490
0!
#495
1!
#498
1+
#500
0!
#505
0)
1!
#506
b0 N
b0 j
b100000 T
b100000 |
b0 S
b0 \
b0 l
b0 Z
b0 V
b0 [
b0 s
b0 Y
b0 U
b0 J
b0 u
b0 g
b0 -
b0 e
12
#507
b100 ;
#510
0!
#515
b0 @
b0 ^
b0 x
b0 ?
b0 k
b0 >
b0 h
b0 .
b0 f
b0 /
b0 r
08
01
02
1!
#516
b101 ;
#520
0!
#525
b0 (
b0 a
b0 q
16
15
00
1:
1!
#526
b100100 b
b100100 n
b100100 m
b100100 }
b100100 T
b100100 |
b100100 Q
b100100 R
b100100 {
b100000 %
b100000 P
b100000 i
b100000 $
b100000 c
1#
17
19
#527
b1 ;
#530
0!
#535
b100000 L
b100000 `
b100000 z
b100000 @
b100000 ^
b100000 x
b100001 >
b100001 h
b100001 .
b100001 f
b11 /
b11 r
b100000 ?
b100000 k
07
11
0#
05
18
1!
#536
b100000 &
b100000 _
14
#537
b10 ;
#540
0!
#545
b10100000001001010000000000000001 ,
b10100000001001010000000000000001 d
b10100000001001010000000000000001 y
0+
1)
04
1!
#546
b11 ;
#550
0!
#555
1!
#558
1+
#560
0!
#565
0)
1!
#566
b11001000000000000000000000000 O
b11001000000000000000000000000 p
b101100 N
b101100 j
b101000 T
b101000 |
b100 S
b100 \
b100101000000000000000100 l
b100101000000000000000100 Z
b1 V
b1 [
b1 s
b1001010000000000000001 Y
b1 U
b101 K
b1 J
b101 v
b1 g
b101000 -
b10100000001001010000000000000001 e
12
#567
b100 ;
#570
0!
#575
b11001000000000000000000000000 =
b11001000000000000000000000000 t
b101100 ?
b101100 k
b1 >
b1 h
b10100000001001010000000000000001 L
b10100000001001010000000000000001 `
b10100000001001010000000000000001 z
1'
b0 .
b0 f
b0 /
b0 r
08
01
02
06
09
1!
#576
b1010 ;
#580
0!
#585
b1 =
b1 t
b100000 .
b100000 f
b1 /
b1 r
b101101 @
b101101 ^
b101101 x
b100000 >
b100000 h
11
1!
#586
b101101 &
b101101 _
14
#587
b1011 ;
#590
0!
#595
b0 @
b0 ^
b0 x
b111 >
b111 h
b11001000000000000000000000000 =
b11001000000000000000000000000 t
b111 .
b111 f
b0 /
b0 r
b0 L
b0 `
b0 z
16
04
1!
#596
15
#597
b1100 ;
#600
0!
#605
b110010000000000000000000000000 L
b110010000000000000000000000000 `
b110010000000000000000000000000 z
b110010000000000000000000000000 @
b110010000000000000000000000000 ^
b110010000000000000000000000000 x
b0 >
b0 h
b0 .
b0 f
b101000 b
b101000 n
b101000 m
b101000 }
b101100 T
b101100 |
b101000 Q
b101000 R
b101000 {
b100100 %
b100100 P
b100100 i
b100100 $
b100100 c
0+
0'
1#
17
1*
0)
05
1!
#606
b1 ;
#610
0!
#615
b100100 L
b100100 `
b100100 z
b100100 @
b100100 ^
b100100 x
b100001 >
b100001 h
b0 =
b0 t
b100001 .
b100001 f
b11 /
b11 r
b100100 ?
b100100 k
07
0#
18
1!
#616
b100100 &
b100100 _
14
#617
b10 ;
#618
1+
#620
0!
#625
b10000000000000000000000000010 ,
b10000000000000000000000000010 d
b10000000000000000000000000010 y
0+
0*
1)
04
1!
#626
b11 ;
#630
0!
#635
1!
#638
1+
#640
0!
#645
0)
1!
#646
b0 O
b0 p
b0 N
b0 j
b110000 T
b110000 |
b1000 S
b1000 \
b1000 l
b1000 Z
b10 V
b10 [
b10 s
b10 Y
b10 U
b0 K
b0 J
b0 v
b10 g
b100 -
b10000000000000000000000000010 e
12
#647
b100 ;
#650
0!
#655
b0 @
b0 ^
b0 x
b0 ?
b0 k
b10 >
b10 h
b10000000000000000000000000010 L
b10000000000000000000000000010 `
b10000000000000000000000000010 z
b1 .
b1 f
b0 /
b0 r
08
01
02
06
1!
#656
b10000 ;
#660
0!
#665
b10 =
b10 t
b1 >
b1 h
10
b1 /
b1 r
11
1!
#666
b1 ;
#670
0!
#675
b101000 @
b101000 ^
b101000 x
b100001 >
b100001 h
b0 =
b0 t
b100001 .
b100001 f
b11 /
b11 r
b101100 b
b101100 n
b101100 m
b101100 }
b110100 T
b110100 |
b101100 Q
b101100 R
b101100 {
b101000 %
b101000 P
b101000 i
b101000 $
b101000 c
b101000 ?
b101000 k
07
18
1!
#676
b101000 &
b101000 _
14
#677
b10 ;
#680
0!
#685
b0 L
b0 `
b0 z
b0 ,
b0 d
b0 y
0+
1)
04
1!
#686
b11 ;
#690
0!
#695
1!
#698
1+
